Place,Member,First,Last,Start,Pace,Est Time
1,1005,Ann-Marie,Wangdi,00:10,07:59,1:05:47.0
2,3748,Amelia,Mitchell,00:10,07:59,1:05:47.0
3,3750,Genevieve,Draper,00:10,07:59,1:05:47.0
4,3781,Hamish,Draper,00:10,07:59,1:05:47.0
5,40,Aida,Escall,01:10,07:51,1:04:41.0
6,3776,Kathleen,Pleasants,07:30,07:05,0:58:22.0
7,3796,Nathan,Dunn,08:10,07:00,0:57:40.8
8,2,Alan,East,09:00,06:55,0:56:59.6
9,1069,Julie,Marr,10:20,06:45,0:55:37.2
10,1070,Thomas,Lee,10:30,06:43,0:55:20.7
11,3741,Kim,Carter,11:10,06:39,0:54:47.8
12,201,Beatrice,Lonsdale,11:20,06:38,0:54:39.5
13,1068,Nick,O'Meara,11:40,06:35,0:54:14.8
14,270,Tyler,Wilkie,13:40,06:21,0:52:19.4
15,100,Justine,Rowe,13:40,06:20,0:52:11.2
16,159,Renelle,McManus,13:40,06:20,0:52:11.2
17,190,Michaela,Meharry,13:40,06:20,0:52:11.2
18,1028,Mel,Debnam-Smith,13:50,06:19,0:52:03.0
19,43,Josephine,Robinson,15:00,06:11,0:50:57.0
20,191,Phoebe,Lonsdale,15:00,06:11,0:50:57.0
21,66,Megan,McDonald,15:10,06:10,0:50:48.8
22,186,Jason,Anderton,15:10,06:10,0:50:48.8
23,1002,Tammy,Fear,15:50,06:05,0:50:07.6
24,6,Shayne,Rushan,16:20,06:01,0:49:34.6
25,157,Bec,Lacy,16:20,06:01,0:49:34.6
26,16,Jennifer,Lee,16:50,05:57,0:49:01.7
27,149,Janelle,Giffin,17:20,05:54,0:48:37.0
28,197,Sue,Taylor,17:30,05:53,0:48:28.7
29,233,Sue,Anderton,17:50,05:50,0:48:04.0
30,3732,Emma,Gibbons,18:20,05:47,0:47:39.3
31,54,Kevin,de Vries,18:30,05:45,0:47:22.8
32,87,Frances,Walsh,18:40,05:44,0:47:14.6
33,210,Fiona,Dangerfield,18:40,05:44,0:47:14.6
34,3747,Jeremy,Draper,19:10,05:40,0:46:41.6
35,251,Beth,Lavery,19:40,05:37,0:46:16.9
36,52,Leah,Cripps,19:50,05:35,0:46:00.4
37,111,Troy,Davis,19:50,05:35,0:46:00.4
38,74,Maree,Platt,20:10,05:33,0:45:43.9
39,364,David,Howes,20:10,05:33,0:45:43.9
40,1066,Jodie,McLeod,20:40,05:30,0:45:19.2
41,1079,Josh,Kent,20:40,05:30,0:45:19.2
42,91,Melissa,Wilkie,20:40,05:29,0:45:11.0
43,3758,Janis,Bull,20:40,05:29,0:45:11.0
44,299,Jay,Sanderson,20:50,05:28,0:45:02.7
45,1087,Deanna,Marshall,20:50,05:28,0:45:02.7
46,3777,Alistair,Stewart,20:50,05:28,0:45:02.7
47,67,Leeza,Meharry,21:10,05:26,0:44:46.2
48,3740,Vicki,Lane,21:20,05:25,0:44:38.0
49,22,Ross,Douglas,22:00,05:20,0:43:56.8
50,1058,Tyler,Swann,22:10,05:19,0:43:48.6
51,77,Brad,Russell,22:20,05:17,0:43:32.1
52,1025,Liz,Foster,22:20,05:17,0:43:32.1
53,1041,Lachlan,Cherry,22:20,05:17,0:43:32.1
54,1024,Todd,Foster,22:30,05:16,0:43:23.8
55,1078,Leigh,Draper,22:50,05:14,0:43:07.4
56,59,Tina,McBain,23:00,05:13,0:42:59.1
57,307,Philip,Shambrook,23:10,05:11,0:42:42.6
58,1067,Scott,McLeod,23:10,05:11,0:42:42.6
59,13,Gavin,Fiedler,23:30,05:09,0:42:26.2
60,183,Janet,Hodnett,23:40,05:08,0:42:17.9
61,253,Charlotte,Murphy,23:40,05:08,0:42:17.9
62,3786,Stephen,McConnell,23:50,05:07,0:42:09.7
63,3,Alan,Buchanan,23:50,05:06,0:42:01.4
64,29,Alison,Cartner,23:50,05:06,0:42:01.4
65,55,Justin,Lee,24:00,05:05,0:41:53.2
66,241,Andrea,Smith,24:00,05:05,0:41:53.2
67,1088,Molly,Butler,24:50,04:59,0:41:03.8
68,400,Darren,Rowe,25:10,04:57,0:40:47.3
69,333,Jon,McIntosh,25:20,04:55,0:40:30.8
70,1074,David,Burrow,25:30,04:54,0:40:22.6
71,34,Mathew,Creer,26:00,04:51,0:39:57.8
72,359,Anne,McIntosh,26:00,04:51,0:39:57.8
73,5,Jenny,Buchanan,26:10,04:50,0:39:49.6
74,9,Trinity,Sanderson,26:10,04:50,0:39:49.6
75,1072,Michael,Farr,26:10,04:50,0:39:49.6
76,1091,Adrian,McMahon,26:10,04:50,0:39:49.6
77,3760,Karl,Stoltz,26:10,04:50,0:39:49.6
78,1099,Kelvin,Niblett,26:10,04:49,0:39:41.4
79,39,Melissa,Douglas,26:20,04:48,0:39:33.1
80,60,Greg,McBain,26:20,04:48,0:39:33.1
81,3726,Clare,Montgomery,26:20,04:48,0:39:33.1
82,3735,Travis,Edwards,26:20,04:48,0:39:33.1
83,14,Lisa,Wilkinson,26:30,04:47,0:39:24.9
84,278,James,Russell,26:50,04:45,0:39:08.4
85,1003,Damien,Roberts,26:50,04:45,0:39:08.4
86,1029,James,Trew,26:50,04:45,0:39:08.4
87,1040,Erin,Williams,26:50,04:45,0:39:08.4
88,384,Andrew,Wilkie,27:30,04:40,0:38:27.2
89,3788,Matthew,Schubert,27:30,04:40,0:38:27.2
90,3797,Laura,Reynolds,27:30,04:40,0:38:27.2
91,1036,Harry,Wright,27:40,04:38,0:38:10.7
92,31,Charles,Chambers,27:50,04:37,0:38:02.5
93,394,Rhianna,Wik-Gamble,27:50,04:37,0:38:02.5
94,386,Danny,Burgess,28:00,04:36,0:37:54.2
95,85,Joanne,Russell,28:10,04:35,0:37:46.0
96,1020,Mumtaz,Hussain,28:10,04:35,0:37:46.0
97,3763,Brett,Dobbin,28:30,04:32,0:37:21.3
98,65,Ben,McDermid,28:50,04:30,0:37:04.8
99,254,William,Robinson,29:00,04:29,0:36:56.6
100,3714,Tanner,Fear,29:10,04:28,0:36:48.3
101,1057,Wes,Jenkyn,29:20,04:27,0:36:40.1
102,3730,Greg,Carter,30:00,04:22,0:35:58.9
103,94,David,Lonsdale,30:00,04:21,0:35:50.6
104,49,David,Heislers,30:10,04:20,0:35:42.4
105,350,David,Cripps,30:40,04:17,0:35:17.7
106,1009,Nicholas,Cherry,30:50,04:15,0:35:01.2
107,15,Rebecca,Wilkinson,31:00,04:14,0:34:53.0
108,1027,Andrew,Van Agtmaal,31:30,04:11,0:34:28.2
109,63,John,Robinson,31:40,04:09,0:34:11.8
110,84,Craig,Green,31:40,04:09,0:34:11.8
111,169,Floyd,Cartner,31:40,04:09,0:34:11.8
112,51,Andrew,Hosking,32:00,04:07,0:33:55.3
113,3787,Amy,McCormick,32:10,04:06,0:33:47.0
114,33,Andrew,Creer,32:20,04:04,0:33:30.6
115,118,Tim,Lauder,32:30,04:03,0:33:22.3
116,1043,Michael,Gibbons,32:40,04:02,0:33:14.1
117,308,Chris,Giffin,33:00,04:00,0:32:57.6
118,1080,Jayson,Carter,33:10,03:59,0:32:49.4
119,62,Lee,McCullagh,33:10,03:58,0:32:41.1
120,125,Sarah,Jalim,33:10,03:58,0:32:41.1
121,8,Rik,McCaig,33:20,03:57,0:32:32.9
122,1031,Jack,Milligan,33:20,03:57,0:32:32.9
123,88,Brian,Watson,33:50,03:54,0:32:08.2
124,48,Matthew,Heislers,34:00,03:53,0:31:59.9
125,1023,Matthew,Schepisi,34:00,03:52,0:31:51.7
126,42,Craig,Feuerherdt,34:30,03:49,0:31:27.0
127,23,Michael,Bieleny,34:40,03:48,0:31:18.7
128,219,Wil,McCaig,34:40,03:48,0:31:18.7
129,1061,Tarli,Bird,34:40,03:48,0:31:18.7
130,1022,Ben,Stolz,34:50,03:46,0:31:02.2
131,1034,Garry,Marwood,35:30,03:42,0:30:29.3
132,3739,Stephen,van Rees,35:30,03:41,0:30:21.0
133,1056,Kye,Jenkyn,36:20,03:35,0:29:31.6
134,3701,Nigel,Preston,37:30,03:27,0:28:25.7
135,27,Andrew,Buchanan,39:50,03:10,0:26:05.6
