Place,First,Last,NET Time,Pace,Diff
1,Jay,Sanderson,0:43:02.0,05:13,-02:00.7
2,Justine,Rowe,0:50:31.8,06:08,-01:39.4
3,Leigh,Draper,0:41:32.5,05:02,-01:34.9
4,Maree,Platt,0:44:25.6,05:24,-01:18.3
5,Brad,Russell,0:42:18.7,05:08,-01:13.4
6,Craig,Green,0:33:04.6,04:01,-01:07.2
7,Justin,Lee,0:40:53.1,04:58,-01:00.1
8,James,Trew,0:38:10.2,04:38,-00:58.2
9,Michael,Farr,0:38:54.7,04:43,-00:54.9
10,Andrew,Hosking,0:33:07.9,04:01,-00:47.4
11,Anne,McIntosh,0:39:11.7,04:45,-00:46.1
12,Janelle,Giffin,0:47:56.0,05:49,-00:41.0
13,Todd,Foster,0:42:53.0,05:12,-00:30.8
14,Liz,Foster,0:43:08.3,05:14,-00:23.8
15,Greg,Carter,0:35:37.4,04:19,-00:21.5
16,Darren,Rowe,0:40:26.5,04:54,-00:20.8
17,Shayne,Rushan,0:49:14.6,05:59,-00:20.0
18,Alison,Cartner,0:41:43.1,05:04,-00:18.3
19,Chris,Giffin,0:32:41.2,03:58,-00:16.4
20,Lisa,Wilkinson,0:39:16.2,04:46,-00:08.7
21,Andrea,Smith,0:41:55.3,05:05,+00:02.1
22,David,Cripps,0:35:25.2,04:18,+00:07.5
23,David,Lonsdale,0:35:58.6,04:22,+00:08.0
24,Kevin,de Vries,0:47:44.3,05:48,+00:21.5
25,Sue,Taylor,0:49:11.0,05:58,+00:42.3
26,Mumtaz,Hussain,0:38:30.0,04:40,+00:44.0
27,Renelle,McManus,0:53:19.8,06:28,+01:08.6
28,Trinity,Sanderson,0:41:22.3,05:01,+01:32.7
29,Ross,Douglas,0:45:34.7,05:32,+01:37.9
30,Kelvin,Niblett,0:41:20.6,05:01,+01:39.2
31,Jon,McIntosh,0:43:46.4,05:19,+03:15.6
32,William,Robinson,0:40:39.3,04:56,+03:42.7
33,Gavin,Fiedler,0:47:23.0,05:45,+04:56.8
34,John,Robinson,0:40:39.1,04:56,+06:27.3
35,David,Burrow,0:56:02.3,06:48,+15:39.7
NEW,Lachlan,Van Schaik,0:32:12.1,03:54
