Place,First Name,Surname,Time,+ or -,Amount
1,Jacinta,Bath,24:48,-,3:12
2,Matthew ,Saxon,19:58,-,2:02
3,Kathryne,Charnas,26:27,-,1:13
4,Tullie,Rowe,18:53,-,0:47
5,Ross,Douglas,18:34,-,0:46
6,Nicole,Kelly,23:20,-,0:20
7,Maxwell,Pearse,16:00,-,0:20
8,Beatrice,Lonsdale,21:27,-,0:17
9,Janyta,Lunt,23:48,-,0:12
10,Jack,Meade,16:58,-,0:02
11,David,Lonsdale,18:50,+,0:10
12,Callum,Tucker,18:07,+,0:15
13,Lewis,Fisher,22:21,+,1:01
14,Hueston,Pearse,25:02,+,1:02
