Place,Member,First,Last,Start,Pace,Est Time
1,1028,Mel,Debham,00:10,07:59,1:19:50.0
2,3750,Genevieve,Draper,00:10,07:59,1:19:50.0
3,3748,Amelia,Mitchell,00:10,07:59,1:19:50.0
4,3781,Hamish,Draper,00:10,07:59,1:19:50.0
5,1005,Ann-Marie,Wangdi,00:10,07:59,1:19:50.0
6,1070,Thomas,Lee,00:10,07:59,1:19:50.0
7,2,Alan,East,12:20,06:46,1:07:40.0
8,39,Melissa,Douglas,12:30,06:45,1:07:30.0
9,1069,Julie,Marr,12:30,06:45,1:07:30.0
10,3741,Kim,Carter,13:30,06:39,1:06:30.0
11,201,Beatrice,Lonsdale,13:40,06:38,1:06:20.0
12,3776,Kathleen,Pleasants,13:50,06:37,1:06:10.0
13,3715,Chloe,Green,14:10,06:35,1:05:50.0
14,270,Tyler,Wilkie,16:30,06:21,1:03:30.0
15,190,Michaela,Meharry,16:40,06:20,1:03:20.0
16,159,Renelle,McManus,17:30,06:15,1:02:30.0
17,191,Phoebe,Lonsdale,18:10,06:11,1:01:50.0
18,66,Megan,McDonald,18:20,06:10,1:01:40.0
19,397,Taylor,Lovell,18:40,06:08,1:01:20.0
20,100,Justine,Rowe,19:20,06:04,1:00:40.0
21,35,Conor,Cunningham,20:40,05:56,0:59:20.0
22,210,Fiona,Dangerfield,21:00,05:54,0:59:00.0
23,197,Sue,Taylor,21:20,05:52,0:58:40.0
24,157,Bec,Lacy,21:30,05:51,0:58:30.0
25,149,Janelle,Giffin,21:30,05:51,0:58:30.0
26,43,Josephine,Robinson,21:30,05:51,0:58:30.0
27,334,Alex,Trantor,22:00,05:48,0:58:00.0
28,3732,Emma,Gibbons,22:10,05:47,0:57:50.0
29,54,Kevin,de Vries,22:20,05:46,0:57:40.0
30,68,Justin,O'Brien,22:20,05:46,0:57:40.0
31,392,Mark,Logan,23:00,05:42,0:57:00.0
32,251,Beth,Lavery,23:50,05:37,0:56:10.0
33,16,Jennifer,Lee,24:00,05:36,0:56:00.0
34,87,Frances,Walsh,24:10,05:35,0:55:50.0
35,111,Troy,Davis,24:10,05:35,0:55:50.0
36,364,David,Howes,24:30,05:33,0:55:30.0
37,91,Melissa,Wilkie,25:00,05:30,0:55:00.0
38,398,Angus,McPherson,25:00,05:30,0:55:00.0
39,1025,Liz,Foster,25:20,05:28,0:54:40.0
40,359,Anne,McIntosh,25:20,05:28,0:54:40.0
41,52,Leah,Cripps,25:20,05:28,0:54:40.0
42,67,Leeza,Meharry,25:40,05:26,0:54:20.0
43,3777,Alistair,Stewart,25:50,05:25,0:54:10.0
44,299,Jay,Sanderson,26:00,05:24,0:54:00.0
45,74,Maree,Platt,26:20,05:22,0:53:40.0
46,3740,Vicki,Lane,26:40,05:20,0:53:20.0
47,339,James,Toomey,26:50,05:19,0:53:10.0
48,1058,Tyler,Swann,26:50,05:19,0:53:10.0
49,6,Shayne,Rushan,27:00,05:18,0:53:00.0
50,1041,Lachlan,Cherry,27:10,05:17,0:52:50.0
51,13,Gavin,Fiedler,27:30,05:15,0:52:30.0
52,77,Brad,Russell,27:30,05:15,0:52:30.0
53,59,Tina,McBain,27:50,05:13,0:52:10.0
54,180,Lauren,Hancock,28:00,05:12,0:52:00.0
55,3747,Jeremy,Draper,28:10,05:11,0:51:50.0
56,307,Philip,Shambrook,28:20,05:10,0:51:40.0
57,253,Charlotte,Murphy,28:40,05:08,0:51:20.0
58,183,Janet,Hodnett,29:00,05:06,0:51:00.0
59,1024,Todd,Foster,29:30,05:03,0:50:30.0
60,9,Trinity,Sanderson,29:30,05:03,0:50:30.0
61,333,Jon,McIntosh,29:50,05:01,0:50:10.0
62,22,Ross,Douglas,29:50,05:01,0:50:10.0
63,400,Darren,Rowe,30:00,05:00,0:50:00.0
64,3702,Vicki,Bayliss,30:10,04:59,0:49:50.0
65,315,Paul,Lomax,30:10,04:59,0:49:50.0
66,241,Andrea,Smith,30:20,04:58,0:49:40.0
67,29,Alison,Cartner,31:00,04:54,0:49:00.0
68,369,Stephen,Wainwright,31:00,04:54,0:49:00.0
69,3714,Tanner,Fear,31:10,04:53,0:48:50.0
70,296,Ashlee,Diston,31:10,04:53,0:48:50.0
71,18,Georgie,Lanyon,31:30,04:51,0:48:30.0
72,34,Mathew,Creer,31:30,04:51,0:48:30.0
73,3735,Travis,Edwards,32:00,04:48,0:48:00.0
74,3726,Clare,Montgomery,32:00,04:48,0:48:00.0
75,60,Greg,McBain,32:00,04:48,0:48:00.0
76,5,Jenny,Buchanan,32:10,04:47,0:47:50.0
77,278,James,Russell,32:20,04:46,0:47:40.0
78,14,Lisa,Wilkinson,32:30,04:45,0:47:30.0
79,394,Rhianna,Wik-Gamble,33:00,04:42,0:47:00.0
80,1020,Mumtaz,Hussain,33:20,04:40,0:46:40.0
81,1036,Harry,Wright,33:40,04:38,0:46:20.0
82,3,Alan,Buchanan,33:50,04:37,0:46:10.0
83,1003,Damien,Roberts,34:00,04:36,0:46:00.0
84,31,Charles,Chambers,34:20,04:34,0:45:40.0
85,109,Tim,Lovell,34:30,04:33,0:45:30.0
86,384,Andrew,Wilkie,34:30,04:33,0:45:30.0
87,3744,Finn,MacGregor,34:50,04:31,0:45:10.0
88,55,Justin,Lee,34:50,04:31,0:45:10.0
89,396,Simon,Hunt,35:00,04:30,0:45:00.0
90,1057,Wes,Jenkyn,35:30,04:27,0:44:30.0
91,350,David,Cripps,36:20,04:22,0:43:40.0
92,17,Karl,Lanyon,36:30,04:21,0:43:30.0
93,386,Danny,Burgess,36:40,04:20,0:43:20.0
94,3734,Lukas,Jara,37:00,04:18,0:43:00.0
95,1031,Jack,Milligan,37:20,04:16,0:42:40.0
96,1009,Nicholas,Cherry,37:30,04:15,0:42:30.0
97,49,David,Heislers,37:40,04:14,0:42:20.0
98,3730,Greg,Carter,37:50,04:13,0:42:10.0
99,1027,Andrew,Van Agtmaal,38:10,04:11,0:41:50.0
100,65,Ben,McDermid,38:20,04:10,0:41:40.0
101,308,Chris,Giffin,38:20,04:10,0:41:40.0
102,94,David,Lonsdale,38:40,04:08,0:41:20.0
103,15,Rebecca,Wilkinson,38:50,04:07,0:41:10.0
104,399,Darren,Hartland,38:50,04:07,0:41:10.0
105,63,John,Robinson,39:20,04:04,0:40:40.0
106,118,Tim,Lauder,39:30,04:03,0:40:30.0
107,3746,Peter,King,40:00,04:00,0:40:00.0
108,301,Jarrod,Eps,40:00,04:00,0:40:00.0
109,84,Craig,Green,40:10,03:59,0:39:50.0
110,125,Sarah,Jalim,40:10,03:59,0:39:50.0
111,1043,Michael,Gibbons,40:20,03:58,0:39:40.0
112,1034,Garry,Marwood,40:30,03:57,0:39:30.0
113,8,Rik,McCaig,40:40,03:56,0:39:20.0
114,88,Brian,Watson,41:00,03:54,0:39:00.0
115,48,Matthew,Heislers,41:10,03:53,0:38:50.0
116,62,Lee,McCullagh,41:10,03:53,0:38:50.0
117,33,Andrew,Creer,41:10,03:53,0:38:50.0
118,1023,Matthew,Schepisi,41:20,03:52,0:38:40.0
119,42,Craig,Feuerherdt,41:50,03:49,0:38:10.0
120,219,Wil,McCaig,42:00,03:48,0:38:00.0
121,1022,Ben,Stolz,42:20,03:46,0:37:40.0
122,23,Michael,Bieleny,42:20,03:46,0:37:40.0
123,1061,Tarli,Bird,42:20,03:46,0:37:40.0
124,3739,Stephen,van Rees,44:00,03:36,0:36:00.0
125,1056,Kye,Jenkyn,44:10,03:35,0:35:50.0
126,3701,Nigel,Preston,44:50,03:31,0:35:10.0
127,86,Fraser,Walsh,46:50,03:19,0:33:10.0
128,27,Andrew,Buchanan,48:20,03:10,0:31:40.0
