1;AAAA-1070;0000-00-00;00:00:35.929;;116;-46;da6141
2;244;0000-00-00;00:08:30.905;11573;41;-61;a43da1
3;2;0000-00-00;00:12:40.854;11573;118;-39;207806
4;210;0000-00-00;00:21:21.283;11573;89;-33;06ff68
5;AAAA-1074;0000-00-00;00:25:22.406;;59;-44;9f396f
6;AAAA-1025;0000-00-00;00:25:41.368;;112;-44;70a832
7;AABM-3740;0000-00-00;00:27:02.725;;80;-51;126fe6
8;13;0000-00-00;00:27:51.548;11573;78;-36;81a1be
9;183;0000-00-00;00:29:21.681;11573;86;-35;392b2d
10;AAAA-1024;0000-00-00;00:29:51.537;;80;-46;141d0e
11;22;0000-00-00;00:30:13.104;11573;64;-31;b485ef
12;AACT-400;0000-00-00;00:30:22.755;;59;-46;3682ea
13;521;0000-00-00;00:30:53.099;11573;252;-47;e5ae23
14;29;0000-00-00;00:31:20.198;11573;82;-38;20bf61
15;AAAA-1020;0000-00-00;00:33:41.818;;89;-42;8d9bb9
16;55;0000-00-00;00:35:11.716;11573;70;-35;38da41
17;65;0000-00-00;00:38:42.068;11573;84;-31;84d289
18;AACT-308;0000-00-00;00:38:42.858;;74;-41;0b58fd
19;94;0000-00-00;00:39:02.418;11573;66;-39;40ea86
20;42;0000-00-00;00:42:11.538;11573;64;-36;fdd3c1
21;AAAA-1061;0000-00-00;00:42:42.008;;96;-39;4528cc
22;AABM-3739;0000-00-00;00:44:21.985;;68;-51;78a9dc
23;AABM-3701;0000-00-00;00:45:10.353;;66;-51;c96ae6
24;AAAA-1046;0000-00-00;00:55:09.913;;7;-69;74da20
25;AAAA-1070;0000-00-00;01:07:44.929;;95;-52;ee3ed2
26;210;0000-00-00;01:18:43.209;11573;90;-43;f6ab9d
27;13;0000-00-00;01:19:18.604;11573;126;-35;2c8fc6
28;2;0000-00-00;01:19:21.951;11573;113;-39;e7f177
29;AABM-3701;0000-00-00;01:19:37.307;;47;-45;bf9aa5
30;AAAA-1024;0000-00-00;01:20:02.477;;90;-42;fc0350
31;AAAA-1061;0000-00-00;01:20:41.135;;92;-41;0081cb
32;AAAA-1020;0000-00-00;01:20:49.885;;80;-42;ab3f7a
33;42;0000-00-00;01:20:52.850;11573;52;-36;b43e56
34;AAAA-1074;0000-00-00;01:21:12.062;;76;-52;9d60ea
35;AACT-400;0000-00-00;01:21:14.007;;78;-46;f76733
36;AAAA-1025;0000-00-00;01:21:38.529;;104;-50;60834a
37;22;0000-00-00;01:21:39.361;11573;60;-46;5b554e
38;94;0000-00-00;01:21:49.263;11573;116;-39;645b2e
39;29;0000-00-00;01:21:52.130;11573;140;-41;f1e534
40;521;0000-00-00;01:22:17.497;11573;254;-53;37434d
41;AACT-308;0000-00-00;01:22:29.391;;86;-41;36e96c
42;183;0000-00-00;01:23:00.535;11573;138;-36;86473e
43;55;0000-00-00;01:23:08.788;11573;120;-38;847f43
44;65;0000-00-00;01:25:10.174;11573;122;-40;00aa01
45;AABM-3739;0000-00-00;01:25:48.667;;90;-50;87c5df
46;AAAA-1046;0000-00-00;01:26:09.365;;111;-62;42a58b
47;AABM-3737;0000-00-00;01:26:31.787;;96;-43;b557e4
48;AABM-3740;0000-00-00;01:28:33.824;;114;-49;30551d
