Place,First,Last,NET Time,Pace,Diff
1,Kim,Carter,0:19:31.6,06:31,-03:43.4
2,Isabelle,Draper,0:19:53.2,06:38,-01:36.8
3,Anna,Christen,0:14:40.5,04:54,-01:28.5
4,Bec,Woodward,0:16:14.1,05:25,-01:15.9
5,Amelia,Mitchell,0:21:19.2,07:06,-01:10.8
6,Gabrielle,Dean,0:15:37.0,05:12,-00:59.0
7,Will,deVries,0:16:00.2,05:20,-00:53.8
8,Phoebe,Lonsdale,0:13:38.9,04:33,-00:51.1
9,Tanya,Fleming,0:17:18.7,05:46,-00:50.3
10,Hamish,Draper,0:21:32.0,07:11,-00:49.0
11,Aida,Escall,0:17:14.5,05:45,-00:45.5
12,Lynley,McDonald,0:18:15.4,06:05,-00:44.6
13,Charlotte,Murphy,0:12:51.9,04:17,-00:35.1
14,Stephen,Wainwright,0:13:10.0,04:23,-00:35.0
15,Abbey,Cartner,0:13:39.4,04:33,-00:32.6
16,Mathilda,Stewart,0:17:41.6,05:54,-00:30.4
17,Bec,Lacy,0:16:16.2,05:25,-00:22.8
18,Max,Rowe,0:13:05.1,04:22,-00:15.9
19,Lesley,Fabian,0:18:24.4,06:08,-00:02.6
20,Floyd,Cartner,0:12:37.3,04:12,+00:01.3
21,James,Toomey,0:13:04.7,04:22,+00:10.7
22,Tullie,Rowe,0:12:14.7,04:05,+00:14.7
23,Greg,Toomey,0:18:11.5,06:04,+00:47.5
24,Beatrice,Lonsdale,0:15:27.0,05:09,+00:57.0
25,Danny,Burgess,0:15:18.1,05:06,+01:00.1
26,Philip,Shambrook,0:15:27.2,05:09,+01:06.2
27,Genevieve,Draper,0:26:09.1,08:43,+04:57.1
NEW,Kayla,McManus,0:14:28.1,04:49
