Place,First Name,Surname,Time,+ or -,Amount
1,Alan ,East,48:33,-,0:12
2,Jenny ,Buchanan,35:23,-,0:17
3,David ,Heislers,34:53,+,0:23
4,Laura,Terry,38:31,+,0:31
5,Brad ,Russell,38:37,+,0:32
6,Shayne ,Rushan,37:32,+,0:38
7,Michael ,Bieleny ,26:47,-,0:41
8,Ryan,Brook,34:05,+,0:45
9,Rebecca,Tweed,30:11,-,0:49
10,Craig,Feuerherdt,29:08,-,0:52
11,Ben ,McDermid,28:59,-,1:01
12,Brian,Watson,28:49,-,1:11
13,Maree,Platt,39:59,-,1:16
14,Gary ,Crouch ,36:45,-,1:19
15,Keith,Cassilles-Southgate,27:27,-,1:23
16,Genevieve,Green,34:32,-,1:38
17,Leeza,Meharry,35:17,-,2:12
18,Chris,McCormack,29:40,-,2:28
