PLACE,FIRST,LAST,TIME,PACE,CLUB
1,Ebony,Woodward,0:04:27.8,04:27.8,UNI
2,Eryn,McManus,0:04:41.9,04:41.9,UNI
3,April,Wainwright,0:04:50.3,04:50.3,UNI
4,Eiliyah,Daneen,0:05:00.2,05:00.2,UNI
5,Skylar,Woodward,0:05:10.0,05:10.0,UNI
6,Alice,McIntosh,0:05:35.6,05:35.6,UNI
7,Ruby,Carter,0:05:36.2,05:36.2,UNI
8,Genevieve,Robinson,0:05:52.6,05:52.6,UNI
9,Olivia,Douglas,0:05:53.0,05:53.0,UNI
10,Lyra,Haythorpe,0:06:11.0,06:11.0,UNI
11,Chloe,Beesley,0:06:14.5,06:14.5,UNI
12,Holly,Grainger,0:06:18.7,06:18.7,UNI
13,Poppy,Wainwright,0:06:24.6,06:24.6,UNI
14,Sihanna,Carter,0:06:29.0,06:29.0,UNI
15,Ruby,Douglas,0:06:35.3,06:35.3,UNI
16,Charli,Hosking,0:06:36.3,06:36.3,UNI
17,Polly,Byrne,0:06:51.8,06:51.8,UNI
18,Ellie,Beesley,0:07:48.1,07:48.1,UNI
19,Ivie,Safstrom,0:07:57.9,07:57.9,UNI
20,Eden,Haythorpe,0:08:04.2,08:04.2,UNI
21,Evie,Niblett,0:09:03.7,09:03.7,UNI
22,Miriam,Niblett,0:13:18.8,13:18.8,UNI
