Place,First Name,Surname,Time,+ or -,Amount
1,Fraser,Walsh,22:05,-,2:12
2,Melissa,Douglass,33:26,-,1:36
3,Kylie,Cheal,32:09,-,1:02
4,Michael ,Gibbon,26:09,-,0:12
5,Ben ,McDermid,23:43,-,0:16
6,Aaron,Anderson,26:17,-,0:04
7,Owen,Davies,27:50,-,0:04
8,Gavin ,Fiedler,26:41,-,0:05
9,Brian,Watson,24:42,-,0:00
10,Lisa,McDermid,35:25,+,0:05
11,Rebecca,Tweed,24:29,+,0:06
12,Richard,Gleisner,21:25,+,0:14
13,Russell ,Tremayne,26:00,+,0:16
14,Jennifer ,Lee,30:33,+,0:17
15,Jeff,Pethybridge,25:36,+,0:17
16,Conor,Cunningham,29:58,+,0:37
17,Janet ,Hodnett,30:35,+,0:43
18,David ,Heislers,28:34,+,0:47
19,Andrew ,Creer,25:29,+,0:54
20,Ryan,Brook,27:30,+,0:56
21,Shann,Anderson,33:24,+,0:58
22,Jason ,Fletcher,24:47,+,1:13
23,Justin,Lee,29:51,+,1:13
24,Laura,Terry,32:05,+,1:17
25,Alan ,Buchanan,28:37,+,1:58
26,Alison ,Cartner,31:17,+,2:15
