PLACE,FIRST,LAST,TIME,PACE,CLUB
1,Hannah,Cotter,0:03:59.5,03:59.5,SOUTH BENDIGO
2,Melissa,Douglas,0:04:01.6,04:01.6,UNI
3,Georgia,Lee,0:04:49.0,04:49.0,EAGLEHAWK
4,Skylar,Woodward,0:04:58.3,04:58.3,UNI
5,Wendy,Ennor,0:07:08.5,07:08.5,EAGLEHAWK
