PLACE,FIRST,LAST,TIME,PACE,CLUB
1,David,Morrissey,0:03:11.6,03:11.6,HARRIERS
2,Craig,Green,0:03:21.9,03:21.9,UNI
3,Dave,Chisholm,0:03:30.3,03:30.3,EAGLEHAWK
4,Aaron,Norton,0:03:41.1,03:41.1,SOUTH BENDIGO
5,Antony,Langdon,0:03:49.1,03:49.1,EAGLEHAWK
6,Mason,Woodward,0:04:03.2,04:03.2,UNI
7,Jake,Wight,0:04:12.2,04:12.2,UNI
8,Geoff,Lee,0:04:15.6,04:15.6,EAGLEHAWK
9,Luke,Feuerherdt,0:04:24.9,04:24.9,UNI
10,Peter,Savage,0:05:23.2,05:23.2,EAGLEHAWK
