Pos,Name,Gun Time,Category (Pos),Gender (Pos),""
1,David HEISLERS (#83),00:34:56,All Ages(1),Male (1),""
2,Ben MCDERMID (#132),00:36:46,All Ages(2),Male (2),""
3,Ross DOUGLAS (#50),00:43:10,All Ages(3),Male (3),""
4,Samuel ESMORE (#59),00:55:12,All Ages(4),Male (4),""
