Place,First Name,Surname,Time,+ or -,Amount
1,Millie,Lourie,15:54,-,2:54
2,Floyd,Cartner,13:38,-,2:52
3,Matthew ,Saxon,15:16,-,1:20
4,Ella ,Finch,15:55,-,1:20
5,Jack,Cripps,13:06,-,1:09
6,Callum,Tucker,12:13,-,0:56
7,Hanna,Crane,16:04,-,0:56
8,John,Rose,12:40,-,0:50
9,Lewis,Fisher,16:03,-,0:45
10,Nicholas,Ashman,14:44,-,0:46
11,Abbey,Saxon,16:36,-,0:45
12,Murray,Cordell,14:31,-,0:44
13,Kathryne,Charnas,20:22,-,0:38
14,Sayyu,Hamond,15:03,-,0:39
15,Nellie,Rose,18:13,-,0:41
16,James,Kealy,15:44,-,0:37
17,Febey,Lonsdale,17:28,-,0:32
18,Morgan,Dunn,16:20,-,0:31
19,Emily,Heislers,15:31,-,0:29
20,Will,Crane,14:53,-,0:25
21,Tullie,Rowe,13:45,-,0:30
22,Carissa,Brook,14:26,-,0:19
23,Darcy,Tucker,15:50,-,0:07
24,Leon,Hamond,12:40,-,0:05
25,Beatrice,Lonsdale,16:04,+,0:01
26,Oscar,Terry,18:29,+,0:29
27,Bailey ,Dunn,15:00,+,0:33
28,Tom,Colman,18:57,+,1:03
29,Lulu,Hamond,18:19,+,1:04
30,Olivia ,Kealy,22:19,+,1:19
31,Murphy,Watson,20:15,+,2:21
32,Hamish,Walker,19:30,+,2:45
33,Amy,Sim,19:50,+,3:32
34,Tiffany,McCullough,24:44,+,3:44
