Place,First Name,Surname,Time,+ or -,Amount
1,Brad ,Russell,34:35,-,3:13
2,Jennifer ,Lee,34:26,-,2:47
3,Ingrid ,Douglass,30:22,-,2:39
4,Nicole,Richardson,35:57,-,2:33
5,Janet ,Hodnett,34:11,-,2:27
6,John ,Doering,39:37,-,2:09
7,Alan ,East,41:19,-,2:12
8,Andrew ,Creer,28:11,-,2:09
9,Gary ,Crouch ,30:28,-,1:58
10,Ali,Musk,47:01,-,1:59
11,Scott ,Alterater,28:37,-,1:57
12,Justin ,O'Brien,32:31,-,1:54
13,David ,Heislers,30:45,-,1:41
14,Matthew,Heislers,28:16,-,1:43
15,Gabby ,Walsh,36:39,-,1:37
16,Penny,Spencer,34:34,-,1:36
17,Maree,Platt,38:20,-,1:34
18,Jeff,Pethybridge,27:53,-,1:24
19,Brian,Watson,27:05,-,1:30
20,Ben ,McDermid,26:18,-,1:21
21,David ,Tarrant,26:51,-,1:16
22,Laura,Terry,34:11,-,1:24
23,Georgie,Lanyon,29:04,-,1:16
24,Rebecca,Tweed,26:55,-,1:12
25,Emma,Burke,36:06,-,1:14
26,Greg ,McBain,30:28,-,1:09
27,Frances,Walsh,36:38,-,1:17
28,Troy,Cartner,26:09,-,1:09
29,Aaron,Anderson,29:30,-,1:11
30,Gavin ,Fiedler,30:36,-,1:01
31,Chris,McCormack,28:10,-,1:00
32,Catherine,Pethybridge,41:34,-,1:01
33,Shayne ,Rushan,34:06,-,0:54
34,Jodie,Scoble,41:08,-,0:52
35,Alison ,Cartner,32:04,-,0:50
36,Justin,Lee,30:54,-,0:50
37,Erica,Wilkinson,29:25,-,0:41
38,Patrick ,Kenny ,25:48,-,0:41
39,Tina,McBain,33:39,-,0:39
40,Ryan,Brook,29:51,-,0:29
41,Owen,Davies,30:53,-,0:30
42,Conor,Cunningham,33:01,-,0:21
43,Shann,Anderson,36:25,-,0:20
44,Simon,Austin,26:23,-,0:06
45,Brett ,Houlden,33:19,+,0:04
46,Tracy ,Wilson,28:18,+,0:18
47,Nick ,Walsh ,33:27,+,0:47
48,Scott ,Roberts,36:19,+,1:19
