Place,First Name,Surname,Time,+ or -,Amount
1,Leila,Padgham,17:00,-,3:24
2,Joanne,Weatherhead,19:20,-,2:19
3,Bella,Livingston,20:43,-,1:03
4,Luke,Padgham,15:44,-,0:59
5,Blaze,Houlden,15:33,-,0:50
6,Scott,Roberts,16:01,-,0:42
7,Amber,Lyons,20:23,-,0:28
8,Maree,Platt,20:48,+,0:24
9,Matisse,Perez,17:00,+,0:34
10,Imogen,Douglass,22:05,+,1:10
11,Alister,Brasher,24:36,+,7:36
12,Andrea ,Brasher,26:17,+,7:35
