Place,Name,Surname,Club,Time
1,Charles,Chambers,BYM,1:25:11
2,Jim,Russell,BUAC,1:28:32
3,Paul,Bennet,BYM,1:38:56
4,Greg,McBain,BUAC,1:39:21
5,Gary,Crouch,BUAC,1:41:30
6,Matthew,Lees,SBE,1:44:07
7,Brian ,Cornell,EGHWK,1:49:56
