order,first name,surname,start,est. mins/km,est. mins/km,est. time
1,Sarah,Cunningham,0:00,7,37,7:37
2,Rex ,Lourie,0:00,7,30,7:30
3,Olivia ,Kealy,0:00,7,26,7:26
4,Joshua,Feuerherdt,0:00,7,20,7:20
5,Ella,Meharry,0:00,7,15,7:15
6,Lacey,Wilkie,0:00,7,15,7:15
7,Ethan ,Fletcher,0:00,7,03,7:03
8,Xavier,Thomas,0:00,6,55,6:55
9,Allerah,Thomas,0:00,6,50,6:50
10,Kane,Charnas,0:00,6,50,6:50
11,Will,Smith,0:00,6,50,6:50
12,Luke,Creer,0:00,6,49,6:49
13,Kalan,Thomas,0:00,6,45,6:45
14,Lulu Too,Hamond,0:00,6,40,6:40
15,Neve,Coleman,0:00,6,40,6:40
16,Amber,Anderson,0:00,6,35,6:35
17,Finn,Cunningham,0:00,6,30,6:30
18,Kevin ,Wheatley,0:00,6,30,6:30
19,Abbey,Reid,0:00,6,30,6:30
20,Jack ,Gleisner,0:00,6,26,6:26
21,Joshua,Kelly,0:00,6,24,6:24
22,Lewis,Kailaur,0:00,6,22,6:22
23,Tara,Anderson,0:00,6,10,6:10
24,Miller ,Finch,0:00,6,10,6:10
25,Avery,McDermid,0:00,6,05,6:05
26,Charlotte,Crane,0:00,6,05,6:05
27,Ruby,Fletcher,0:00,6,00,6:00
28,Moira,Coleman,0:00,6,00,6:00
29,Rhyse,Thorpe,0:00,6,00,6:00
30,Katelyn ,Kelly,0:00,6,00,6:00
31,Jade,Kelly,0:00,5,55,5:55
32,Hannah,Crane,0:00,5,51,5:51
33,Aoife,Cunningham,0:00,5,51,5:51
34,Eliza,Christie,0:00,5,50,5:50
35,Nick,Meharry,0:00,5,46,5:46
36,Ella,Fisher,0:00,5,45,5:45
37,Saige,Finch,0:00,5,45,5:45
38,Rebecca,Ashman,0:00,5,44,5:44
39,Cooper,Rea,0:00,5,42,5:42
40,Manny,Rose,0:00,5,40,5:40
41,Jasmine,Padgham,0:00,5,40,5:40
42,Jordan,Wheatley,0:00,5,40,5:40
43,Nellie,Rose,0:00,5,39,5:39
44,James,Cheal,0:00,5,36,5:36
45,Albert ,Cordell,0:00,5,33,5:33
46,Murphy,Watson,0:00,5,30,5:30
47,Will,Gleisner,0:00,5,30,5:30
48,Lucinda ,Terry,0:00,5,28,5:28
49,Melana,Cordell,0:00,5,25,5:25
50,Amity,Thorpe,0:00,5,22,5:22
51,Georgia,Pearce,0:00,5,20,5:20
52,Catelynd,Wheatley,0:00,5,20,5:20
53,Beatrice,Lonsdale,0:00,5,17,5:17
54,Vincent,Weatherhead,0:00,5,17,5:17
55,Jack ,McCullough,0:00,5,16,5:16
56,Kaidyn,Tucker,0:00,5,14,5:14
57,Phoebe,Lonsdale,0:00,5,10,5:10
58,Tyler,Wilkie,0:00,5,10,5:10
59,Rossi,Stevens,0:00,5,10,5:10
60,Luke,Feuerherdt,0:00,5,09,5:09
61,Lewis,Lonsdale,0:00,5,08,5:08
62,Henry,Cordell,0:00,5,05,5:05
63,Nina,Lenard,0:00,5,03,5:03
64,Tim,Creer,0:00,5,00,5:00
65,Abbey,Cartner,0:00,5,00,5:00
66,Matthew,Saxon,0:00,5,00,5:00
67,Tom,Coleman,0:00,5,00,5:00
68,Macey,O'Shea,0:00,4,58,4:58
69,Cooper,Charnas,0:00,4,53,4:53
70,Oscar,Terry,0:00,4,51,4:51
71,Leila,Padgham,0:00,4,50,4:50
72,Morgan,Dunn,0:00,4,48,4:48
73,Emerson,Sim,0:00,4,46,4:46
74,Jack ,Meharry,0:00,4,45,4:45
75,Michaela,Meharry,0:00,4,42,4:42
76,Max,Rowe,0:00,4,41,4:41
77,Emily,Heislers,0:00,4,40,4:40
78,Jayden,Padgham,0:00,4,40,4:40
79,Harrison,Kelly,0:00,4,38,4:38
80,Lachlan ,Feuerherdt,0:00,4,36,4:36
81,Jake,Lyons,0:00,4,20,4:20
82,Bailey,Dunn,0:00,4,20,4:20
83,Tullie,Rowe,0:00,4,10,4:10
84,Brayden,Roberts ,0:00,4,07,4:07
85,Noah,Walsh,0:00,4,05,4:05
86,Melissa,Douglas,0:00,4,00,4:00
87,Floyd ,Cartner,0:00,3,58,3:58
