Place,First,Last,NET Time,Pace,Diff
1,Paul,Lomax,0:33:49.8,05:05.2,-02:44.7
2,Troy,Davis,0:34:31.1,05:11.4,-02:36.7
3,Alan,East,0:44:15.8,06:39.4,-01:44.0
4,Paul,Seaward,0:27:56.4,04:12.1,-01:45.8
5,Brock,Prime,0:26:27.3,03:58.7,-01:28.5
6,Lee,Bray,0:27:36.8,04:09.1,-01:12.2
7,Sarah,Jalim,0:27:05.0,04:04.4,-01:10.8
8,Trinity,Sanderson,0:30:25.1,04:34.5,-01:10.1
9,Rebecca,Wilkinson,0:27:09.2,04:05.0,-00:59.9
10,Jenny,Buchanan,0:32:09.5,04:50.2,-00:58.8
11,Charles,Chambers,0:29:31.5,04:26.4,-00:57.2
12,Andrea,Smith,0:31:31.9,04:44.5,-01:03.2
13,Paul,Vickery,0:29:02.4,04:22.0,-00:59.7
14,Beth,Lavery,0:32:37.2,04:54.3,-00:51.1
15,Chris,Giffin,0:31:55.5,04:48.0,-00:39.6
16,Ingrid,Douglass,0:29:46.1,04:28.6,-00:22.7
17,Els,Viester,0:28:26.5,04:16.6,-00:29.1
18,Georgie,Lanyon,0:30:16.7,04:33.2,-00:12.1
19,Rik,McCaig,0:24:59.6,03:45.5,-00:16.6
20,Justin,Lee,0:29:22.0,04:25.0,-00:13.5
21,John,Doering,0:39:56.4,06:00.4,-00:10.9
22,Laura,Terry,0:35:28.7,05:20.1,+00:00.7
23,David,Lonsdale,0:28:11.0,04:14.3,-00:04.8
24,Sue,Condon,0:42:21.5,06:22.2,+00:01.2
25,Maree,Platt,0:35:33.1,05:20.8,+00:05.1
26,Scott,Roberts,0:36:33.9,05:29.9,-00:00.6
27,Jennifer,Lee,0:38:16.4,05:45.3,+00:02.1
28,Tim,Lauder,0:26:36.7,04:00.1,+00:07.4
29,Ross,Douglas,0:32:53.5,04:56.8,+00:11.8
30,Chris,McCormack,0:27:25.4,04:07.4,+00:09.5
31,Craig,Feuerherdt,0:25:54.1,03:53.7,+00:24.6
32,Kevin,deVries,0:34:44.6,05:13.5,+00:23.1
33,John,Flood,0:28:15.2,04:14.9,+00:26.1
34,John,Robinson,0:26:26.7,03:58.6,+00:23.9
35,Philip,Shambrook,0:32:07.6,04:49.9,+00:32.3
36,Lisa,Wilkinson,0:31:15.2,04:42.0,+00:46.5
37,Alison,Cartner,0:33:04.8,04:58.5,+01:09.6
38,Brad,Russell,0:40:02.5,06:01.3,+01:48.2
39,Gavin,Fiedler,0:32:47.7,04:55.9,+02:38.9
40,Janelle,Giffin,0:42:15.6,06:21.3,+02:41.6
41,Andrew,Creer,0:27:56.9,04:12.2,+02:47.4
42,Leah,Cripps,0:38:54.2,05:51.0,+03:46.1
43,Jason,Anderton,0:41:11.8,06:11.7,+05:03.9
NEW,Matt,Holmes,0:28:22.7,04:16.0
NEW,Anne,McIntosh,0:35:52.3,05:23.7
NEW,Amy,Holmes,0:30:20.7,04:33.8
NEW,Fiona,Dangerfield,0:39:49.8,05:59.4
NEW,Philippa,Morris,0:35:39.8,05:21.8
NEW,Vicki,Lane,0:41:14.9,06:12.2
NEW,David,Cripps,0:31:17.6,04:42.3
NEW,James,Deacon,0:35:58.7,05:24.6
NEW,Jon,McIntosh,0:34:59.8,05:15.8
