PLACE,FIRST,LAST,RACES,POINTS
1,Chris,Giffin,8,119
2,Jack,Milligan,6,108
3,Sarah,Jalim,5,86
4,Greg,Carter,7,83
5,David,Lonsdale,8,82
6,Craig,Green,6,81
7,Brian,Watson,4,77
8,David,Cripps,6,76
9,Andrew,Hosking,5,69
10,Andrew,Creer,4,62
11,Ben,McDermid,6,62
12,David,Heislers,5,59
13,Garry,Marwood,3,59
14,Mumtaz,Hussain,7,44
15,Rebecca,Wilkinson,3,43
16,Rik,McCaig,2,37
17,Michael,Bieleny,2,37
18,Jayson,Carter,2,33
19,Lisa,Wilkinson,5,29
20,Tanner,Fear,2,24
21,Damien,Roberts,7,23
22,John,Robinson,6,22
23,Kelvin,Niblett,7,21
24,Nigel,Preston,1,20
25,Stephen,van Rees,1,20
26,James,Trew,5,19
27,Brett,Dobbin,3,19
28,Amy,McCormick,1,18
29,Charles,Chambers,2,17
30,Matthew,Schubert,2,17
31,Floyd,Cartner,1,16
32,William,Robinson,6,16
33,Joanne,Russell,2,15
34,Rhianna,Wik-Gamble,2,15
35,Trinity,Sanderson,5,14
36,Tim,Lauder,1,13
37,Darren,Rowe,7,13
38,Michael,Farr,7,13
39,Danny,Burgess,3,12
40,David,Burrow,3,12
41,Nicholas,Cherry,1,10
42,Karl,Stoltz,4,10
43,Laura,Reynolds,2,8
44,Travis,Edwards,1,7
45,Jon,McIntosh,4,4
46,Andrea,Smith,3,3
47,Erin,Williams,5,3
48,Alison,Cartner,8,2
49,Scott,McLeod,7,2
50,Molly,Butler,2,2
51,Adrian,McMahon,3,2
52,Anne,McIntosh,4,1
53,Alan,East,5,0
54,Alan,Buchanan,4,0
55,Shayne,Rushan,5,0
56,Gavin,Fiedler,1,0
57,Jennifer,Lee,4,0
58,Ross,Douglas,7,0
59,Melissa,Douglas,1,0
60,Aida,Escall,1,0
61,Leah,Cripps,6,0
62,Kevin,de Vries,5,0
63,Justin,Lee,4,0
64,Greg,McBain,1,0
65,Maree,Platt,6,0
66,Brad,Russell,7,0
67,Melissa,Wilkie,3,0
68,Justine,Rowe,7,0
69,Janelle,Giffin,6,0
70,Renelle,McManus,5,0
71,Janet,Hodnett,3,0
72,Jason,Anderton,5,0
73,Sue,Taylor,8,0
74,Sue,Anderton,7,0
75,Jay,Sanderson,3,0
76,Tammy,Fear,3,0
77,Todd,Foster,5,0
78,Liz,Foster,7,0
79,Mel,Debnam-Smith,5,0
80,Jodie,McLeod,7,0
81,Nick,O'Meara,7,0
82,Leigh,Draper,2,0
83,Josh,Kent,2,0
84,Deanna,Marshall,5,0
85,Jeremy,Draper,5,0
86,Janis,Bull,5,0
87,Kathleen,Pleasants,4,0
88,Alistair,Stewart,1,0
89,Stephen,McConnell,2,0
90,Nathan,Dunn,1,0
