Place,Member,First,Last,Start,Pace,Est Time
1,3751,Ellie,Beesley,00:00,08:00,0:08:00.0
2,3794,Amelia ,Christen,00:00,08:00,0:08:00.0
3,3705,Sienna,Bayliss,00:00,08:00,0:08:00.0
4,3733,Madeline,Gibbons,00:00,07:59,0:07:59.0
5,3791,Olivia,Christen,00:00,07:57,0:07:57.0
6,3728,Toby,Preston,00:20,07:45,0:07:45.0
7,3752,Chole,Beesley,00:30,07:31,0:07:31.0
8,379,Quinn,Holmes,00:40,07:22,0:07:22.0
9,3782,Owen,Draper,00:50,07:09,0:07:09.0
10,335,Lenny,Hancock,00:50,07:06,0:07:06.0
11,3741,Kim,Carter,01:00,06:55,0:06:55.0
12,354,Alice,McIntosh,01:10,06:52,0:06:52.0
13,3708,Janine,Butcher,01:10,06:51,0:06:51.0
14,3727,Samuel,Preston,01:10,06:50,0:06:50.0
15,3781,Hamish,Draper,01:30,06:34,0:06:34.0
16,382,Genevieve,Robinson,01:30,06:31,0:06:31.0
17,390,Ruby,Douglas,01:40,06:19,0:06:19.0
18,154,Sean,Hughan,01:40,06:15,0:06:15.0
19,3743,Liam,Carter,01:50,06:11,0:06:11.0
20,211,Jesse,Brook,02:00,06:03,0:06:03.0
21,348,Tazma,Ferrie,02:00,06:02,0:06:02.0
22,234,Finn,Cunningham,02:00,05:58,0:05:58.0
23,326,Sachin,Cody,02:10,05:50,0:05:50.0
24,372,Belle,Howes,02:10,05:50,0:05:50.0
25,178,Annabel,Hancock,02:20,05:43,0:05:43.0
26,3704,Callen,Bayliss,02:20,05:42,0:05:42.0
27,216,Ava,Terry,02:20,05:41,0:05:41.0
28,3742,Jemma,Carter,02:20,05:40,0:05:40.0
29,123,Michael,Terry,02:20,05:39,0:05:39.0
30,3716,Gus,Edwards,02:20,05:38,0:05:38.0
31,28,Mitchell,Bray,02:20,05:35,0:05:35.0
32,345,Jordan,Baker,02:30,05:33,0:05:33.0
33,3783,Zacch,Martin,02:30,05:33,0:05:33.0
34,324,Quinlan,Cody,02:30,05:32,0:05:32.0
35,355,Millie,McIntosh,02:30,05:31,0:05:31.0
36,271,Will,Smith,02:30,05:29,0:05:29.0
37,3778,Sebastian,Stewart,02:30,05:28,0:05:28.0
38,381,April,Wainwright,02:30,05:27,0:05:27.0
39,255,Dylan,Sim,02:40,05:24,0:05:24.0
40,250,Tully,Cripps,02:40,05:21,0:05:21.0
41,284,Imogen,Stewart,02:40,05:20,0:05:20.0
42,44,Geoffrey,Robinson,02:40,05:19,0:05:19.0
43,260,Thomas,Henderson,02:40,05:18,0:05:18.0
44,298,Elliot,Lavery,02:40,05:18,0:05:18.0
45,209,Olivia,Douglas,02:40,05:15,0:05:15.0
46,245,Lacey,Wilkie,02:50,05:12,0:05:12.0
47,3711,Eryn,McManus,03:00,05:05,0:05:05.0
48,3719,Charli,Green,03:00,05:00,0:05:00.0
49,3709,Scott,Butcher,03:00,05:00,0:05:00.0
50,368,Eden,Howes,03:00,05:00,0:05:00.0
51,3749,Isabella,Draper,03:00,04:58,0:04:58.0
52,282,Anna,deVries,03:00,04:56,0:04:56.0
53,50,Harry,Cripps,03:00,04:56,0:04:56.0
54,3753,Logan,Beesley,03:10,04:54,0:04:54.0
55,305,Jonty,McDermid,03:10,04:54,0:04:54.0
56,293,Spencer,Lavery,03:10,04:51,0:04:51.0
57,246,Poppy,Wainwright,03:20,04:45,0:04:45.0
58,358,Lewis,McIntosh,03:20,04:45,0:04:45.0
59,3736,Skylar,Woodward,03:20,04:45,0:04:45.0
60,297,Declan,Lavery,03:20,04:44,0:04:44.0
61,283,Lily,Sanderson,03:20,04:44,0:04:44.0
62,281,Will,deVries,03:20,04:37,0:04:37.0
63,3717,Lachlan,Edwards,03:20,04:36,0:04:36.0
64,174,Sam,Hancock,03:20,04:36,0:04:36.0
65,153,Tadhg,Hughan,03:30,04:33,0:04:33.0
66,99,Oscar,Terry,03:30,04:32,0:04:32.0
67,3706,Ebony,Butcher,03:30,04:32,0:04:32.0
68,191,Phoebe,Lonsdale,03:30,04:32,0:04:32.0
69,391,Sebastian,Boromeo,03:30,04:32,0:04:32.0
70,3737,Ebony,Woodward,03:30,04:31,0:04:31.0
71,253,Charlotte,Murphy,03:30,04:28,0:04:28.0
72,360,Phoebe,Martin,03:30,04:27,0:04:27.0
73,276,Joshua,Feuerherdt,03:30,04:26,0:04:26.0
74,258,Ivy,Bray,03:40,04:24,0:04:24.0
75,267,Kayla,McManus,03:40,04:23,0:04:23.0
76,319,Nikolas,Makris,03:40,04:20,0:04:20.0
77,252,Jasmine,Murphy,03:40,04:18,0:04:18.0
78,274,Avery,McDermid,03:40,04:17,0:04:17.0
79,277,Luke,Feuerherdt,03:40,04:16,0:04:16.0
80,279,Lucy,McCaig,03:50,04:11,0:04:11.0
81,337,Steff,Roberts,03:50,04:09,0:04:09.0
82,3738,Mason,Woodward,03:50,04:07,0:04:07.0
83,272,Abbey,Cartner,04:00,04:05,0:04:05.0
84,3785,Jake,Wight,04:00,04:04,0:04:04.0
85,189,Tim,Creer,04:00,04:03,0:04:03.0
86,147,Lachlan,Feuerherdt,04:00,03:59,0:03:59.0
87,266,Lewis,Lonsdale,04:00,03:56,0:03:56.0
88,131,Carrisa,Brook,04:00,03:55,0:03:55.0
89,254,William,Robinson,04:10,03:54,0:03:54.0
90,42,Craig,Feuerherdt,04:20,03:41,0:03:41.0
