Place,First,Last,NET Time,Pace,Diff
1,Chole,Beesley,0:06:22.4,06:22,-01:08.6
2,Hamish,Draper,0:06:19.8,06:20,-00:14.2
3,Ellie,Beesley,0:07:48.7,07:49,-00:11.3
4,Skylar,Woodward,0:04:41.1,04:41,-00:03.9
5,April,Wainwright,0:05:23.2,05:23,-00:03.8
6,Kayla,McManus,0:04:21.6,04:22,-00:01.4
7,Joshua,Feuerherdt,0:04:26.4,04:26,+00:00.4
8,Avery,McDermid,0:04:17.6,04:18,+00:00.6
9,Jonty,McDermid,0:05:00.6,05:01,+00:06.6
10,Ivy,Bray,0:04:32.6,04:33,+00:08.6
11,Geoffrey,Robinson,0:05:27.7,05:28,+00:08.7
12,Ebony,Woodward,0:04:42.3,04:42,+00:11.3
13,William,Robinson,0:04:06.4,04:06,+00:12.4
14,Genevieve,Robinson,0:06:44.9,06:45,+00:13.9
15,Lewis,Lonsdale,0:04:12.4,04:12,+00:16.4
16,Will,deVries,0:04:55.1,04:55,+00:18.1
17,Mason,Woodward,0:04:25.4,04:25,+00:18.4
18,Anna,deVries,0:05:16.5,05:17,+00:20.5
19,Tully,Cripps,0:05:51.2,05:51,+00:30.2
20,Phoebe,Martin,0:05:06.2,05:06,+00:39.2
21,Samuel,Preston,0:07:53.8,07:54,+01:03.8
22,Owen,Draper,0:08:14.1,08:14,+01:05.1
23,Logan,Beesley,0:06:15.8,06:16,+01:21.8
24,Toby,Preston,0:09:13.9,09:14,+01:28.9
25,Harry,Cripps,0:06:34.7,06:35,+01:38.7
NEW,Gabrielle,Dean,0:04:25.2,04:25
NEW,Jaraon,Ekanyake,0:04:49.9,04:50
