Place,First Name,Surname,Start Time,Est min/km,Est min/km,Est Time
1,Lilly,Cahill,00:10,6,59,1:09:50
2,Julie ,Hogan,02:50,6,43,1:07:10
3,Jessey,Wilson,05:30,6,27,1:04:30
4,Catherine,Hunter,06:30,6,21,1:03:30
5,Alan ,East,06:40,6,20,1:03:20
6,Verity ,Perez,09:40,6,02,1:00:20
7,Melissa ,Douglas,09:50,6,01,1:00:10
8,John ,Doering,10:00,6,00,1:00:00
9,Natalie,Watson,10:20,5,58,59:40
10,Loretta,Hanns,10:40,5,56,59:20
11,Sam,MacLeod,10:40,5,56,59:20
12,Drew,Cahill,10:50,5,55,59:10
13,Ella,Wright,10:50,5,55,59:10
14,John ,Taylor,11:20,5,52,58:40
15,Shann,Anderson,13:00,5,42,57:00
16,Carl,Bailey,13:30,5,39,56:30
17,Mikhaela,Wilson,14:40,5,32,55:20
18,Angus,McCormack,14:50,5,31,55:10
19,Andrew ,Boshcetti,15:00,5,30,55:00
20,Greg ,Christy,15:00,5,30,55:00
21,Wayne ,Forbes,15:20,5,28,54:40
22,Angela,Slattery,15:50,5,25,54:10
23,Danny,Padgham,16:00,5,24,54:00
24,Gabby ,Walsh,16:20,5,22,53:40
25,Jodie,Scoble,16:30,5,21,53:30
26,Ian ,Beckerleg,16:40,5,20,53:20
27,Lilly,Walsh,16:50,5,19,53:10
28,Sheridan,Hail,16:50,5,19,53:10
29,Harry ,Terry,17:30,5,15,52:30
30,Peter,Noble,17:30,5,15,52:30
31,Helen,WeeHee,17:30,5,15,52:30
32,Jackie ,Tremayne,18:10,5,11,51:50
33,Rachel,Howe,18:20,5,10,51:40
34,Phil,Lloyd,18:40,5,08,51:20
35,Brian,Brasher,18:40,5,08,51:20
36,Brad ,Russell,18:50,5,07,51:10
37,Janet ,Hodnett,19:10,5,05,50:50
38,Alison ,McCullagh,19:10,5,05,50:50
39,Tyson,Hawke,19:10,5,05,50:50
40,Len,Nally,19:20,5,04,50:40
41,Jodie,Giles,19:40,5,02,50:20
42,Lucy,Ruck,19:40,5,02,50:20
43,Tony ,Gellatly,19:50,5,01,50:10
44,Chris,Hamond ,20:00,5,00,50:00
45,Jennifer ,Jones,20:00,5,00,50:00
46,Roy,Preece,20:00,5,00,50:00
47,Kevin ,Perez,20:00,5,00,50:00
48,Harriette,Slater,20:00,5,00,50:00
49,Damien,Bilsborrow,20:10,4,59,49:50
50,David ,Perris,20:10,4,59,49:50
51,Chris,Tremayne,20:30,4,57,49:30
52,Frances ,Walsh,20:30,4,57,49:30
53,Shayne ,Rushan,20:50,4,55,49:10
54,Sam,Brewin,21:00,4,54,49:00
55,Navec,Lorkin,21:00,4,54,49:00
56,Trevor,Hanns,21:10,4,53,48:50
57,John ,Brewin,21:40,4,50,48:20
58,Tom,Houlden,21:40,4,50,48:20
59,Matt,Constable,21:40,4,50,48:20
60,Craig,Hunter,21:50,4,49,48:10
61,Scott ,Padgham,21:50,4,49,48:10
62,Tina,McBain,21:50,4,49,48:10
63,Liz ,Foster,22:00,4,48,48:00
64,Brett ,Houlden,22:20,4,46,47:40
65,Emma,Moylan,22:20,4,46,47:40
66,Hayden,Brooke,22:20,4,46,47:40
67,Alison ,Cartner,22:40,4,44,47:20
68,Nick ,Walsh ,22:40,4,44,47:20
69,Genevieve,Green,22:40,4,44,47:20
70,Laura,Terry,22:40,4,44,47:20
71,Patrick ,Hartney,22:50,4,43,47:10
72,Gary ,Crouch ,23:00,4,42,47:00
73,Leeza ,Meharry,23:30,4,39,46:30
74,Ned,Slater,23:30,4,39,46:30
75,Peter,Sykes,23:30,4,39,46:30
76,David ,Heislers,23:40,4,38,46:20
77,Maria,Slater,23:40,4,38,46:20
78,Lisa ,Wilkinson,23:40,4,38,46:20
79,Owen,Davies,23:40,4,38,46:20
80,Gervase,Birt,24:00,4,36,46:00
81,Joe,Hartney,24:00,4,36,46:00
82,Justin,Lee,24:00,4,36,46:00
83,Scott ,Roberts,24:00,4,36,46:00
84,Ian,Frost,24:10,4,35,45:50
85,Mark,Saxon,24:10,4,35,45:50
86,Jaclyn,Munge,24:30,4,33,45:30
87,Steve ,Durkin,24:50,4,31,45:10
88,Paul,McMahon,24:50,4,31,45:10
89,Thomas,Mosley,24:50,4,31,45:10
90,Andrew ,Creer,25:00,4,30,45:00
91,Ingrid ,Douglass,25:00,4,30,45:00
92,Steve ,Corrie,25:20,4,28,44:40
93,Todd ,Foster,25:20,4,28,44:40
94,Alan ,Buchanan,26:00,4,24,44:00
95,Tony ,DiPace,26:00,4,24,44:00
96,Greg ,McBain,26:10,4,23,43:50
97,Xavier,Walsh,26:10,4,23,43:50
98,Ryan,Brooke,26:10,4,23,43:50
99,Cameron,Turnbull,26:10,4,23,43:50
100,Jenny ,Buchanan,26:20,4,22,43:40
101,Josh,Evely,26:30,4,21,43:30
102,Russell ,Jenkins,26:40,4,20,43:20
103,Aaron,Semmens,26:40,4,20,43:20
104,Leon ,Hamond ,27:00,4,18,43:00
105,Steve ,McDougal,27:00,4,18,43:00
106,Aaron,Anderson,27:20,4,16,42:40
107,Gavin ,Fiedler,27:20,4,16,42:40
108,Michael ,Hogan,27:20,4,16,42:40
109,David ,Ottrey,27:20,4,16,42:40
110,Madeleine ,Evely,27:30,4,15,42:30
111,Tracy ,Wilson,27:40,4,14,42:20
112,John ,Rose,27:40,4,14,42:20
113,Andrew ,Mason,27:40,4,14,42:20
114,Jeff,Pethybridge,27:40,4,14,42:20
115,Jo-Anne,Keely,28:00,4,12,42:00
116,Erica,Wilkinson,28:00,4,12,42:00
117,Daniel,Vains,28:10,4,11,41:50
118,Matthew,Heislers,28:10,4,11,41:50
119,Steve ,Brereton ,28:20,4,10,41:40
120,Chris,McCormack,28:20,4,10,41:40
121,John ,McCullagh ,28:20,4,10,41:40
122,Craig,Fruerherdt,28:20,4,10,41:40
123,Josh,Hunter,28:40,4,08,41:20
124,Ben ,McDermid,28:50,4,07,41:10
125,Brendan,Munge,29:20,4,04,40:40
126,Mike ,Neilson,29:20,4,04,40:40
127,Rebecca,Tweed,29:20,4,04,40:40
128,David ,Tarrant,30:00,4,00,40:00
129,Russell ,Tremayne,30:00,4,00,40:00
130,Jarrod,Epps,30:10,3,59,39:50
131,Rick,Jackal,30:10,3,59,39:50
132,Brian,Watson,30:20,3,58,39:40
133,Mac,Biner,30:20,3,58,39:40
134,Jim,Russell,30:40,3,56,39:20
135,Jamie,Cook,30:50,3,55,39:10
136,Fraser,Walsh,31:10,3,53,38:50
137,Jason ,Fletcher,31:40,3,50,38:20
138,Simon,Austin,32:00,3,48,38:00
139,Patrick ,Kenny ,32:20,3,46,37:40
140,Chris,Naunton,32:30,3,45,37:30
141,Luke,Gregory,33:00,3,42,37:00
142,Jason ,Sim,33:00,3,42,37:00
143,Lee ,McCullagh,33:20,3,40,36:40
144,Michael ,Bieleny ,34:00,3,36,36:00
145,Andrew ,Buchanan,35:50,3,25,34:10
146,Bryan,Keely,35:50,3,25,34:10
147,Richard,Gleisner,36:40,3,20,33:20
