UNDER 8 MALE,UNDER 8 MALE,UNDER 8 MALE,UNDER 8 MALE,UNDER 8 MALE
Place,First Name,Surname,Time,Club
1,Jak,Naughton,4:34.9,HARRIERS
2,Avery,McDermid,4:54.6,BUAC
3,Nathan,Jones-Stibbe,4:57.7,HARRIERS
4,Joshua,Feuerherdt,5:02.3,BUAC
5,Harry,Cripps,5:53.6,BUAC
6,Jaron,Ekanayake,5:56.8,BUAC
7,Will,de Vries,6:06.1,BUAC
8,Mitchell,Bray,6:18.8,BUAC
9,Jonty,McDermid,6:18.9,BUAC
10,Tadhg,Hughan,6:54.6,BUAC
11,George,Pitson,7:33.7,BUAC
12,Sean,Hughan,8:16.5,BUAC
