UNDER 10 MALE,UNDER 10 MALE,UNDER 10 MALE,UNDER 10 MALE,UNDER 10 MALE
Place,First Name,Surname,Time,Club
1,Toby,McCaig,08:11.8,BUAC
2,Connor,Burkitt-Morrison,08:35.5,STH BENDIGO
3,Billy,Meade,08:37.7,BUAC
4,James,Kay,08:37.9,HARRIERS
5,Matthew,Saxon,08:42.1,BUAC
6,Lachlan,Feuerherdt,08:54.9,BUAC
7,Daniel,Chisholm,08:55.0,EAGLEHAWK
8,Samuel,Kay,09:10.1,HARRIERS
9,Max,Rowe,09:15.0,BUAC
10,Oscar,Fox,09:20.6,STH BENDIGO
11,Mitch,Elkington,09:23.8,OTHER
12,Ethan,Mathews,09:28.6,HARRIERS
13,Cooper,Charnas,09:32.0,BUAC
14,Andrew,Beens,09:46.5,BUAC
15,Luke,Feuerherdt,10:07.1,BUAC
16,Oscar,Terry,10:14.5,BUAC
17,Jeremy,Carlson,10:20.8,BUAC
18,Samuel,Graham,10:21.0,EAGLEHAWK
19,Sam ,Pitson,10:47.2,BUAC
20,Tim,Creer,11:03.0,BUAC
21,Jye,Ekanayake,11:05.3,BUAC
22,Avery,McDermid,11:08.2,BUAC
23,William,Freeman,12:07.2,EAGLEHAWK
