Place,First Name,Surname,Time,+ or -,Amount
1,Lisa,McDermid,46:27,-,2:53
2,Shayne ,Rushan,37:59,-,1:29
3,Janet ,Hodnett,38:09,-,1:35
4,Alan ,Buchanan,33:55,-,1:01
5,Brett ,Houlden,36:37,-,1:07
6,Tina,McBain,38:11,-,1:01
7,Gavin ,Fiedler,34:35,-,0:53
8,Andrew ,Creer,31:28,-,0:56
9,Rebecca,Tweed,30:48,-,0:56
10,Brian,Watson,31:01,-,0:51
11,Owen,Davies,35:22,-,0:38
12,Michael ,Bieleny ,28:45,-,0:35
13,Greg ,McBain,35:14,-,0:30
14,Alison ,Cartner,37:05,-,0:23
15,Melissa,Douglas,44:59,-,0:21
16,John ,McCullagh ,34:41,-,0:15
17,Ben ,McDermid,30:47,-,0:17
18,Holly,Randall,36:18,-,0:14
19,Maree,Platt,44:29,-,0:11
20,John ,Doering,47:22,+,0:02
21,Alison ,McCullagh,41:33,+,0:05
22,Craig,Fuerherdt,31:37,+,0:09
23,Justin ,O'Brien,38:30,+,0:22
24,Tracy ,Wilson,32:47,+,0:31
25,Scott ,Roberts,40:45,+,0:45
26,Jenny ,Buchanan,36:36,+,0:44
27,Sam,Brewin,40:57,+,0:57
28,John ,Brewin,40:41,+,0:57
29,Shann,Anderson,43:53,+,1:37
30,Chris,McCormack,34:47,+,1:59
