Place,Tag,First,Last,Start,Pace,Est Time
1,34,Matthew,Creer,00:00,07:59,0:07:59.0
2,382,Genevieve,Robinson,00:00,07:59,0:07:59.0
3,389,Mia,Brook,00:00,07:59,0:07:59.0
4,390,Ruby,Douglas,00:00,07:59,0:07:59.0
5,244,Jaron,Ekanayake,00:10,07:50,0:07:50.0
6,340,Georgia,Bray,00:10,07:49,0:07:49.0
7,383,Sharon,Carlson,00:30,07:34,0:07:34.0
8,375,Dylan,Deacon,00:30,07:30,0:07:30.0
9,379,Quinn,Holmes,00:40,07:22,0:07:22.0
10,205,Amelia,Charnas,00:50,07:10,0:07:10.0
11,322,Thom,Hosking,00:50,07:10,0:07:10.0
12,371,Sharon,Newton,01:00,07:01,0:07:01.0
13,128,George,Pitson,01:00,06:56,0:06:56.0
14,381,April,Wainwright,01:30,06:27,0:06:27.0
15,304,Stephanie,Carlson,01:40,06:24,0:06:24.0
16,44,Geoffrey,Robinson,01:40,06:20,0:06:20.0
17,135,Alexia,Woods,01:40,06:18,0:06:18.0
18,207,Lewis,Kallour,01:40,06:15,0:06:15.0
19,335,Lenny,Hancock,01:40,06:15,0:06:15.0
20,258,Ivy,Bray,01:50,06:12,0:06:12.0
21,323,Jana,Steen,01:50,06:11,0:06:11.0
22,154,Sean,Hughan,02:00,06:05,0:06:05.0
23,348,Tazma,Ferrie,02:00,06:02,0:06:02.0
24,328,Daniel,Noble,02:00,06:01,0:06:01.0
25,211,Jesse,Brook,02:00,05:59,0:05:59.0
26,372,Belle,Howe,02:00,05:58,0:05:58.0
27,378,Aidan,Deacon,02:00,05:57,0:05:57.0
28,313,Layla,Boulger,02:10,05:53,0:05:53.0
29,326,Sachin,Cody,02:10,05:50,0:05:50.0
30,355,Millie,McIntosh,02:10,05:47,0:05:47.0
31,281,Will,deVries,02:20,05:45,0:05:45.0
32,234,Finn,Cunningham,02:20,05:44,0:05:44.0
33,178,Annabel,Hancock,02:20,05:43,0:05:43.0
34,255,Dylan,Sim,02:20,05:43,0:05:43.0
35,216,Ava,Terry,02:20,05:41,0:05:41.0
36,58,Archie,Ross,02:20,05:40,0:05:40.0
37,250,Tully,Cripps,02:20,05:40,0:05:40.0
38,123,Harry,Terry,02:20,05:39,0:05:39.0
39,316,Isabella,Makris,02:20,05:38,0:05:38.0
40,25,Maddi,Bray,02:20,05:37,0:05:37.0
41,174,Sam,Hancock,02:20,05:36,0:05:36.0
42,235,Aoife,Cunningham,02:20,05:35,0:05:35.0
43,36,Henry,Turnbull,02:30,05:34,0:05:34.0
44,305,Jonty,McDermid,02:30,05:34,0:05:34.0
45,345,Jordan,Baker,02:30,05:33,0:05:33.0
46,175,Matilda,Wilby,02:30,05:32,0:05:32.0
47,298,Elliot,Lavery,02:30,05:32,0:05:32.0
48,324,Quinlan,Cody,02:30,05:32,0:05:32.0
49,28,Mitchell,Bray,02:30,05:30,0:05:30.0
50,209,Olivia,Douglas,02:30,05:30,0:05:30.0
51,282,Anna,deVries,02:30,05:30,0:05:30.0
52,271,Will,Smith,02:30,05:29,0:05:29.0
53,280,Paige,a'Beckett,02:40,05:25,0:05:25.0
54,261,Charlotte,Crane,02:40,05:20,0:05:20.0
55,284,Imogen,Stewart,02:40,05:20,0:05:20.0
56,246,Poppy,Wainwright,02:40,05:18,0:05:18.0
57,252,Jasmine,Murphy,02:40,05:18,0:05:18.0
58,260,Thomas,Henderson,02:40,05:18,0:05:18.0
59,172,Eloise,Wilby,02:40,05:17,0:05:17.0
60,232,Jack,Gleisner,02:40,05:17,0:05:17.0
61,245,Lacey,Wilkie,02:40,05:15,0:05:15.0
62,368,Eden,Howes,02:40,05:15,0:05:15.0
63,290,Sabine,Stewart,02:50,05:14,0:05:14.0
64,353,Cooper,Holmes,02:50,05:11,0:05:11.0
65,50,Harry,Cripps,02:50,05:08,0:05:08.0
66,262,Annabelle,McPhee,02:50,05:07,0:05:07.0
67,358,Lewis,McIntosh,03:00,05:04,0:05:04.0
68,360,Phoebe,Martin,03:00,05:03,0:05:03.0
69,39,Melissa,Douglas,03:00,05:01,0:05:01.0
70,195,Luke,Creer,03:00,04:59,0:04:59.0
71,249,Will,Gleisner,03:00,04:58,0:04:58.0
72,242,Halle,Blake-Burrows,03:00,04:57,0:04:57.0
73,229,Harrison,Pitson,03:00,04:56,0:04:56.0
74,105,Toby,McCaig,03:10,04:52,0:04:52.0
75,293,Spencer,Lavery,03:10,04:51,0:04:51.0
76,362,Brody,Hale,03:10,04:47,0:04:47.0
77,283,Lily,Sanderson,03:10,04:46,0:04:46.0
78,228,Sam,Pitson,03:20,04:45,0:04:45.0
79,297,Declan,Lavery,03:20,04:44,0:04:44.0
80,311,Jack,Kelly,03:20,04:44,0:04:44.0
81,269,Cooper,Charnas,03:20,04:40,0:04:40.0
82,158,Annalise,Murphy,03:20,04:38,0:04:38.0
83,238,Alex,Parry,03:20,04:36,0:04:36.0
84,276,Joshua,Feuerherdt,03:30,04:34,0:04:34.0
85,279,Lucy,McCaig,03:30,04:34,0:04:34.0
86,153,Tadhg,Hughan,03:30,04:33,0:04:33.0
87,99,Oscar,Terry,03:30,04:32,0:04:32.0
88,274,Avery,McDermid,03:30,04:31,0:04:31.0
89,300,Lucinda,Terry,03:30,04:29,0:04:29.0
90,83,Sam,Stewart,03:40,04:23,0:04:23.0
91,266,Lewis,Lonsdale,03:40,04:20,0:04:20.0
92,277,Luke,Feuerherdt,03:40,04:20,0:04:20.0
93,319,Nikolas,Makris,03:40,04:18,0:04:18.0
94,295,Jeremy,Carlson,03:40,04:16,0:04:16.0
95,327,Martin,Steen,03:40,04:16,0:04:16.0
96,254,William,Robinson,03:40,04:15,0:04:15.0
97,112,Jett,Grundy,03:50,04:12,0:04:12.0
98,198,Matthew,Saxon,03:50,04:11,0:04:11.0
99,337,Steff,Roberts,03:50,04:09,0:04:09.0
100,272,Abbey,Cartner,03:50,04:08,0:04:08.0
101,189,Tim,Creer,04:00,04:03,0:04:03.0
102,320,Callum,Noble,04:00,04:01,0:04:01.0
103,191,Phoebe,Lonsdale,04:00,04:00,0:04:00.0
104,147,Lachlan,Feuerherdt,04:00,03:59,0:03:59.0
105,171,Oliver,Sanderson,04:00,03:58,0:03:58.0
106,131,Carrisa,Brook,04:00,03:55,0:03:55.0
107,221,Billy,Meade,04:10,03:53,0:03:53.0
108,387,Connor,Bedson,04:10,03:53,0:03:53.0
