Place,First Name,Surname,Time,+ or -,Amount
1,Lewis,Lonsdale,05:15,-,1:34
2,Catelynd,Wheatley,05:18,-,1:12
3,Ethan ,Fletcher,07:03,-,0:57
4,Harrison,Kelly,04:37,-,0:58
5,Pheobe,Lonsdale,05:08,-,0:52
6,Jasmine,Padgham,06:09,-,0:51
7,Melana,Cordell,05:19,-,0:45
8,Manny,Rose,05:17,-,0:38
9,Floyd ,Cartner,04:10,-,0:27
10,Max,Rowe,04:40,-,0:34
11,Albert ,Cordell,05:21,-,0:34
12,Melissa,Douglas,04:02,-,0:28
13,Jack ,Gleisner,06:33,-,0:27
14,Ruby,Fletcher,05:53,-,0:24
15,Joshua,Feuerherdt,06:44,-,0:26
16,Lucinda ,Terry,05:56,-,0:26
17,Lachlan ,Feuerherdt,04:40,-,0:18
18,Jayden,Padgham,04:45,-,0:15
19,Tara,Anderson,06:07,-,0:16
20,Tyler,Wilkie,05:28,-,0:15
21,Jake,Lyons,04:01,-,0:10
22,Luke,Feuerherdt,05:07,-,0:03
23,Avery,McDermid,06:43,-,0:02
24,Rebecca,Ashman,05:47,+,0:02
25,Oscar,Terry,06:30,+,0:13
26,Nick,Meharry,05:44,+,0:18
27,Matthew,Saxon,06:12,+,0:27
28,Jade,Kelly,06:13,+,0:28
29,Morgan,Dunn,04:48,+,0:33
30,Bailey,Dunn,04:48,+,0:48
31,Finn,Cunningham,07:53,+,1:33
32,Rex ,Lourie,09:06,+,1:46
33,Kaidyn,Tucker,07:03,+,1:49
34,Kevin ,Wheatley,09:01,+,3:01
