order,first name,surname,start,est. mins/km,est. mins/km,est. time
1,Eric,Aardvark,00:00,7,00,21:00
2,Olivia ,Kealy,00:00,7,00,21:00
3,Tiffany,McCullough,00:00,7,00,21:00
4,Moira,Coleman,00:00,7,00,21:00
5,Milla,Finch,00:00,7,00,21:00
6,Kevin,Wheatley,00:00,7,00,21:00
7,Imogen,Douglass,00:30,6,50,20:30
8,Kathryne,Charnas,00:40,6,47,20:21
9,Ruby,Fletcher,00:50,6,44,20:12
10,Serge,Finch,01:00,6,40,20:00
11,Collette,Fletcher,01:20,6,32,19:36
12,Kath,O'Shea,01:30,6,30,19:30
13,Ella ,Fisher,01:50,6,25,19:15
14,Katie,Dean,01:50,6,25,19:15
15,Lucy ,Terry,01:50,6,23,19:09
16,Lachlan,Walsh,02:20,6,15,18:45
17,Nellie,Rose,02:20,6,12,18:36
18,Lachlan,Feuerherdt,02:20,6,12,18:36
19,William,Gleisner,02:30,6,10,18:30
20,Aoife,Cunningham,02:30,6,10,18:30
21,Murphy,Watson,02:30,6,10,18:30
22,Lavinia,Douglass,02:50,6,03,18:09
23,Charlie,Lourie,03:00,6,00,18:00
24,Eliza,O'Sullivan,03:00,6,00,18:00
25,Febey,Lonsdale,03:00,6,00,18:00
26,Hamish,Walker,03:00,6,00,18:00
27,David,Ashman,03:00,6,00,18:00
28,Tom,Colman,03:00,6,00,18:00
29,Oscar,Terry,03:00,6,00,18:00
30,Sophie,Shoebridge,03:10,5,57,17:51
31,Layla,Day,03:20,5,55,17:45
32,Luke,Creer,03:20,5,55,17:45
33,Lulu,Hamond,03:20,5,55,17:45
34,Imogen,Thompson,03:20,5,54,17:42
35,Gretel,Douglas,03:20,5,53,17:39
36,Tara,Anderson,03:20,5,53,17:39
37,Amber,Lyons,03:50,5,45,17:15
38,Harry,Terry,03:50,5,45,17:15
39,Catelynd,Wheatley,03:50,5,45,17:15
40,Rebecca ,Ashman,03:50,5,45,17:15
41,Kaidyn,Tucker,03:50,5,43,17:09
42,Zac ,Walsh,04:00,5,41,17:03
43,Abbey,Saxon,04:00,5,41,17:03
44,Tim,Creer,04:00,5,40,17:00
45,Belinda,O'Sullivan,04:00,5,40,17:00
46,Jayden,Padgham,04:00,5,40,17:00
47,Leila,Padgham,04:10,5,38,16:54
48,Henry,Cordell,04:10,5,37,16:51
49,Nicole,Kelly,04:20,5,35,16:45
50,Dani,Padgham,04:20,5,33,16:39
51,Morgan,Dunn,04:20,5,32,16:36
52,Tracie,Gleisner,04:30,5,30,16:30
53,Lisa,Bortolotto,04:30,5,30,16:30
54,Lewis,Fisher,04:30,5,30,16:30
55,Hanna,Crane,04:30,5,30,16:30
56,Amy,Sim,04:40,5,26,16:18
57,Megan,McDonald,04:50,5,23,16:09
58,Ella ,Finch,04:50,5,22,16:06
59,Riley ,Tawton,04:50,5,22,16:06
60,Amy,Dean,04:50,5,22,16:06
61,Andrew,Dean,05:00,5,21,16:03
62,James,Kealy,05:00,5,20,16:00
63,Matthew ,Saxon,05:00,5,20,16:00
64,Darcy,Tucker,05:00,5,19,15:57
65,Samara,Finch,05:10,5,18,15:54
66,Millie,Lourie,05:10,5,18,15:54
67,Emily,Heislers,05:10,5,17,15:51
68,Michelle,Perry,05:20,5,15,15:45
69,Beatrice,Lonsdale,05:30,5,10,15:30
70,Micheala,Meharry,05:30,5,10,15:30
71,Sayyu,Hamond,05:40,5,08,15:24
72,Jack,Bombardian,05:40,5,06,15:18
73,Greg,Christie,05:50,5,05,15:15
74,Will,Crane,05:50,5,04,15:12
75,Nicholas,Ashman,05:50,5,04,15:12
76,Ash,Bull,06:00,5,00,15:00
77,Murray,Cordell,06:00,5,00,15:00
78,Carissa,Brook,06:20,4,55,14:45
79,Bailey ,Dunn,06:20,4,55,14:45
80,Bella,Livingston,06:20,4,55,14:45
81,Fraser,Lourie,06:30,4,50,14:30
82,Floyd,Cartner,06:40,4,46,14:18
83,Ross,Douglas,06:50,4,45,14:15
84,Miles ,Livingston,06:50,4,45,14:15
85,Blaze,Houlden,06:50,4,42,14:06
86,Tullie,Rowe,07:00,4,41,14:03
87,Sebastian ,Rowe,07:00,4,40,14:00
88,David,Lonsdale,07:00,4,39,13:57
89,Jack,Cripps,07:10,4,36,13:48
90,Bweku,Hamond,07:30,4,30,13:30
91,Henry,Bombardian,07:30,4,30,13:30
92,Noah,Walsh,07:30,4,29,13:27
93,Matthew ,Creer,07:40,4,28,13:24
94,Shaina,Brook,07:50,4,24,13:12
95,John,Rose,08:00,4,20,13:00
96,Callum,Tucker,08:10,4,18,12:54
97,Leon,Hamond,08:10,4,16,12:48
98,Riley ,Walsh,08:20,4,14,12:42
99,Luke,Padgham,08:30,4,10,12:30
100,Maxwell,Pearse,08:50,4,05,12:15
101,Jim,Russell,09:20,3,55,11:45
102,Andrew,Creer,09:50,3,44,11:12
103,Matthew ,Heislers,09:50,3,43,11:09
104,Fraser,Walsh,10:30,3,29,10:27
