Place,Member,First,Last,Start,Pace,Est Time
1,3708,Janine,Butcher,02:20,07:20,0:26:24.0
2,3781,Hamish,Draper,03:00,07:11,0:25:51.6
3,3748,Amelia,Mitchell,03:10,07:06,0:25:33.6
4,250,Tully,Cripps,03:10,07:06,0:25:33.6
5,3750,Genevieve,Draper,03:20,07:04,0:25:26.4
6,79,Liz,Stewart,04:50,06:40,0:24:00.0
7,3749,Isabella,Draper,05:10,06:34,0:23:38.4
8,52,Leah,Cripps,05:10,06:34,0:23:38.4
9,3776,Kathleen,Pleasants,05:10,06:33,0:23:34.8
10,9,Trinity,Sanderson,05:10,06:33,0:23:34.8
11,210,Fiona,Dangerfield,05:30,06:29,0:23:20.4
12,374,Liam,Deacon,05:30,06:28,0:23:16.8
13,3741,Kim,Carter,05:40,06:26,0:23:09.6
14,3709,Scott,Butcher,05:50,06:23,0:22:58.8
15,344,Tim,Hughan,06:30,06:13,0:22:22.8
16,225,Lesley,Fabian,06:40,06:08,0:22:04.8
17,50,Harry,Cripps,06:50,06:07,0:22:01.2
18,356,Lynley,McDonald,06:50,06:05,0:21:54.0
19,398,Angus,McPherson,07:00,06:03,0:21:46.8
20,150,Rebecca,Ashman,07:00,06:02,0:21:43.2
21,66,Megan,McDonald,07:10,06:00,0:21:36.0
22,159,Renelle,McManus,07:10,06:00,0:21:36.0
23,316,Isabella,Makris,07:20,05:59,0:21:32.4
24,142,Zach,Condon,07:30,05:55,0:21:18.0
25,376,Sarah,Hadkins,07:30,05:55,0:21:18.0
26,380,Matthew,Hadkins,07:30,05:55,0:21:18.0
27,3779,Mathilda,Stewart,07:30,05:54,0:21:14.4
28,305,Jonty,McDermid,07:40,05:53,0:21:10.8
29,341,Greg,Toomey,07:40,05:52,0:21:07.2
30,347,Louise,Toomey,07:50,05:50,0:21:00.0
31,145,Joshua,Condon,07:50,05:50,0:21:00.0
32,98,Tanya,Fleming,08:00,05:46,0:20:45.6
33,24,Karina,Bray,08:10,05:45,0:20:42.0
34,237,Lou,Bray,08:10,05:45,0:20:42.0
35,40,Aida,Escall,08:10,05:45,0:20:42.0
36,377,Juliet,Deacon,08:10,05:44,0:20:38.4
37,274,Avery,McDermid,08:30,05:37,0:20:13.2
38,54,Kevin,deVries,08:30,05:37,0:20:13.2
39,310,Melanie,Makris,08:40,05:35,0:20:06.0
40,3716,Gus,Edwards,08:50,05:34,0:20:02.4
41,214,Amy,Sim,08:50,05:34,0:20:02.4
42,3722,Natasha,Dean,09:00,05:31,0:19:51.6
43,195,Luke,Creer,09:00,05:30,0:19:48.0
44,3777,Alistair,Stewart,09:00,05:29,0:19:44.4
45,3735,Travis,Edwards,09:00,05:29,0:19:44.4
46,3717,Lachlan,Edwards,09:10,05:28,0:19:40.8
47,3706,Ebony,Butcher,09:10,05:26,0:19:33.6
48,43,Josephine,Robinson,09:10,05:26,0:19:33.6
49,252,Jasmine,Murphy,09:20,05:25,0:19:30.0
50,157,Bec,Lacy,09:20,05:25,0:19:30.0
51,3720,Bec,Woodward,09:20,05:25,0:19:30.0
52,251,Beth,Lavery,09:30,05:23,0:19:22.8
53,281,Will,deVries,09:40,05:20,0:19:12.0
54,3703,Trent,Bayliss,09:40,05:19,0:19:08.4
55,84,Craig,Green,09:40,05:19,0:19:08.4
56,359,Anne,McIntosh,09:40,05:18,0:19:04.8
57,3715,Chloe,Green,09:50,05:16,0:18:57.6
58,13,Gavin,Fiedler,09:50,05:15,0:18:54.0
59,3721,Gabrielle,Dean,10:00,05:12,0:18:43.2
60,55,Justin,Lee,10:10,05:11,0:18:39.6
61,332,Nathan,Jones,10:10,05:11,0:18:39.6
62,331,Scott,Roberts,10:10,05:10,0:18:36.0
63,360,Phoebe,Martin,10:20,05:08,0:18:28.8
64,95,Jason,Sim,10:20,05:08,0:18:28.8
65,215,Emerson,Sim,10:20,05:07,0:18:25.2
66,300,Lucinda,Terry,10:30,05:05,0:18:18.0
67,156,Will,Murphy,10:40,05:03,0:18:10.8
68,254,William,Robinson,11:00,04:57,0:17:49.2
69,158,Annalise,Murphy,11:10,04:55,0:17:42.0
70,201,Beatrice,Lonsdale,11:10,04:55,0:17:42.0
71,364,David,Howes,11:10,04:55,0:17:42.0
72,270,Tyler,Wilkie,11:10,04:55,0:17:42.0
73,3713,Jazlin,Fear,11:20,04:52,0:17:31.2
74,3793,Anna,Christen,11:20,04:51,0:17:27.6
75,266,Lewis,Lonsdale,11:20,04:51,0:17:27.6
76,295,Jeremy,Carlson,11:20,04:50,0:17:24.0
77,34,Matthew,Creer,11:20,04:50,0:17:24.0
78,267,Kayla,McManus,11:30,04:49,0:17:20.4
79,350,David,Cripps,11:30,04:47,0:17:13.2
80,386,Danny,Burgess,11:30,04:47,0:17:13.2
81,307,Philip,Shambrook,11:30,04:47,0:17:13.2
82,337,Steff,Roberts,11:40,04:45,0:17:06.0
83,78,Mark,Saxon,11:40,04:45,0:17:06.0
84,400,Darren,Rowe,11:40,04:45,0:17:06.0
85,373,Shelley,Tuohey,11:50,04:44,0:17:02.4
86,198,Matthew,Saxon,12:00,04:40,0:16:48.0
87,131,Carrisa,Brook,12:30,04:33,0:16:22.8
88,272,Abbey,Cartner,12:30,04:33,0:16:22.8
89,191,Phoebe,Lonsdale,12:30,04:33,0:16:22.8
90,147,Lachlan,Feuerherdt,12:30,04:32,0:16:19.2
91,3745,Gus,MacGregor,12:40,04:30,0:16:12.0
92,3714,Tanner,Fear,12:40,04:29,0:16:08.4
93,3744,Finn,MacGregor,12:50,04:27,0:16:01.2
94,189,Tim,Creer,12:50,04:25,0:15:54.0
95,369,Stephen,Wainwright,13:00,04:23,0:15:46.8
96,275,Max,Rowe,13:00,04:22,0:15:43.2
97,387,Connor,Bedson,13:00,04:22,0:15:43.2
98,3707,Kyle,Butcher,13:10,04:20,0:15:36.0
99,236,Harry,Seaward,13:10,04:20,0:15:36.0
100,339,James,Toomey,13:20,04:18,0:15:28.8
101,253,Charlotte,Murphy,13:20,04:17,0:15:25.2
102,39,Melissa,Douglas,13:30,04:15,0:15:18.0
103,171,Oliver,Sanderson,13:40,04:13,0:15:10.8
104,169,Floyd,Cartner,13:40,04:12,0:15:07.2
105,80,Bridie,Blake-Burrows,14:10,04:05,0:14:42.0
106,65,Ben,McDermid,14:10,04:03,0:14:34.8
107,105,Toby,McCaig,14:20,04:00,0:14:24.0
108,203,Tullie,Rowe,14:20,04:00,0:14:24.0
109,94,David,Lonsdale,14:20,04:00,0:14:24.0
110,63,John,Robinson,14:30,03:58,0:14:16.8
111,167,Jack,Meade,14:40,03:55,0:14:06.0
112,42,Craig,Feuerherdt,14:50,03:54,0:14:02.4
113,219,Wil,McCaig,15:50,03:35,0:12:54.0
