PLACE,FIRST,LAST,RACES,POINTS
1,Max,Rowe,9,206
2,Tullie,Rowe,10,173
3,Philip,Shambrook,7,161
4,Charlotte,Murphy,7,153
5,Floyd,Cartner,9,145
6,Connor,Bedson,7,127
7,Tanner,Fear,6,122
8,Beatrice,Lonsdale,10,114
9,Phoebe,Lonsdale,7,112
10,Bec,Lacy,7,109
11,Melissa,Douglas,6,104
12,Abbey,Cartner,8,102
13,Bridie,Blake-Burrows,7,101
14,Tanya,Fleming,6,97
15,Lachlan,Feuerherdt,6,95
16,Mathilda,Stewart,5,94
17,Bec,Woodward,6,93
18,Luke,Creer,4,91
19,Tyler,Wilkie,4,83
20,Genevieve,Draper,5,81
21,Toby,McCaig,4,77
22,Isabella,Draper,3,75
23,Jazlin,Fear,5,73
24,Wil,McCaig,3,71
25,Janine,Butcher,3,70
26,Renelle,McManus,5,67
27,John,Robinson,6,64
28,Leah,Cripps,3,64
29,Will,deVries,3,63
30,Avery,McDermid,3,61
31,Lesley,Fabian,5,59
32,Tim,Creer,4,58
33,Lynley,McDonald,5,58
34,Ebony,Butcher,3,58
35,Aida,Escall,3,57
36,Hamish,Draper,4,56
37,Ben,McDermid,3,55
38,Phoebe,Martin,3,51
39,Chloe,Green,3,48
40,Amelia,Mitchell,5,46
41,Oliver,Sanderson,3,41
42,Scott,Butcher,2,40
43,Kim,Carter,2,40
44,Trent,Bayliss,3,40
45,Kevin,deVries,2,40
46,Anne,McIntosh,2,35
47,Greg,Toomey,3,35
48,Travis,Edwards,3,34
49,Megan,McDonald,2,31
50,Anna,Christen,2,30
51,William,Robinson,2,30
52,Danny,Burgess,5,29
53,David,Cripps,3,26
54,Lou,Bray,1,26
55,Gus,Edwards,2,25
56,Rebecca,Ashman,3,24
57,Gabrielle,Dean,2,24
58,Louise,Toomey,2,24
59,Lachlan,Edwards,2,23
60,Emerson,Sim,2,19
61,Matthew,Saxon,2,19
62,Mark,Saxon,3,17
63,Stephen,Wainwright,1,16
64,Will,Murphy,1,11
65,Harry,Seaward,1,9
66,James,Toomey,1,9
67,Trinity,Sanderson,1,0
68,Finn,MacGregor,1,0
69,Fiona,Preston,1,0
70,Craig,Green,1,0
71,Tim,Lovell,1,0
72,Lewis,Lonsdale,1,0
73,Angus,McPherson,1,0
74,Alistair,Stewart,1,0
75,Kyle,Butcher,1,0
76,Natasha,Dean,1,0
77,Taylor,Lovell,1,0
78,Harry,Cripps,1,0
79,Jonty,McDermid,1,0
80,Andrea,Smith,1,0
81,Beth,Lavery,1,0
82,Justin,Lee,1,0
83,Kathleen,Pleasants,1,0
84,Mason,Woodward,1,0
85,Kayla,McManus,1,0
86,Matthew,Creer,1,0
87,Fiona,Dangerfield,1,0
88,Gus,MacGregor,1,0
89,Craig,Feuerherdt,1,0
90,Gavin,Fiedler,1,0
91,Jason,Sim,1,0
92,Amy,Sim,1,0
