Place,First Name,Surname,Time,+ or -,Amount
1,Megan,McDonald,45:53,-,4:08
2,Ben ,McDermid,31:57,-,0:43
3,Michael ,Bieleny ,29:49,-,0:40
4,Maree,Platt,43:32,-,0:20
5,Matthew,Creer,37:15,-,0:20
6,Charles,Chambers,32:27,-,0:21
7,David ,Heislers,36:57,-,0:05
8,Rebecca,Tweed,33:29,-,0:08
9,Brian,Watson,32:19,+,0:04
10,Craig,Feuerherdt,32:24,+,0:09
11,Travis,Kelly,35:17,+,0:10
12,Alan ,Buchanan,35:20,+,0:21
13,Michelle,Bieleny ,50:15,+,0:22
14,Justin,Lee,38:18,+,0:27
15,Melissa,Wilkie,44:34,+,0:42
16,Shayne ,Rushan,40:56,+,0:37
17,Gavin ,Fiedler,37:18,+,0:40
18,Ingrid ,Douglass,37:31,+,0:45
19,Laura,Terry,42:07,+,0:59
20,Natalie,Watson,48:03,+,1:19
21,Jenny ,Buchanan,40:08,+,1:36
22,Fraser,Walsh,29:44,+,1:43
23,Frances,Walsh,45:16,+,1:48
24,Andrew ,Hosking,32:59,+,1:58
25,Brad ,Russell,43:19,+,2:11
26,$ Aida,Escall,54:02,+,2:22
27,Alan ,East,55:06,+,2:54
28,Georgie,Lanyon,40:02,+,3:49
