Place,First Name,Surname,Time
1,Matthew,Wilkinson,10.14
2,Ruby,Walsh,10.35
3,Emma,Douglas,9.27
4,Joel,Gundry,8.29
5,Jake,Russell,7.54
6,Imogen,Douglas,12.47
7,Will,Hogan,8.09
8,Noah,Walsh,10.51
9,Kyle,Gellatly,9.29
10,Lucas,Teasedale,8.52
11,Ellie,Wilson,9.12
12,Rebecca,Wilson,10.30
13,Jayden,Walsh,9.43
14,Michaela,Meharry,11.35
15,Will,Kenny,11.34
16,Riley,Walsh,10.16
17,Morgan,Dunn,11.37
18,Isabella,Douglass,13.21
19,Abbey,Dunn,12.42
