Place,First,Last,NET Time,Pace,Diff
1,Sebastian,Boromeo,0:05:18.9,05:18.9,-00:00.1
2,Jonty,McDermid,0:05:30.2,05:30.2,-00:03.8
3,Lacey,Wilkie,0:05:27.6,05:27.6,+00:12.6
4,Avery,McDermid,0:04:42.1,04:42.1,+00:11.1
5,Abbey,Cartner,0:04:23.8,04:23.8,+00:15.8
6,Lewis,Lonsdale,0:04:24.7,04:24.7,+00:10.7
7,Nikolas,Makris,0:04:35.0,04:35.0,+00:17.0
8,Luke,Feuerherdt,0:04:38.4,04:38.4,+00:22.4
9,William,Robinson,0:04:40.4,04:40.4,+00:25.4
10,Geoffrey,Robinson,0:06:02.0,06:02.0,+00:22.0
11,Joshua,Feuerherdt,0:04:54.3,04:54.3,+00:20.3
12,Mitchell,Bray,0:06:00.5,06:00.5,+00:30.5
13,Lachlan,Feuerherdt,0:04:35.9,04:35.9,+00:36.9
14,Harry,Cripps,0:05:46.8,05:46.8,+00:38.8
15,April,Wainwright,0:07:07.4,07:07.4,+00:40.4
16,Genevieve,Robinson,0:08:45.4,08:45.4,+00:46.4
17,Tully,Cripps,0:06:17.2,06:17.2,+00:49.2
18,Lucy,McCaig,0:05:32.7,05:32.7,+00:58.7
19,Poppy,Wainwright,0:06:24.1,06:24.1,+01:21.1
20,Jesse,Brook,0:07:33.3,07:33.3,+01:34.3
NEW,Campbell,Truscott,0:05:57.5,05:57.5
