Place,First Name,Surname,Time,+ or -,Amount
1,Navec,Lorkin,39:10,-,3:23
2,Carl,Bailey,44:35,-,1:28
3,Simon,Austin,30:59,-,1:12
4,Tony ,DiPace,35:13,-,1:09
5,Andrew ,Boshcetti,44:49,-,1:06
6,Ben ,McDermid,31:33,-,1:02
7,Leon ,Hamond ,33:37,-,1:00
8,Brett ,Houlden,47:37,-,0:36
9,Patrick ,Hartney,38:12,-,0:27
10,Alison ,Cartner,37:01,-,0:09
11,Michael ,Bieleny ,30:54,-,0:12
12,Andrew ,Buchanan,27:26,-,0:10
13,Michael ,Hogan,34:38,-,0:07
14,Angela,Slattery,43:02,-,0:04
15,Shayne ,Rushan,41:33,-,0:04
16,Lee ,McCullagh,28:46,+,0:05
17,Justin,Lee,35:52,+,0:11
18,Tracy ,Wilson,34:39,+,0:11
19,Emma,Moylan,38:36,+,0:21
20,David ,Ottrey,34:03,+,0:31
21,Paul,McMahon,37:04,+,0:34
22,Patrick ,Kenny ,29:26,+,0:37
23,Craig,Hunter,38:29,+,0:39
24,Gavin ,Fiedler,34:20,+,0:32
25,Jodie,Scoble,42:00,+,0:56
26,John ,Brewin,39:13,+,0:58
27,Frances ,Walsh,40:16,+,1:13
28,Jason ,Fletcher,32:03,+,1:21
29,Gaby ,Walsh,41:41,+,1:25
30,John ,McCullagh ,33:52,+,1:25
31,Brad ,Russell,40:07,+,1:36
32,Ingrid ,Douglass,37:23,+,1:42
33,Leeza ,Meharry,37:05,+,2:04
34,Madeleine ,Evely,36:54,+,2:42
35,Julie ,Hogan,54:08,+,2:41
36,Drew,Cahill,43:13,+,2:49
37,Lilly,Walsh,42:32,+,2:08
38,Janet ,Hodnett,40:58,+,3:48
39,Sam,Brewin,42:21,+,5:59
40,Melissa ,Douglas,49:29,+,5:03
41,Jessey,Wilson,44:19,+,8:22
