PLACE,FIRST,LAST,RACES,POINTS
1,Ben,McDermid,3,46
2,Rebecca,Wilkinson,3,42
3,Nigel,Preston,2,40
4,David,Lonsdale,3,37
5,Chris,Giffin,3,36
6,Lee,McCullagh,2,34
7,David,Heislers,3,33
8,Andrew,Creer,2,32
9,Nicholas,Cherry,2,31
10,Craig,Green,3,21
11,Wil,McCaig,1,20
12,John,Robinson,2,20
13,Stephen,van Rees,1,19
14,Damien,Roberts,3,19
15,Matthew,Schepisi,1,18
16,Alan,Buchanan,3,17
17,Craig,Feuerherdt,1,17
18,Danny,Burgess,2,17
19,Andrew,Wilkie,2,13
20,Justin,Lee,3,12
21,Greg,Carter,1,11
22,James,Russell,2,8
23,Jenny,Buchanan,3,7
24,David,Cripps,1,7
25,Travis,Edwards,2,7
26,Lisa,Wilkinson,2,5
27,Tanner,Fear,1,4
28,Clare,Montgomery,1,1
29,Beatrice,Lonsdale,1,0
30,Philip,Shambrook,3,0
31,Jay,Sanderson,1,0
32,Hamish,Draper,1,0
33,Melissa,Wilkie,3,0
34,Vicki,Lane,1,0
35,Charlotte,Murphy,1,0
36,Tyler,Wilkie,1,0
37,Justine,Rowe,3,0
38,Leeza,Meharry,1,0
39,Brad,Russell,1,0
40,Emma,Gibbons,1,0
41,Todd,Foster,1,0
42,Trinity,Sanderson,2,0
43,Alistair,Stewart,1,0
44,Liz,Foster,1,0
45,Alison,Cartner,1,0
46,Maree,Platt,1,0
47,David,Howes,2,0
48,Gavin,Fiedler,2,0
49,Kathleen,Pleasants,3,0
50,Phoebe,Lonsdale,1,0
51,Alan,East,1,0
52,Amelia,Mitchell,1,0
53,Darren,Rowe,3,0
54,Michaela,Meharry,1,0
55,Josephine,Robinson,3,0
56,Beth,Lavery,2,0
57,Shayne,Rushan,3,0
58,Leah,Cripps,1,0
59,Troy,Davis,1,0
60,Bec,Lacy,2,0
61,Ross,Douglas,2,0
62,Ann-Marie,Wangdi,1,0
63,Genevieve,Draper,1,0
64,Sue,Taylor,2,0
