PLACE,FIRST,LAST,RACES,POINTS
1,Ben,McDermid,3,58
2,Max,Rowe,3,55
3,Tullie,Rowe,3,51
4,Mason,Woodward,3,43
5,Jazlin,Fear,3,38
6,Tanner,Fear,2,34
7,Andrea,Smith,3,33
8,Charlotte,Murphy,2,31
9,William,Robinson,3,24
10,Lachlan,Edwards,2,21
11,Oliver,Sanderson,1,20
12,Tyler,Wilkie,2,20
13,John,Robinson,1,16
14,Tim,Creer,1,15
15,Avery,McDermid,2,14
16,Phoebe,Lonsdale,1,13
17,Abbey,Cartner,1,12
18,Danny,Breen,1,12
19,Lachlan,Feuerherdt,1,11
20,Chloe,Green,2,10
21,Jonte,Breen,1,9
22,Luke,Creer,1,8
23,Jonty,McDermid,3,8
24,Scott,Broad,2,7
25,Beatrice,Lonsdale,1,7
26,Jasmine,Murphy,3,7
27,Noah,Armstrong,2,5
28,Ella,Meharry,1,4
29,Jennifer,Lee,3,3
30,Darren,Rowe,2,3
31,Kevin,de Vries,1,2
32,Tammy,Fear,3,2
33,Travis,Edwards,1,2
34,Miller,Armstrong,2,1
35,Fiona,Preston,1,1
36,Tanya,Fleming,2,0
37,Lynley,McDonald,2,0
38,Geoffrey,Robinson,1,0
39,Justine,Rowe,1,0
40,Lesley,Fabian,1,0
41,Harry,Cripps,2,0
42,Aida,Escall,1,0
43,David,Cripps,1,0
44,Owen,Draper,1,0
45,Christopher,Epworth,2,0
46,Bec,Woodward,2,0
47,Megan,McDonald,1,0
48,Luke,Feuerherdt,1,0
49,Kim,Carter,1,0
50,Bec,Lacy,1,0
