Place,Name,Surname,Club,Time
1,Craig,Green,INV,0:58:04
2,Michael,Hogan,BUAC,1:01:47
3,Gary,Crouch,BUAC,1:03:04
4,David,Heislers,BUAC,1:06:53
5,Greg,Brown,BUAC,1:09:11
6,Tony,Fahey,BYMCA,1:19:48
7,Alan,East,BUAC,1:26:10
