Place,First Name,Surname,Time,+ or -,Amount
1,Rielly,Walsh,14:30,-,1:24
2,Meg,Pearce,17:23,-,0:16
3,Madeleine,Evely,12:04,-,0:20
4,Morgan,Dunn,18:12,+,0:12
5,Noah,Walsh,15:50,+,0:35
6,Julie,Hogan,19:10,+,0:58
7,Lachlan,Walsh,20:18,+,5:03
8,Connor,O'Farell,27:27,+,12:12
