order,tag no,first name,surname,start,est pace,est time
1,34,Matthew,Creer,0:00,7:59,7:59
2,154,Sean,Hughan,0:00,7:59,7:59
3,244,Jaron,Ekanayake,0:10,7:50,7:50
4,204,Kane,Charnas,0:40,7:20,7:20
5,205,Amelia,Charnas,0:50,7:10,7:10
6,322,Thom,Hosking,0:50,7:10,7:10
7,326,Sachin,Cody,0:50,7:11,7:11
8,128,George,Pitson,1:00,6:56,6:56
9,324,Quinlan,Cody,1:00,6:59,6:59
10,44,Geoffrey,Robinson,1:20,6:42,6:42
11,178,Annabel,Hancock,1:20,6:45,6:45
12,220,Ella,Meharry,1:30,6:31,6:31
13,135,Alexia,Woods,1:40,6:18,6:18
14,264,Katelyn,Kelly,1:40,6:18,6:18
15,207,Lewis,Kallour,1:50,6:15,6:15
16,246,Poppy,Wainwright,1:50,6:10,6:10
17,250,Tully,Cripps,1:50,6:10,6:10
18,258,Ivy,Bray,1:50,6:12,6:12
19,271,Will,Smith,1:50,6:15,6:15
20,323,Jana,Steen,1:50,6:11,6:11
21,25,Maddi,Bray,2:00,5:56,5:56
22,209,Olivia,Douglas,2:00,5:57,5:57
23,28,Mitchell,Bray,2:10,5:53,5:53
24,292,Jye,Ekanayake,2:10,5:55,5:55
25,313,Layla,Boulger,2:10,5:53,5:53
26,50,Harry,Cripps,2:20,5:45,5:45
27,58,Archie,Ross,2:20,5:40,5:40
28,211,Jesse,Brook,2:20,5:43,5:43
29,216,Ava,Terry,2:20,5:37,5:37
30,234,Finn,Cunningham,2:20,5:44,5:44
31,239,Paula,a'Beckett,2:20,5:39,5:39
32,255,Dylan,Sim,2:20,5:43,5:43
33,281,Will,deVries,2:20,5:45,5:45
34,316,Isabella,Makris,2:20,5:38,5:38
35,36,Henry,Turnbull,2:30,5:34,5:34
36,175,Matilda,Wilby,2:30,5:32,5:32
37,223,Jack,Meharry,2:30,5:31,5:31
38,235,Aoife,Cunningham,2:30,5:35,5:35
39,260,Thomas,Henderson,2:30,5:27,5:27
40,282,Anna,deVries,2:30,5:30,5:30
41,284,Imogen,Stewart,2:30,5:32,5:32
42,293,Spencer,Lavery,2:30,5:35,5:35
43,298,Elliot,Lavery,2:30,5:32,5:32
44,153,Tadhg,Hughan,2:40,5:20,5:20
45,172,Eloise,Wilby,2:40,5:17,5:17
46,232,Jack,Gleisner,2:40,5:17,5:17
47,245,Lacey,Wilkie,2:40,5:18,5:18
48,252,Jasmine,Murphy,2:40,5:18,5:18
49,261,Charlotte,Crane,2:40,5:20,5:20
50,265,Joshua,Kelly,2:40,5:19,5:19
51,274,Avery,McDermid,2:40,5:17,5:17
52,280,Paige,a'Beckett,2:40,5:25,5:25
53,262,Annabelle,McPhee,2:50,5:15,5:15
54,276,Joshua,Feuerherdt,2:50,5:10,5:10
55,189,Tim,Creer,3:00,5:00,5:00
56,195,Luke,Creer,3:00,4:59,4:59
57,229,Harrison,Pitson,3:00,4:56,4:56
58,242,Halle,Blake-Burrows,3:00,4:57,4:57
59,249,Will,Gleisner,3:00,4:58,4:58
60,279,Lucy,McCaig,3:00,5:00,5:00
61,290,Sabine,Stewart,3:00,5:04,5:04
62,99,Oscar,Terry,3:10,4:47,4:47
63,105,Toby,McCaig,3:10,4:52,4:52
64,191,Phoebe,Lonsdale,3:10,4:50,4:50
65,283,Lily,Sanderson,3:10,4:46,4:46
66,295,Jeremy,Carlson,3:10,4:53,4:53
67,297,Declan,Lavery,3:10,4:51,4:51
68,215,Emerson,Sim,3:20,4:43,4:43
69,228,Sam,Pitson,3:20,4:45,4:45
70,238,Alex,Parry,3:20,4:36,4:36
71,269,Cooper,Charnas,3:20,4:40,4:40
72,291,Sarah,Wilkes,3:20,4:45,4:45
73,311,Jack,Kelly,3:20,4:44,4:44
74,139,Leila,Padgham,3:30,4:35,4:35
75,267,Kayla,McManus,3:30,4:34,4:34
76,272,Abbey,Cartner,3:30,4:30,4:30
77,273,Harrison,Kelly,3:30,4:33,4:33
78,277,Luke,Feuerherdt,3:30,4:27,4:27
79,300,Lucinda,Terry,3:30,4:29,4:29
80,83,Sam,Stewart,3:40,4:23,4:23
81,254,William,Robinson,3:40,4:22,4:22
82,266,Lewis,Lonsdale,3:40,4:23,4:23
83,289,Josh,Smith,3:40,4:18,4:18
84,327,Martin,Steen,3:40,4:16,4:16
85,112,Jett,Grundy,3:50,4:12,4:12
86,147,Lachlan,Feuerherdt,3:50,4:10,4:10
87,198,Matthew,Saxon,3:50,4:11,4:11
88,319,Nikolas,Makris,3:50,4:14,4:14
89,19,Troy,Cartner,4:00,4:00,4:00
90,169,Floyd,Cartner,4:00,4:05,4:05
91,171,Oliver,Sanderson,4:00,3:58,3:58
92,176,Kaidyn,Tucker,4:00,4:05,4:05
93,221,Billy,Meade,4:00,3:59,3:59
94,256,Jesse,Delves,4:00,4:02,4:02
