order,first name,surname,start,est. mins/km,est. mins/km,est. time
1,Eric,Aardvark,0:00,8,00,8:00
2,Mathew,Creer,0:30,7,30,7:30
3,Manny,Rose,0:30,7,30,7:30
4,Albert ,Cordell,0:30,7,30,7:30
5,Neve ,Coleman,1:00,7,01,7:01
6,Finn,Cunningham,1:00,7,05,7:05
7,Luke,Feuerherdt,1:00,6,56,6:56
8,Sarah,Cunningham,1:10,6,55,6:55
9,Lucy,Hall,1:10,6,50,6:50
10,Henry,Edwards,1:20,6,40,6:40
11,Owen,Brasher,1:30,6,30,6:30
12,Aedan,Hamilton,1:30,6,30,6:30
13,Ciaran,Nobel,1:30,6,30,6:30
14,Lewis,Lonsdale,1:30,6,30,6:30
15,Livinia,Douglass,1:40,6,19,6:19
16,Olivia ,Kealy,1:40,6,25,6:25
17,Jordan,Spencer,1:40,6,20,6:20
18,Morgan ,Whatley,1:40,6,16,6:16
19,Tara,Anderson,1:50,6,10,6:10
20,Eliza,Christie,1:50,6,10,6:10
21,Oscar,Terry,1:50,6,10,6:10
22,Lucinda ,Terry,1:50,6,15,6:15
23,Aoife,Cunningham,1:50,6,10,6:10
24,Seyku,Hamond,1:50,6,15,6:15
25,Bweku Tu,Hamond,1:50,6,15,6:15
26,Raph,Musk,1:50,6,10,6:10
27,Rachael ,Hamilton,2:10,5,49,5:49
28,Emerson,Sim,2:10,5,48,5:48
29,Lachlan ,Walsh,2:10,5,51,5:51
30,Melana,Cordell,2:10,5,54,5:54
31,Luke,Creer,2:10,5,48,5:48
32,Pheobe,Lonsdale,2:20,5,45,5:45
33,Nick,Oke,2:20,5,40,5:40
34,Wilham,Gleisner,2:20,5,45,5:45
35,Felix,Ansted,2:20,5,45,5:45
36,Ruby,Fletcher,2:30,5,30,5:30
37,Max,Rowe,2:30,5,30,5:30
38,Ella,Fisher,2:30,5,35,5:35
39,Charlie,Lourie,2:30,5,31,5:31
40,Lulu,Hamond,2:30,5,30,5:30
41,Otto,Ansted,2:30,5,35,5:35
42,Hannah,Crane,2:40,5,20,5:20
43,Nellie,Rose,2:40,5,23,5:23
44,Mathilda,Stewart,2:40,5,20,5:20
45,Lachlan ,Feuerherdt,2:40,5,25,5:25
46,McKinley,Musk,2:40,5,17,5:17
47,Madlen,Hearne,2:50,5,15,5:15
48,Zac ,Walsh,2:50,5,10,5:10
49,Henry,Cordell,2:50,5,12,5:12
50,Luella,Ansted,2:50,5,15,5:15
51,Henry,Spencer,2:50,5,06,5:06
52,Sol,Musk,2:50,5,15,5:15
53,Carissa,Brook,3:00,5,04,5:04
54,Amber,Lyons,3:00,5,00,5:00
55,Lillian,Oke,3:00,5,05,5:05
56,Vincent,Weatherhead,3:00,5,03,5:03
57,Nina,Lenard,3:00,4,57,4:57
58,Kaidyn,Tucker,3:00,5,01,5:01
59,Will,Crane,3:10,4,48,4:48
60,Beatrice,Lonsdale,3:10,4,55,4:55
61,Jayden,Padgham,3:10,4,55,4:55
62,Jude,Perez,3:10,4,50,4:50
63,Riley,Walsh,3:10,4,50,4:50
64,Tanner,Nally,3:10,4,47,4:47
65,James,Kealy,3:20,4,45,4:45
66,Bronte ,Walsh,3:20,4,45,4:45
67,Emily,Heislers,3:20,4,39,4:39
68,Tim,Creer,3:20,4,42,4:42
69,Declan,McMahon,3:20,4,36,4:36
70,Floyd ,Cartner,3:30,4,31,4:31
71,Olivia ,Houlden,3:30,4,30,4:30
72,Brodie,Hartland,3:40,4,21,4:21
73,Jake,Lyons,3:40,4,18,4:18
74,Leila,Padgham,3:40,4,25,4:25
75,Matisse,Perez,3:40,4,25,4:25
76,Noah ,Walsh,3:40,4,22,4:22
77,Tullie,Rowe,3:40,4,17,4:17
78,Steffany,Roberts,3:50,4,10,4:10
79,Brayden,Roberts ,4:00,4,01,4:01
80,Callum,Tucker,4:00,4,04,4:04
81,Luke,Padgham,4:10,3,50,3:50
82,Ned,Buckell,4:10,3,55,3:55
83,Matthew,Heislers,4:20,3,40,3:40
84,Jacob,Buckell,4:20,3,40,3:40
