Place,Tag,First,Last,Start,Pace,Est Time
1,250,Tully,Cripps,02:40,07:06,0:21:18.0
2,52,Leah,Cripps,03:30,06:50,0:20:30.0
3,79,Liz,Stewart,04:00,06:40,0:20:00.0
4,374,Liam,Deacon,04:40,06:28,0:19:24.0
5,344,Tim,Hughan,05:20,06:13,0:18:39.0
6,40,Aida,Escall,06:00,06:00,0:18:00.0
7,316,Isabella,Makris,06:00,05:59,0:17:57.0
8,195,Luke,Creer,06:10,05:58,0:17:54.0
9,142,Zach,Condon,06:20,05:55,0:17:45.0
10,380,Matthew,Hadkins,06:20,05:55,0:17:45.0
11,376,Sarah,Hadkins,06:20,05:55,0:17:45.0
12,145,Joshua,Condon,06:30,05:50,0:17:30.0
13,66,Megan,McDonald,06:40,05:45,0:17:15.0
14,237,Lou,Bray,06:40,05:45,0:17:15.0
15,24,Karina,Bray,06:40,05:45,0:17:15.0
16,377,Juliet,Deacon,06:50,05:44,0:17:12.0
17,347,Louise,Toomey,07:00,05:40,0:17:00.0
18,341,Greg,Toomey,07:10,05:38,0:16:54.0
19,310,Melanie,Makris,07:20,05:35,0:16:45.0
20,157,Bec,Lacy,07:20,05:35,0:16:45.0
21,43,Josephine,Robinson,07:40,05:26,0:16:18.0
22,252,Jasmine,Murphy,07:40,05:25,0:16:15.0
23,356,Lynley,McDonald,07:50,05:23,0:16:09.0
24,360,Phoebe,Martin,07:50,05:22,0:16:06.0
25,270,Tyler,Wilkie,08:20,05:12,0:15:36.0
26,332,Nathan,Jones,08:30,05:11,0:15:33.0
27,331,Scott,Roberts,08:30,05:10,0:15:30.0
28,300,Lucinda,Terry,08:40,05:05,0:15:15.0
29,156,Will,Murphy,08:50,05:03,0:15:09.0
30,253,Charlotte,Murphy,09:10,04:58,0:14:54.0
31,364,David,Howes,09:20,04:55,0:14:45.0
32,158,Annalise,Murphy,09:20,04:55,0:14:45.0
33,295,Jeremy,Carlson,09:30,04:50,0:14:30.0
34,337,Steff,Roberts,09:40,04:45,0:14:15.0
35,400,Darren,Rowe,09:40,04:45,0:14:15.0
36,373,Shelley,Tuohey,09:50,04:44,0:14:12.0
37,275,Max,Rowe,10:00,04:40,0:14:00.0
38,191,Phoebe,Lonsdale,10:10,04:38,0:13:54.0
39,369,Stephen,Wainwright,10:20,04:35,0:13:45.0
40,198,Matthew,Saxon,10:20,04:33,0:13:39.0
41,131,Carrisa,Brook,10:20,04:33,0:13:39.0
42,147,Lachlan,Feuerherdt,10:20,04:32,0:13:36.0
43,201,Beatrice,Lonsdale,10:40,04:28,0:13:24.0
44,387,Connor,Bedson,11:00,04:19,0:12:57.0
45,339,James,Toomey,11:10,04:18,0:12:54.0
46,189,Tim,Creer,11:10,04:16,0:12:48.0
47,39,Melissa,Douglas,11:20,04:15,0:12:45.0
48,236,Harry,Seaward,11:20,04:15,0:12:45.0
49,78,Mark,Saxon,11:30,04:10,0:12:30.0
50,94,David,Lonsdale,12:00,04:00,0:12:00.0
51,105,Toby,McCaig,12:00,04:00,0:12:00.0
52,80,Bridie,Blake-Burrows,12:20,03:55,0:11:45.0
53,167,Jack,Meade,12:20,03:55,0:11:45.0
54,203,Tullie,Rowe,12:20,03:55,0:11:45.0
55,219,Wil,McCaig,12:40,03:45,0:11:15.0
