Place,First Name,Surname,Time,+ or -,Amount
1,Mattisse,Perez,5:07,-,0:26
2,Emily,Heislers,4:59,-,0:27
3,Bronte ,Walsh,4:53,-,0:26
4,Francesca,Pearce,6:16,-,0:22
5,Jude,Perez,5:50,+,0:17
6,Rielly ,Walsh,4:32,+,0:00
7,Dane ,Heiden,3:54,-,0:03
8,Ruby,Walsh,4:44,+,0:03
9,Bree ,Heiden,5:04,+,0:11
10,Morgan,Dunn,5:30,+,1:02
11,Abby,Dunn,7:19,+,1:46
12,Imogen ,Douglass,7:37,+,1:33
