Place,Member,First,Last,Start,Pace,Est Time
1,1082,Mikayla,Kirkby,02:20,09:40,0:09:40.0
2,1081,Brooke,Carter,03:40,08:25,0:08:25.0
3,1084,Naghmana,Tehseen,04:00,08:04,0:08:04.0
4,1032,Spencer,Epworth,04:00,07:59,0:07:59.0
5,3728,Tobias,Preston,04:20,07:41,0:07:41.0
6,1050,Jack,Wright,04:20,07:36,0:07:36.0
7,1090,Chase,Carter,04:30,07:27,0:07:27.0
8,1046,Bonnie,Scott,05:10,06:48,0:06:48.0
9,1096,Miriam,Niblett,05:10,06:47,0:06:47.0
10,1048,Edie,Gibbons,05:20,06:40,0:06:40.0
11,1054,Jimeal,Ekanayake,05:20,06:36,0:06:36.0
12,1092,Sihanna,Carter,05:30,06:34,0:06:34.0
13,1075,Louise,Firli,05:30,06:30,0:06:30.0
14,1095,Zac,Firli,05:30,06:30,0:06:30.0
15,1064,Indie,Colley,05:40,06:25,0:06:25.0
16,365,Megan,Howes,05:40,06:16,0:06:16.0
17,3751,Ellie,Beesley,05:50,06:11,0:06:11.0
18,3782,Owen,Draper,05:50,06:09,0:06:09.0
19,1018,Abigail,Epworth,05:50,06:08,0:06:08.0
20,1059,Hunter,Pearce,05:50,06:08,0:06:08.0
21,1062,Oliver,Clarke,05:50,06:06,0:06:06.0
22,372,Belle,Howes,06:00,06:04,0:06:04.0
23,382,Genevieve,Robinson,06:00,06:04,0:06:04.0
24,1089,Ruby,Carter,06:00,05:59,0:05:59.0
25,3743,Liam,Carter,06:00,05:59,0:05:59.0
26,1073,Gabe,Nicoletti,06:00,05:55,0:05:55.0
27,1052,Jaxton,Ekanayake,06:10,05:51,0:05:51.0
28,1007,Ruby,Meharry,06:20,05:44,0:05:44.0
29,1014,Tom,Roberts,06:20,05:39,0:05:39.0
30,3742,Jemma,Carter,06:20,05:35,0:05:35.0
31,1053,Giana,Ekanayake,06:30,05:31,0:05:31.0
32,1042,Savannah,Marwood,06:30,05:30,0:05:30.0
33,390,Ruby,Douglas,06:30,05:29,0:05:29.0
34,245,Lacey,Wilkie,06:30,05:28,0:05:28.0
35,3727,Samuel,Preston,06:30,05:26,0:05:26.0
36,246,Poppy,Wainwright,06:40,05:24,0:05:24.0
37,293,Spencer,Lavery,06:40,05:24,0:05:24.0
38,354,Alice,McIntosh,06:40,05:23,0:05:23.0
39,250,Tully,Cripps,06:40,05:21,0:05:21.0
40,3750,Genevieve,Draper,06:40,05:18,0:05:18.0
41,368,Eden,Howes,06:40,05:17,0:05:17.0
42,3752,Chloe,Beesley,06:40,05:17,0:05:17.0
43,3778,Sebastian,Stewart,06:40,05:17,0:05:17.0
44,298,Elliott,Lavery,06:50,05:10,0:05:10.0
45,209,Olivia,Douglas,06:50,05:08,0:05:08.0
46,44,Geoffrey,Robinson,07:00,05:05,0:05:05.0
47,1026,Eiliyah,Daneen,07:00,05:05,0:05:05.0
48,400,Darren,Rowe,07:00,05:00,0:05:00.0
49,1035,Braxton,Safstrom,07:00,04:58,0:04:58.0
50,3749,Isabella,Draper,07:00,04:58,0:04:58.0
51,50,Harry,Cripps,07:10,04:54,0:04:54.0
52,3711,Eryn,McManus,07:10,04:51,0:04:51.0
53,3736,Skylar,Woodward,07:10,04:50,0:04:50.0
54,279,Lucy,McCaig,07:10,04:46,0:04:46.0
55,282,Anna,de Vries,07:20,04:42,0:04:42.0
56,283,Lily,Sanderson,07:20,04:39,0:04:39.0
57,258,Ivy,Bray,07:20,04:37,0:04:37.0
58,391,Sebastian,Boromeo,07:20,04:37,0:04:37.0
59,1038,Xavier,Marwood,07:20,04:37,0:04:37.0
60,1047,Harry,Scott,07:30,04:34,0:04:34.0
61,381,April,Wainwright,07:30,04:30,0:04:30.0
62,267,Kayla,McManus,07:30,04:29,0:04:29.0
63,281,Will,de Vries,07:40,04:25,0:04:25.0
64,360,Phoebe,Martin,07:40,04:25,0:04:25.0
65,3753,Logan,Beesley,07:40,04:25,0:04:25.0
66,305,Jonty,McDermid,07:40,04:19,0:04:19.0
67,3737,Ebony,Woodward,07:40,04:18,0:04:18.0
68,272,Abbey,Cartner,07:40,04:15,0:04:15.0
69,1015,Miller,Armstrong,07:50,04:12,0:04:12.0
70,276,Joshua,Feuerherdt,07:50,04:11,0:04:11.0
71,1086,Jimi,Read,07:50,04:11,0:04:11.0
72,254,William,Robinson,08:00,04:05,0:04:05.0
73,277,Luke,Feuerherdt,08:00,04:04,0:04:04.0
74,274,Avery,McDermid,08:00,04:00,0:04:00.0
75,292,Jye,Ekanayake,08:00,03:59,0:03:59.0
76,1016,Noah,Armstrong,08:00,03:59,0:03:59.0
77,266,Lewis,Lonsdale,08:10,03:54,0:03:54.0
78,169,Floyd,Cartner,08:10,03:51,0:03:51.0
79,244,Jaron,Ekanayake,08:10,03:50,0:03:50.0
80,3714,Tanner,Fear,08:10,03:48,0:03:48.0
81,1060,William,Trew,08:20,03:40,0:03:40.0
82,3738,Mason,Woodward,08:20,03:39,0:03:39.0
83,1029,James,Trew,08:20,03:35,0:03:35.0
84,275,Max,Rowe,08:30,03:29,0:03:29.0
