Place,First Name,Surname,Time
1,Harry,Terry,43:25
2,Mick,McCarthy,38:34
3,Carolyn,Sing,42:38
4,Jodie,Scoble,42:11
5,John ,Jackel,40:28
6,Ingrid ,Douglas,33:13
7,Jody ,Pickering,41:17
8,Stewart,Scoble,36:20
9,Shayne ,Rushan,42:45
10,Andrew ,Buchanan,26:26
11,Greg ,McBain,33:59
12,Ben ,McDermid,33:15
13,Brad ,Russell,38:30
14,Andrew ,Evely,33:19
15,Liz ,Foster,39:01
16,Jackie ,Tremayne,38:46
17,Lisa ,Wilkinson,32:29
18,David ,Tarrant,30:31
19,Nick ,Walsh ,33:52
20,Gavin ,Fiedler,32:52
21,Michael ,Hogan,34:14
22,Steve ,Brereton ,31:38
23,Justin,Lee,33:00
24,Shane,Freer,26:06
25,Gaby ,Walsh,39:17
26,Paul,McMahon,34:29
27,Jeff,Pethybridge,36:40
28,Jenny ,Buchanan,34:02
29,Julie ,Hogan,48:14
30,John ,McCullagh ,30:49
31,Michael ,Bieleny ,28:26
32,Tracy ,Wilson,31:38
33,Wolf ,Heiden,32:13
34,John ,Brewin,37:58
35,Leon ,Hamond ,32:59
36,Todd ,Foster,36:10
37,Janet ,Hodnett,36:41
38,Mark ,Nicolson ,38:57
39,Gary ,Crouch ,34:05
40,Alison ,McCullagh,37:35
41,Frances ,Walsh,39:11
42,Tim ,McCullagh,28:21
43,Lisa ,McDermid,1:01:41
44,Alan ,Buchanan,34:03
