PLACE,FIRST,LAST,TIME,PACE,CLUB
1,Charlotte,Murphy,0:13:32.8,04:30.9,UNI
2,Abbey,Cartner,0:14:02.3,04:40.8,UNI
3,Phoebe,Lonsdale,0:14:20.8,04:46.9,UNI
4,Beatrice,Lonsdale,0:15:06.3,05:02.1,UNI
5,Bec,Lacy,0:16:14.6,05:24.9,UNI
6,Bec,Woodward,0:17:40.0,05:53.3,UNI
7,Fiona,Preston,0:19:00.5,06:20.2,UNI
8,Genevieve,Draper,0:23:18.1,07:46.0,UNI
9,Amelia,Mitchell,0:23:48.3,07:56.1,UNI
