Place,Member,First,Last,Start,Pace,Est Time
1,1098,Hannah,Niblett,00:00,07:59,0:33:22.2
2,3782,Owen,Draper,00:00,07:59,0:33:22.2
3,1093,Kale,Beesley,00:30,07:53,0:32:57.1
4,3748,Amelia,Mitchell,04:40,06:53,0:28:46.3
5,3778,Sebastian,Stewart,05:10,06:47,0:28:21.3
6,3757,Tanae,Bull,05:10,06:46,0:28:17.1
7,79,Liz,Stewart,05:10,06:45,0:28:12.9
8,3736,Skylar,Woodward,05:30,06:42,0:28:00.4
9,237,Lou,Bray,05:50,06:37,0:27:39.5
10,40,Aida,Escall,06:00,06:35,0:27:31.1
11,1039,Melinda,Marwood,06:00,06:35,0:27:31.1
12,3776,Kathleen,Pleasants,06:20,06:28,0:27:01.8
13,3759,Lyn,Sebire,06:50,06:23,0:26:40.9
14,1028,Mel,Debnam-Smith,07:10,06:18,0:26:20.0
15,159,Renelle,McManus,07:20,06:15,0:26:07.5
16,1075,Louise,Firli,07:20,06:15,0:26:07.5
17,356,Lynley,McDonald,07:20,06:14,0:26:03.3
18,322,Thom,Hosking,07:30,06:12,0:25:55.0
19,66,Megan,McDonald,07:40,06:10,0:25:46.6
20,1001,Kate,Byrne,07:40,06:10,0:25:46.6
21,1049,Georgie,Gibbons,07:40,06:09,0:25:42.4
22,3781,Hamish,Draper,07:50,06:07,0:25:34.1
23,3750,Genevieve,Draper,08:00,06:05,0:25:25.7
24,100,Justine,Rowe,08:10,06:03,0:25:17.3
25,1019,Christopher,Epworth,08:10,06:02,0:25:13.2
26,3729,Fiona,Preston,08:20,06:01,0:25:09.0
27,3741,Kim,Carter,08:20,06:00,0:25:04.8
28,250,Tully,Cripps,08:40,05:56,0:24:48.1
29,225,Lesley,Fabian,08:40,05:55,0:24:43.9
30,98,Tanya,Fleming,08:50,05:54,0:24:39.7
31,3749,Isabella,Draper,09:00,05:51,0:24:27.2
32,149,Janelle,Giffin,09:20,05:47,0:24:10.5
33,157,Bec,Lacy,09:20,05:45,0:24:02.1
34,3720,Bec,Woodward,09:30,05:43,0:23:53.7
35,282,Anna,de Vries,09:40,05:42,0:23:49.6
36,1002,Tammy,Fear,09:40,05:42,0:23:49.6
37,50,Harry,Cripps,09:50,05:40,0:23:41.2
38,209,Olivia,Douglas,09:50,05:40,0:23:41.2
39,1026,Eiliyah,Daneen,09:50,05:40,0:23:41.2
40,246,Poppy,Wainwright,09:50,05:39,0:23:37.0
41,1063,Will,Trewick,10:00,05:37,0:23:28.7
42,257,Fin,Bray,10:00,05:36,0:23:24.5
43,3783,Zacch,Martin,10:10,05:34,0:23:16.1
44,1033,Sal,Ekanayake,10:20,05:32,0:23:07.8
45,1085,Michelle,Scott,10:20,05:31,0:23:03.6
46,44,Geoffrey,Robinson,10:30,05:30,0:22:59.4
47,54,Kevin,de Vries,10:30,05:29,0:22:55.2
48,3753,Logan,Beesley,10:30,05:29,0:22:55.2
49,43,Josephine,Robinson,10:50,05:25,0:22:38.5
50,52,Leah,Cripps,10:50,05:25,0:22:38.5
51,220,Ella,Meharry,10:50,05:25,0:22:38.5
52,381,April,Wainwright,10:50,05:25,0:22:38.5
53,1017,Scott,Broad,10:50,05:25,0:22:38.5
54,391,Sebastian,Boromeo,10:50,05:24,0:22:34.3
55,1015,Miller,Armstrong,10:50,05:24,0:22:34.3
56,142,Zach,Condon,11:00,05:22,0:22:26.0
57,16,Jennifer,Lee,11:00,05:21,0:22:21.8
58,227,Ally,Collett,11:00,05:21,0:22:21.8
59,1047,Harry,Scott,11:10,05:20,0:22:17.6
60,283,Lily,Sanderson,11:20,05:17,0:22:05.1
61,1066,Jodie,McLeod,11:20,05:17,0:22:05.1
62,1077,Dean,Trew,11:20,05:17,0:22:05.1
63,145,Joshua,Condon,11:30,05:16,0:22:00.9
64,1076,Sarah,Trew,11:30,05:16,0:22:00.9
65,252,Jasmine,Murphy,11:50,05:11,0:21:40.0
66,1016,Noah,Armstrong,11:50,05:11,0:21:40.0
67,1030,Ella,Smith,11:50,05:10,0:21:35.8
68,1058,Tyler,Swann,11:50,05:09,0:21:31.6
69,360,Phoebe,Martin,12:00,05:07,0:21:23.3
70,3715,Chloe,Green,12:00,05:07,0:21:23.3
71,1012,Danny,Breen,12:10,05:06,0:21:19.1
72,3795,Janelle,Willits,12:10,05:05,0:21:14.9
73,1095,Zac,Firli,12:20,05:04,0:21:10.7
74,3774,Ryan,Haythorpe,12:20,05:04,0:21:10.7
75,22,Ross,Douglas,12:20,05:03,0:21:06.5
76,267,Kayla,McManus,12:20,05:02,0:21:02.4
77,1038,Xavier,Marwood,12:20,05:02,0:21:02.4
78,3754,Elijah,Willits,12:30,05:01,0:20:58.2
79,1011,Harry,Byrne,12:30,05:00,0:20:54.0
80,13,Gavin,Fiedler,12:40,04:59,0:20:49.8
81,1078,Leigh,Draper,12:40,04:59,0:20:49.8
82,270,Tyler,Wilkie,12:40,04:58,0:20:45.6
83,195,Luke,Creer,12:50,04:56,0:20:37.3
84,400,Darren,Rowe,13:00,04:54,0:20:28.9
85,333,Jon,McIntosh,13:00,04:53,0:20:24.7
86,358,Lewis,McIntosh,13:10,04:52,0:20:20.6
87,284,Imogen,Stewart,13:10,04:50,0:20:12.2
88,29,Alison,Cartner,13:20,04:49,0:20:08.0
89,281,Will,de Vries,13:20,04:49,0:20:08.0
90,1067,Scott,McLeod,13:20,04:49,0:20:08.0
91,3760,Karl,Stoltz,13:20,04:49,0:20:08.0
92,3735,Travis,Edwards,13:20,04:48,0:20:03.8
93,3765,Michelle,Vanzuyden,13:20,04:48,0:20:03.8
94,39,Melissa,Douglas,13:30,04:47,0:19:59.7
95,3737,Ebony,Woodward,13:30,04:46,0:19:55.5
96,292,Jye,Ekanayake,13:40,04:45,0:19:51.3
97,1037,Ethan,Marwood,13:40,04:45,0:19:51.3
98,1071,Freya,Nicoletti,13:40,04:45,0:19:51.3
99,3769,Charley,Collins,13:40,04:44,0:19:47.1
100,305,Jonty,McDermid,13:50,04:42,0:19:38.8
101,1065,Sonya,Walker,13:50,04:42,0:19:38.8
102,1100,Cooper,Firli,13:50,04:42,0:19:38.8
103,3766,Anthony,Byrne,13:50,04:42,0:19:38.8
104,14,Lisa,Wilkinson,14:00,04:38,0:19:22.0
105,253,Charlotte,Murphy,14:00,04:38,0:19:22.0
106,3755,Noah,Willits,14:10,04:37,0:19:17.9
107,1013,Jonte,Breen,14:10,04:36,0:19:13.7
108,276,Joshua,Feuerherdt,14:20,04:35,0:19:09.5
109,241,Andrea,Smith,14:30,04:33,0:19:01.1
110,266,Lewis,Lonsdale,14:30,04:32,0:18:57.0
111,1020,Mumtaz,Hussain,14:30,04:32,0:18:57.0
112,3713,Jazlin,Fear,14:30,04:32,0:18:57.0
113,55,Justin,Lee,14:30,04:31,0:18:52.8
114,244,Jaron,Ekanayake,14:40,04:30,0:18:48.6
115,274,Avery,McDermid,14:40,04:30,0:18:48.6
116,1086,Jimi,Read,14:40,04:30,0:18:48.6
117,201,Beatrice,Lonsdale,14:40,04:29,0:18:44.4
118,3717,Lachlan,Edwards,14:50,04:27,0:18:36.1
119,254,William,Robinson,15:10,04:22,0:18:15.2
120,3714,Tanner,Fear,15:20,04:21,0:18:11.0
121,272,Abbey,Cartner,15:20,04:20,0:18:06.8
122,65,Ben,McDermid,15:30,04:18,0:17:58.4
123,105,Toby,McCaig,15:30,04:17,0:17:54.3
124,350,David,Cripps,15:30,04:17,0:17:54.3
125,1099,Kelvin,Niblett,15:40,04:16,0:17:50.1
126,277,Luke,Feuerherdt,15:40,04:15,0:17:45.9
127,3730,Greg,Carter,15:50,04:13,0:17:37.5
128,147,Lachlan,Feuerherdt,15:50,04:12,0:17:33.4
129,1060,William,Trew,16:00,04:11,0:17:29.2
130,1029,James,Trew,16:00,04:10,0:17:25.0
131,1083,Rebecca,Kirkby,16:10,04:09,0:17:20.8
132,3738,Mason,Woodward,16:30,04:03,0:16:55.7
133,191,Phoebe,Lonsdale,16:30,04:02,0:16:51.6
134,1051,Kane,Safstrom,16:30,04:02,0:16:51.6
135,308,Chris,Giffin,16:50,03:58,0:16:34.8
136,33,Andrew,Creer,17:00,03:56,0:16:26.5
137,84,Craig,Green,17:00,03:56,0:16:26.5
138,203,Tullie,Rowe,17:00,03:56,0:16:26.5
139,1036,Harry,Wright,17:00,03:55,0:16:22.3
140,189,Tim,Creer,17:10,03:54,0:16:18.1
141,275,Max,Rowe,17:10,03:53,0:16:13.9
142,1023,Matthew,Schepisi,17:20,03:52,0:16:09.8
143,171,Oliver,Sanderson,17:20,03:51,0:16:05.6
144,1031,Jack,Milligan,17:20,03:50,0:16:01.4
145,1061,Tarli,Bird,17:30,03:48,0:15:53.0
146,63,John,Robinson,17:50,03:45,0:15:40.5
147,169,Floyd,Cartner,18:10,03:40,0:15:19.6
