Place,First Name,Surname,Time,+ or -,Amount
1,Joshua,Kelly,05:19,-,0:18
2,Josh,Smith,04:19,-,0:26
3,Lacey,Wilkie,06:07,-,0:13
4,Kayla,McManus,04:48,-,0:08
5,Will,deVries,06:21,-,0:14
6,Billy,Meade,04:33,-,0:12
7,Toby,McCaig,04:13,-,0:08
8,Sarah,Wilkes,04:16,-,0:04
9,Harrison,Kelly,04:33,-,0:00
10,William,Robinson,05:24,+,0:07
11,Lewis,Lonsdale,04:45,+,0:06
12,Paige,a'Beckett,05:37,+,0:11
13,Anna,deVries,06:01,+,0:08
14,Katelyn,Kelly,06:26,+,0:11
15,Will,Smith,06:08,+,0:13
16,Olivia,Douglas,06:43,+,0:19
17,Lewis,Kallour,06:39,+,0:37
18,Lily,Sanderson,06:22,+,0:52
19,Jack,Gleisner,06:42,+,1:14
