Place,First Name,Surname,Time,+ or -,Amount
1,Max,Pearse,17:59,-,6:15
2,Houston,Pearse,22:59,-,3:17
3,Stephanie,Roberts,18:31,-,1:13
4,Jack,Cripps,17:45,-,1:06
5,Will,Hogan,16:43,-,0:43
6,Bailey,Evans,15:54,-,0:16
7,Isabella,Douglass,24:27,-,0:16
8,Joseph,Baldwin,20:56,-,0:04
9,Greg,Christie,20:49,-,0:03
10,Scott,Roberts,20:33,+,0:21
11,Jeremy,Pearson,20:36,+,0:32
12,Nick,Moloney,15:45,+,1:29
