Place,First,Last,NET Time,Pace,Diff
1,Alice,McIntosh,0:06:57.6,06:58,-01:01.4
2,Liam,Carter,0:06:25.9,06:26,-00:53.1
3,Jemma,Carter,0:05:43.5,05:43,-00:45.5
4,Eden,Howes,0:05:00.0,05:00,-00:30.0
5,Tully,Cripps,0:05:20.5,05:21,-00:24.5
6,Kayla,McManus,0:04:24.9,04:25,-00:23.1
7,Lewis,McIntosh,0:04:44.9,04:45,-00:19.1
8,Sebastian,Boromeo,0:04:32.7,04:33,-00:16.3
9,April,Wainwright,0:05:29.0,05:29,-00:15.0
10,Joshua,Feuerherdt,0:04:25.9,04:26,-00:11.1
11,Abbey,Cartner,0:04:05.2,04:05,-00:07.8
12,Ruby,Douglas,0:06:19.4,06:19,-00:05.6
13,Lewis,Lonsdale,0:03:55.9,03:56,-00:05.1
14,Harry,Cripps,0:04:56.0,04:56,-00:03.0
15,William,Robinson,0:03:54.1,03:54,-00:00.9
16,Jonty,McDermid,0:04:53.8,04:54,-00:00.2
17,Anna,deVries,0:05:00.5,05:01,+00:04.5
18,Belle,Howes,0:05:52.1,05:52,+00:05.1
19,Avery,McDermid,0:04:29.9,04:30,+00:12.9
20,Geoffrey,Robinson,0:05:38.8,05:39,+00:13.8
21,Luke,Feuerherdt,0:04:35.3,04:35,+00:19.3
22,Genevieve,Robinson,0:07:43.5,07:43,+00:23.5
23,Will,deVries,0:05:05.4,05:05,+00:25.4
24,Olivia,Douglas,0:05:54.7,05:55,+00:33.7
NEW,Charotte,Dashwood,0:05:04.1,05:04
