Place,First Name,Surname,Time,+ or -,Amount
1,Bronte,Walsh,16:11,-,0:49
2,Bridie,Pearce,16:45,-,0:33
3,Steffany,Roberts,13:55,-,0:26
4,Isabella,Douglass,18:46,-,0:29
5,Joseph,Baldwin,15:25,-,0:11
6,Max,Pearse,12:46,-,0:11
7,Jack,Cripps,13:47,-,0:13
8,Gervase,Birt,12:49,+,0:13
9,Lucas,Teasedale,14:44,+,0:59
10,Matisse,Perez,17:25,+,1:25
11,Bryn,McCormack,19:18,+,5:12
