1;AABM-3771;0000-00-00;00:00:33.363;;46;-43;b7c8f6
2;509;0000-00-00;00:00:35.058;11573;254;-38;eb39b7
3;AABM-3761;0000-00-00;00:00:35.402;;52;-41;aac108
4;AAAA-1098;0000-00-00;00:00:35.916;;79;-47;2e1b8f
5;AAAA-1097;0000-00-00;00:00:36.352;;79;-46;82e302
6;AAAA-1084;0000-00-00;00:01:24.337;;69;-52;2e1b0c
7;507;0000-00-00;00:01:32.756;11573;127;-51;83485d
8;AABM-3800;0000-00-00;00:01:33.396;;58;-41;891622
9;AABM-3798;0000-00-00;00:01:33.996;;80;-43;ce3fa5
10;505;0000-00-00;00:01:43.835;11573;183;-44;cd24f8
11;AABM-3762;0000-00-00;00:01:44.086;;54;-39;a76541
12;AABM-3768;0000-00-00;00:01:55.108;;92;-47;687103
13;AAAA-1096;0000-00-00;00:01:56.150;;68;-44;e2a5c5
14;AABM-3799;0000-00-00;00:02:05.492;;72;-51;75583c
15;AABM-3767;0000-00-00;00:02:06.151;;66;-49;d6d2bb
16;AABM-3770;0000-00-00;00:02:06.196;;112;-43;24c871
17;AAAA-1046;0000-00-00;00:02:23.288;;85;-44;999d90
18;AACT-382;0000-00-00;00:02:33.211;;58;-48;312e77
19;AABM-3782;0000-00-00;00:02:33.262;;84;-35;c11305
20;AAAA-1073;0000-00-00;00:02:43.348;;46;-46;8aed44
21;AACT-390;0000-00-00;00:02:44.294;;84;-49;98febe
22;AAAA-1014;0000-00-00;00:02:54.174;;108;-44;7e7aa4
23;AAAA-1042;0000-00-00;00:03:13.264;;80;-41;e4e4a6
24;510;0000-00-00;00:03:24.933;11573;190;-47;3b7758
25;AACT-354;0000-00-00;00:03:25.052;;34;-57;1067de
26;AABM-3743;0000-00-00;00:03:25.407;;44;-50;e43fa5
27;AABM-3742;0000-00-00;00:03:25.462;;22;-49;d65055
28;44;0000-00-00;00:03:26.284;11573;34;-46;9b7c4f
29;AAAA-1026;0000-00-00;00:03:33.263;;52;-48;f3e42a
30;AABM-3749;0000-00-00;00:03:33.581;;54;-43;cef1d3
31;AAAA-1035;0000-00-00;00:03:34.031;;76;-42;3348b6
32;AABM-3769;0000-00-00;00:03:52.364;;40;-44;a3fe04
33;AAAA-1038;0000-00-00;00:03:52.625;;54;-42;83ebad
34;AABM-3711;0000-00-00;00:03:52.687;;56;-48;b79b2a
35;AAAA-1095;0000-00-00;00:03:52.745;;44;-44;839103
36;AAAA-1047;0000-00-00;00:04:02.624;;98;-42;1cf043
37;AABM-3710;0000-00-00;00:04:12.314;;30;-50;a812b2
38;253;0000-00-00;00:04:12.512;11573;60;-40;1967e6
39;AABM-3737;0000-00-00;00:04:12.575;;41;-45;795e53
40;AACT-305;0000-00-00;00:04:13.305;;78;-43;9d8f7a
41;AAAA-1086;0000-00-00;00:04:22.780;;33;-41;1a9a83
42;276;0000-00-00;00:04:22.998;11573;63;-41;ec84c4
43;274;0000-00-00;00:04:31.678;11573;46;-39;c5fcf9
44;277;0000-00-00;00:04:31.822;11573;90;-37;652c6f
45;266;0000-00-00;00:04:42.676;11573;79;-47;f5f09a
46;AAAA-1060;0000-00-00;00:04:52.187;;70;-51;470d21
47;AABM-3738;0000-00-00;00:05:01.178;;43;-47;c289fe
48;275;0000-00-00;00:05:01.733;11573;70;-35;beaf3c
49;507;0000-00-00;00:07:01.487;11573;106;-54;418167
50;AABM-3799;0000-00-00;00:07:05.234;;66;-50;58be75
51;AABM-3800;0000-00-00;00:07:10.748;;58;-49;4ecf2f
52;253;0000-00-00;00:08:06.862;11573;72;-43;57b30e
53;AABM-3769;0000-00-00;00:08:09.719;;62;-44;910db2
54;AABM-3762;0000-00-00;00:08:14.512;;92;-45;4fd609
55;AAAA-1096;0000-00-00;00:08:16.529;;60;-49;b386db
56;AABM-3798;0000-00-00;00:08:21.079;;65;-44;416bd9
57;AACT-382;0000-00-00;00:08:24.912;;80;-45;d7dbab
58;510;0000-00-00;00:08:26.362;11573;173;-55;e0c60f
59;AAAA-1038;0000-00-00;00:08:28.071;;50;-45;479b4b
60;AAAA-1086;0000-00-00;00:08:29.499;;25;-43;48dd72
61;AAAA-1035;0000-00-00;00:08:30.072;;66;-42;5dd249
62;AABM-3737;0000-00-00;00:08:31.715;;56;-46;782ba5
63;AABM-3771;0000-00-00;00:08:32.320;;86;-44;766034
64;277;0000-00-00;00:08:33.960;11573;56;-39;e8b1f6
65;AABM-3761;0000-00-00;00:08:33.999;;85;-39;f50c50
66;AABM-3743;0000-00-00;00:08:34.060;;44;-51;9929bf
67;276;0000-00-00;00:08:34.661;11573;26;-34;8e4070
68;AAAA-1095;0000-00-00;00:08:34.841;;54;-46;f6510d
69;AAAA-1073;0000-00-00;00:08:35.043;;46;-43;17958b
70;275;0000-00-00;00:08:35.239;11573;65;-38;558478
71;AACT-305;0000-00-00;00:08:36.021;;56;-47;3feccc
72;AAAA-1060;0000-00-00;00:08:36.267;;62;-40;6ed9f1
73;AABM-3738;0000-00-00;00:08:37.030;;34;-46;017595
74;AABM-3711;0000-00-00;00:08:37.081;;64;-46;f9e2d8
75;AABM-3768;0000-00-00;00:08:38.765;;82;-38;3019d4
76;44;0000-00-00;00:08:39.051;11573;42;-38;b0bec9
77;AABM-3710;0000-00-00;00:08:39.231;;68;-47;9f0fdb
78;AAAA-1026;0000-00-00;00:08:39.823;;48;-48;23df05
79;AABM-3749;0000-00-00;00:08:40.482;;66;-41;9774b9
80;AAAA-1084;0000-00-00;00:08:41.812;;76;-50;02ce41
81;274;0000-00-00;00:08:41.875;11573;78;-39;af75d3
82;AACT-354;0000-00-00;00:08:42.932;;108;-46;d8ce9a
83;AAAA-1042;0000-00-00;00:08:45.002;;106;-47;42ba90
84;AAAA-1047;0000-00-00;00:08:46.040;;75;-50;801cb4
85;AAAA-1098;0000-00-00;00:08:48.635;;78;-50;ac6140
86;AAAA-1046;0000-00-00;00:08:49.739;;26;-48;3c633e
87;505;0000-00-00;00:08:49.882;11573;162;-49;43c787
88;266;0000-00-00;00:08:52.324;11573;58;-36;4eafea
89;AAAA-1014;0000-00-00;00:08:56.517;;88;-42;1bf357
90;AABM-3767;0000-00-00;00:09:00.523;;82;-44;bda2c1
91;AABM-3742;0000-00-00;00:09:11.042;;53;-50;3536e2
92;AABM-3770;0000-00-00;00:09:13.737;;94;-41;606f8c
93;AACT-390;0000-00-00;00:09:27.254;;63;-46;e562c9
94;AABM-3782;0000-00-00;00:09:35.664;;90;-45;95831e
95;AAAA-1097;0000-00-00;00:10:46.200;;75;-44;fc9584
96;509;0000-00-00;00:14:27.813;11573;254;-46;593b36
