1;AABM-3750;0000-00-00;00:00:32.832;;70;-52;842a52
2;AABM-3748;0000-00-00;00:01:32.580;;106;-45;c61dac
3;40;0000-00-00;00:01:33.079;11573;78;-48;e666b2
4;AAAA-1039;0000-00-00;00:01:52.650;;80;-51;9a02d6
5;502;0000-00-00;00:02:32.393;11573;152;-49;dbb221
6;AAAA-468;0000-00-00;00:02:53.814;;46;-40;c01ce3
7;AACT-322;0000-00-00;00:03:13.387;;66;-44;af1424
8;AABM-3720;0000-00-00;00:03:13.833;;52;-44;7e4402
9;AACT-356;0000-00-00;00:03:23.642;;62;-44;b3c580
10;503;0000-00-00;00:03:23.756;11573;146;-50;58d873
11;AABM-3712;0000-00-00;00:03:24.063;;33;-48;ba0750
12;AABM-3781;0000-00-00;00:03:43.017;;84;-48;3a821d
13;225;0000-00-00;00:04:02.575;11573;47;-38;fe05ce
14;504;0000-00-00;00:04:02.737;11573;237;-46;b68250
15;AAAA-1078;0000-00-00;00:04:03.056;;41;-47;7862fb
16;250;0000-00-00;00:04:32.747;11573;80;-39;1b0591
17;AAAA-1026;0000-00-00;00:04:53.013;;56;-45;e14e75
18;AABM-3749;0000-00-00;00:04:53.299;;33;-50;874245
19;157;0000-00-00;00:04:53.451;11573;29;-39;cd1254
20;AAAA-1002;0000-00-00;00:04:53.954;;50;-41;35d5ed
21;AAAA-1085;0000-00-00;00:04:54.260;;80;-47;bac08c
22;44;0000-00-00;00:05:13.145;11573;46;-43;c24a27
23;AAAA-1077;0000-00-00;00:05:14.140;;50;-41;f8de2f
24;52;0000-00-00;00:05:22.862;11573;72;-40;2744a3
25;43;0000-00-00;00:05:33.014;11573;73;-38;27febd
26;AAAA-1047;0000-00-00;00:05:33.364;;48;-45;f401d3
27;AAAA-1076;0000-00-00;00:05:43.251;;35;-51;97115c
28;AAAA-1038;0000-00-00;00:06:02.253;;84;-44;29f374
29;16;0000-00-00;00:06:02.822;11573;92;-43;bbc67e
30;54;0000-00-00;00:06:12.615;11573;88;-38;530d07
31;AABM-3795;0000-00-00;00:06:32.568;;63;-48;379aa0
32;AABM-3754;0000-00-00;00:06:42.496;;68;-42;700a67
33;AACT-358;0000-00-00;00:06:52.200;;70;-49;f6d21a
34;AAAA-1095;0000-00-00;00:07:02.856;;64;-47;0c3f95
35;22;0000-00-00;00:07:03.637;11573;61;-37;fc1069
36;AAAA-1086;0000-00-00;00:07:12.576;;44;-46;8a548a
37;281;0000-00-00;00:07:33.539;11573;52;-50;990366
38;AACT-305;0000-00-00;00:07:33.592;;50;-48;99d438
39;AAAA-1065;0000-00-00;00:07:46.112;;30;-42;c48d9b
40;AABM-3737;0000-00-00;00:07:46.373;;68;-50;8bb24d
41;508;0000-00-00;00:07:51.415;11573;142;-49;57f0b2
42;AABM-3769;0000-00-00;00:08:02.033;;38;-43;7b1552
43;AAAA-1037;0000-00-00;00:08:02.180;;38;-47;54731e
44;AAAA-1100;0000-00-00;00:08:02.382;;49;-52;7ee17b
45;AABM-3766;0000-00-00;00:08:02.820;;86;-43;3aba91
46;AAAA-1020;0000-00-00;00:08:13.203;;66;-46;6b3ccb
47;AABM-3713;0000-00-00;00:08:13.581;;40;-51;715f0f
48;272;0000-00-00;00:08:22.160;11573;72;-40;41405c
49;266;0000-00-00;00:08:22.163;11573;54;-44;ed88dc
50;274;0000-00-00;00:08:22.744;11573;56;-36;74338e
51;AAAA-1060;0000-00-00;00:08:31.174;;59;-48;241c0e
52;AAAA-1099;0000-00-00;00:08:31.561;;62;-40;52e6d4
53;AABM-3765;0000-00-00;00:08:41.822;;46;-44;7d0dc4
54;147;0000-00-00;00:08:51.696;11573;54;-39;edf7f4
55;253;0000-00-00;00:09:11.217;11573;54;-37;d8d1e0
56;AAAA-1051;0000-00-00;00:09:11.403;;46;-57;a61eb0
57;AABM-3738;0000-00-00;00:09:32.259;;56;-43;1a6271
58;AAAA-1029;0000-00-00;00:09:41.547;;56;-37;d589a4
59;191;0000-00-00;00:09:41.618;11573;43;-43;025ffe
60;275;0000-00-00;00:10:12.876;11573;88;-38;99f54f
61;65;0000-00-00;00:10:13.407;11573;60;-38;e9f6d8
62;203;0000-00-00;00:10:14.278;11573;58;-49;249af2
63;169;0000-00-00;00:11:01.123;11573;61;-41;db171c
64;504;0000-00-00;00:16:57.491;11573;254;-49;c70553
65;AABM-3750;0000-00-00;00:17:04.796;;86;-52;1f9f8a
66;502;0000-00-00;00:18:29.160;11573;166;-49;a944ba
67;AAAA-468;0000-00-00;00:18:43.901;;64;-42;67d6af
68;AAAA-1047;0000-00-00;00:18:50.692;;73;-38;a51de7
69;AAAA-1039;0000-00-00;00:18:52.048;;79;-49;d1f5c5
70;AACT-322;0000-00-00;00:18:57.049;;88;-40;06bc8a
71;AABM-3748;0000-00-00;00:19:05.428;;77;-48;95f139
72;AAAA-1086;0000-00-00;00:21:03.565;;72;-41;efa9c8
73;508;0000-00-00;00:21:10.956;11573;254;-52;1b3b79
74;AAAA-1038;0000-00-00;00:21:20.338;;110;-44;f261ca
75;AAAA-1060;0000-00-00;00:21:22.359;;80;-47;0ccb1f
76;AAAA-1078;0000-00-00;00:21:23.586;;88;-46;eba544
77;AAAA-1099;0000-00-00;00:21:29.789;;100;-48;38d2b6
78;AAAA-1077;0000-00-00;00:21:32.590;;86;-34;60a7c9
79;AAAA-1085;0000-00-00;00:21:39.673;;110;-47;21d829
80;AACT-358;0000-00-00;00:21:40.808;;68;-47;69abf2
81;AAAA-1076;0000-00-00;00:21:45.197;;40;-43;6a09bd
82;AABM-3720;0000-00-00;00:21:47.663;;80;-46;d836ee
83;AABM-3738;0000-00-00;00:21:48.219;;83;-43;208dd8
84;AACT-305;0000-00-00;00:21:49.938;;92;-43;914e51
85;147;0000-00-00;00:21:50.688;11573;46;-42;2db7a2
86;272;0000-00-00;00:21:52.883;11573;128;-34;40a75a
87;503;0000-00-00;00:21:55.021;11573;254;-51;e4832f
88;44;0000-00-00;00:21:57.509;11573;126;-38;3edd8d
89;AABM-3754;0000-00-00;00:21:58.090;;62;-51;88349d
90;AAAA-1020;0000-00-00;00:21:58.428;;48;-48;1669d8
91;AAAA-1026;0000-00-00;00:21:58.729;;64;-51;af58a1
92;AABM-3795;0000-00-00;00:22:00.361;;65;-50;522498
93;225;0000-00-00;00:22:01.653;11573;44;-46;9e7a6c
94;43;0000-00-00;00:22:02.612;11573;104;-38;6dc4a3
95;AAAA-1065;0000-00-00;00:22:03.652;;92;-46;fd4932
96;281;0000-00-00;00:22:12.390;11573;60;-44;cebe38
97;AAAA-1037;0000-00-00;00:22:12.641;;70;-44;791407
98;AAAA-1002;0000-00-00;00:22:13.610;;72;-47;1def5a
99;AAAA-1051;0000-00-00;00:22:15.022;;102;-58;12e699
100;AABM-3737;0000-00-00;00:22:15.590;;52;-47;191216
101;191;0000-00-00;00:22:16.733;11573;48;-46;ebf725
102;250;0000-00-00;00:22:16.781;11573;100;-41;b5d04d
103;274;0000-00-00;00:22:17.881;11573;52;-38;bae54c
104;169;0000-00-00;00:22:18.512;11573;138;-36;d1e42a
105;16;0000-00-00;00:22:19.881;11573;114;-35;1b3e1c
106;AABM-3766;0000-00-00;00:22:21.108;;66;-39;32fcaf
107;203;0000-00-00;00:22:24.761;11573;80;-37;557456
108;275;0000-00-00;00:22:29.354;11573;214;-31;9b4a7f
109;AAAA-1100;0000-00-00;00:22:37.370;;116;-38;bf7158
110;AACT-356;0000-00-00;00:22:39.952;;131;-39;b60b9d
111;AAAA-1047;0000-00-00;00:22:40.942;;46;-44;70c9f7
112;157;0000-00-00;00:22:41.295;11573;78;-36;6e4591
113;504;0000-00-00;00:22:44.572;11573;254;-46;454209
114;266;0000-00-00;00:22:45.117;11573;74;-46;034c29
115;AABM-3713;0000-00-00;00:22:46.053;;60;-43;648646
116;AABM-3781;0000-00-00;00:22:54.544;;100;-36;4715d0
117;AACT-322;0000-00-00;00:22:55.523;;132;-41;6d7ba6
118;54;0000-00-00;00:22:59.472;11573;104;-39;a628dd
119;AAAA-1095;0000-00-00;00:23:08.172;;73;-41;c98746
120;40;0000-00-00;00:23:08.613;11573;84;-46;bf2036
121;AABM-3765;0000-00-00;00:23:17.375;;90;-44;54c5ec
122;253;0000-00-00;00:23:23.106;11573;90;-39;c04327
123;AABM-3750;0000-00-00;00:23:23.184;;98;-47;d347e4
124;AAAA-468;0000-00-00;00:23:29.739;;82;-39;0e1571
125;65;0000-00-00;00:23:32.825;11573;103;-37;c208c6
126;AABM-3769;0000-00-00;00:23:37.028;;140;-46;9ae816
127;AABM-3712;0000-00-00;00:23:38.898;;90;-47;519f73
128;AABM-3749;0000-00-00;00:23:40.986;;126;-37;20d1cd
129;AAAA-1039;0000-00-00;00:24:00.761;;146;-48;9dbcb9
130;AABM-3748;0000-00-00;00:24:47.633;;93;-58;d5d944
131;22;0000-00-00;00:25:22.411;11573;118;-32;c9dd95
