Place,First Name,Surname,Time,+ or -,Amount
1,Nick ,Walsh ,28:27,-,0:01
2,Jenny ,Buchanan,27:13,-,0:08
3,John ,Brewin,28:40,+,0:12
4,Brian,Watson,24:00,-,0:18
5,Ben ,McDermid,24:34,-,0:21
6,Chris,McCormack,24:57,-,0:22
7,Michael ,Bieleny ,22:43,+,0:22
8,David ,Heislers,27:18,-,0:39
9,Todd ,Foster,27:55,+,0:40
10,Michael ,Hogan,25:39,-,0:41
11,Alison ,Cartner,28:16,-,0:42
12,Tracy ,Wilson,25:53,-,0:52
13,Ryan,Brooke,26:03,-,0:54
14,David ,Tarrant,25:53,-,0:54
15,Shayne ,Rushan,31:25,+,1:01
16,Justin,Lee,27:22,-,1:06
17,Janet ,Hodnett,30:45,-,1:17
18,Brad ,Russell,28:36,-,1:24
19,Laura,Terry,30:13,+,1:45
20,Steve ,Brereton ,27:57,+,2:02
21,Angela,Slattery,35:27,+,2:25
22,Liz ,Foster,35:28,+,3:27
23,Gavin ,Fiedler,29:52,-,7:08
