PLACE,FIRST,LAST,RACES,POINTS
1,Max,Rowe,7,169
2,Philip,Shambrook,6,157
3,Tullie,Rowe,8,147
4,Connor,Bedson,6,121
5,Charlotte,Murphy,5,119
6,Floyd,Cartner,7,113
7,Tanner,Fear,5,102
8,Bridie,Blake-Burrows,7,101
9,Lachlan,Feuerherdt,6,95
10,Beatrice,Lonsdale,8,92
11,Luke,Creer,4,91
12,Melissa,Douglas,5,85
13,Tyler,Wilkie,4,83
14,Bec,Lacy,5,81
15,Mathilda,Stewart,4,80
16,Phoebe,Lonsdale,5,80
17,Toby,McCaig,4,77
18,Jazlin,Fear,5,73
19,Abbey,Cartner,6,73
20,Genevieve,Draper,3,70
21,Janine,Butcher,3,70
22,Renelle,McManus,5,67
23,John,Robinson,6,64
24,Leah,Cripps,3,64
25,Ebony,Butcher,3,58
26,Tim,Creer,4,58
27,Bec,Woodward,4,56
28,Tanya,Fleming,4,55
29,Phoebe,Martin,3,51
30,Chloe,Green,3,48
31,Wil,McCaig,2,47
32,Scott,Butcher,2,40
33,Trent,Bayliss,3,40
34,Will,deVries,2,40
35,Lynley,McDonald,4,40
36,Isabelle,Draper,2,40
37,Aida,Escall,2,38
38,Avery,McDermid,2,35
39,Lesley,Fabian,3,35
40,Travis,Edwards,3,34
41,Megan,McDonald,2,31
42,William,Robinson,2,30
43,Greg,Toomey,2,28
44,David,Cripps,3,26
45,Lou,Bray,1,26
46,Ben,McDermid,2,25
47,Gus,Edwards,2,25
48,Hamish,Draper,2,24
49,Rebecca,Ashman,3,24
50,Louise,Toomey,2,24
51,Lachlan,Edwards,2,23
52,Emerson,Sim,2,19
53,Matthew,Saxon,2,19
54,Oliver,Sanderson,2,18
55,Mark,Saxon,3,17
56,Danny,Burgess,3,17
57,Amelia,Mitchell,3,12
58,Will,Murphy,1,11
59,Harry,Seaward,1,9
60,Gus,MacGregor,1,0
61,Craig,Feuerherdt,1,0
62,Anna,Christen,1,0
63,Finn,MacGregor,1,0
64,Kim,Carter,1,0
65,Kathleen,Pleasants,1,0
66,Jonty,McDermid,1,0
67,Natasha,Dean,1,0
68,Gabrielle,Dean,1,0
69,Amy,Sim,1,0
70,Lewis,Lonsdale,1,0
71,Craig,Green,1,0
72,Justin,Lee,1,0
73,Harry,Cripps,1,0
74,Trinity,Sanderson,1,0
75,Angus,McPherson,1,0
76,Kevin,deVries,1,0
77,Anne,McIntosh,1,0
78,Fiona,Dangerfield,1,0
79,Beth,Lavery,1,0
80,Gavin,Fiedler,1,0
81,Matthew,Creer,1,0
82,Jason,Sim,1,0
83,Alistair,Stewart,1,0
84,Kyle,Butcher,1,0
