Place,First Name,Surname,Club,Time
1,Meredith,Cook,BYM,29.08
2,Ilka,Barr,INV,32.03
3,Ingrid,Douglass,BUAC,34.19
4,Shann,Anderson,BUAC,34.29
5,Alison,Cartner,BUAC,35.02
6,Jaclyn,Munge,BUAC,35.26
7,Felicity,Harrop,BYM,36.03
8,Madeliene,Evely,BUAC,36.15
9,Leanne,Healy,BYM,36.37
10,Lauren,Corvino,BYM,36.54
11,Nikita,Stiberc,INV,38.02
12,Gabby,Walsh,BUAC,39.36
13,Melinda,Gillingham,BUAC,40.25
14,Leah,Cripps,EGWK,43.34
