Place,First Name,Surname,Time,+ or -,Amount
1,Brett ,Houlden,34:22,-,01:38
2,Gaby ,Walsh,34:56,-,1:18
3,Melissa ,Douglas,38:40,-,1:21
4,Steve ,Corrie,28:21,-,0:59
5,Michael ,Bieleny ,25:27,-,0:46
6,Jennifer ,Jones,33:16,-,0:40
7,Tracy ,Wilson,28:42,-,0:38
8,Simon,Austin,26:30,-,0:32
9,Chris,McCormack,28:26,-,0:19
10,Alan ,Buchanan,30:03,+,0:02
11,David ,Tarrant,28:19,+,0:08
12,Justin,Lee,31:12,+,0:09
13,Scott ,Roberts,34:39,+,0:23
14,Erica,Wilkinson,29:41,+,0:21
15,Gavin ,Fiedler,29:45,+,0:25
16,Gary ,Crouch ,30:36,+,0:42
17,John ,Brewin,35:16,+,0:46
18,David ,Heislers,33:00,+,0:48
19,Ben ,McDermid,26:57,+,1:11
20,Shann,Anderson,39:20,+,1:09
21,Aaron,Anderson,30:33,+,1:13
22,Shayne ,Rushan,37:07,+,1:49
23,Len,Nally,35:41,+,1:52
24,Janet ,Hodnett,36:26,+,1:56
25,Jim,Russell,28:23,+,2:10
26,David ,Ottrey,31:54,+,3:50
