Place,First Name,Surname,Time,+ or -,Amount
1,Maree,Reid,28:17,-,4:13
2,Holly,Randall,22:32,-,3:43
3,Justin ,O'Brien,24:04,-,3:26
4,Maree,Platt,27:54,-,3:21
5,Frances,Walsh,26:54,-,3:06
6,Catherine,Pethybridge,29:49,-,2:41
7,Marianne,Richardson,31:19,-,2:26
8,Penny,Spencer,25:21,-,2:09
9,Julia,Perez,29:07,-,2:08
10,Tracy ,Wilson,19:41,-,1:59
11,Noah,Walsh,27:04,-,1:41
12,Ryan,Brooke,21:10,-,1:35
13,Maddy,Evely,23:36,-,1:24
14,Kim,Townrow,23:53,-,1:07
15,Laura,Terry,24:55,-,1:05
16,David ,Heislers,22:35,-,1:05
17,Craig,Fruerherdt,19:46,-,1:09
18,Georgie,Lanyon,21:29,-,1:01
19,Andrew ,Buchanan,16:02,-,1:03
20,Owen,Davies,22:04,-,1:01
21,Troy,Cartner,19:06,-,0:54
22,Jeff,Pethybridge,20:38,-,0:57
23,Alison ,Cartner,23:05,-,0:50
24,Shann,Anderson,27:36,-,0:49
25,Rebecca,Tweed,19:40,-,0:45
26,Todd ,Foster,21:53,-,0:42
27,Leon ,Hamond ,21:16,-,0:34
28,Michael ,Hogan,21:18,-,0:37
29,Shayne ,Rushan,24:41,-,0:34
30,Janet ,Hodnett,25:23,-,0:27
31,Justin,Lee,22:14,-,0:26
32,John ,Doering,29:46,-,0:24
33,Aaron,Anderson,21:29,-,0:26
34,Conor,Cunningham,23:20,-,0:25
35,Michael ,Bieleny ,17:55,-,0:15
36,Joanne,Weatherhead,29:49,-,0:11
37,Emma,Burke,26:00,-,0:15
38,Gary ,Crouch ,22:42,-,0:13
39,Angela,Slattery,26:43,-,0:07
40,Simon,Austin,18:56,-,0:09
41,Jenny ,Buchanan,22:30,+,0:05
42,Jason ,Fletcher,19:24,+,0:09
43,Jennifer ,Jones,26:21,+,0:16
44,Matthew,Heislers,21:36,+,0:21
45,Andrew ,Evely,25:53,+,0:53
46,Gabby ,Walsh,27:45,+,0:50
47,Julie ,Hogan,34:09,+,0:54
48,Jason ,Sim,19:27,+,1:02
49,Fraser,Walsh,19:52,+,1:07
50,Gavin ,Fiedler,22:35,+,1:15
51,Pam ,Holland,36:19,+,1:19
52,Jodie,Scoble,30:36,+,1:51
53,Scott ,Roberts,25:56,+,2:01
54,Brad ,Russell,27:59,+,2:09
