Place,First,Last,NET Time,Pace,Diff
1,Isabella,Draper,0:20:08.1,05:51,-03:53.3
2,Amelia,Mitchell,0:23:51.1,06:56,-02:10.7
3,Tully,Cripps,0:20:16.6,05:54,-01:54.7
4,Michelle,Scott,0:19:48.2,05:45,-01:21.2
5,Eiliyah,Daneen,0:19:42.2,05:44,-01:20.3
6,Tim,Creer,0:13:24.3,03:54,-01:19.8
7,Kelvin,Niblett,0:15:37.2,04:32,-00:57.0
8,Hamish,Draper,0:21:03.5,06:07,-00:54.0
9,Luke,Creer,0:16:59.4,04:56,-00:47.0
10,Bec,Woodward,0:21:39.6,06:18,-00:38.6
11,Sonya,Walker,0:16:44.0,04:52,-00:38.3
12,Lynley,McDonald,0:21:27.1,06:14,-00:37.3
13,Thom,Hosking,0:21:41.7,06:18,-00:33.0
14,Floyd,Cartner,0:12:51.3,03:44,-00:19.9
15,Kane,Safstrom,0:14:54.6,04:20,-00:17.0
16,Phoebe,Lonsdale,0:14:21.9,04:11,-00:11.9
17,Mason,Woodward,0:14:36.4,04:15,-00:07.7
18,Beatrice,Lonsdale,0:15:25.6,04:29,-00:06.6
19,Harry,Cripps,0:18:56.3,05:30,-00:05.8
20,Mumtaz,Hussain,0:16:02.4,04:40,-00:04.2
21,Tammy,Fear,0:19:43.5,05:44,-00:03.3
22,Tullie,Rowe,0:13:41.6,03:59,-00:04.0
23,Kim,Carter,0:20:40.4,06:01,+00:02.0
24,Max,Rowe,0:13:48.2,04:01,+00:02.6
25,Lewis,Lonsdale,0:16:07.0,04:41,+00:17.6
26,Tanner,Fear,0:14:58.6,04:21,+00:21.4
27,Anthony,Byrne,0:16:51.2,04:54,+00:34.2
28,Andrea,Smith,0:16:32.5,04:49,+00:53.4
29,Rebecca,Kirkby,0:16:10.2,04:42,+01:12.4
30,Ebony,Woodward,0:17:54.4,05:12,+01:13.4
31,Genevieve,Draper,0:26:09.6,07:36,+01:30.4
32,Harry,Scott,0:20:37.2,06:00,+01:35.1
33,Megan,McDonald,0:21:42.9,06:19,+02:03.0
34,Jazlin,Fear,0:17:51.6,05:12,+02:05.6
35,Ross,Douglas,0:20:00.0,05:49,+02:44.6
36,David,Cripps,0:17:45.8,05:10,+02:48.0
37,Leah,Cripps,0:21:53.1,06:22,+03:04.8
NEW,Joshua,Condon,0:18:42.9,05:26
NEW,Olivia,Douglas,0:19:29.3,05:40
NEW,River,Baker,0:15:55.0,04:38
NEW,Madeline,Dole,0:18:39.9,05:26
NEW,Elijah,Willits,0:17:47.6,05:10
NEW,Noah,Willits,0:15:54.1,04:37
NEW,Lyn,Sebire,0:21:58.2,06:23
NEW,Janelle,Willits,0:17:49.8,05:11
