PLACE,FIRST,LAST,RACES,POINTS
1,Liz,Foster,4,157
2,Chris,Giffin,4,146
3,Mumtaz,Hussain,4,146
4,Janelle,Giffin,4,132
5,Jodie,McLeod,4,132
6,Craig,Green,3,125
7,Mel,Debnam-Smith,3,119
8,Jack,Milligan,3,119
9,Jason,Anderton,4,118
10,David,Cripps,3,111
11,Darren,Rowe,3,111
12,Nick,O'Meara,4,109
13,Scott,McLeod,4,108
14,Sarah,Jalim,3,106
15,Kelvin,Niblett,4,106
16,Alison,Cartner,4,99
17,Sue,Taylor,4,99
18,Kevin,de Vries,3,98
19,Damien,Roberts,4,86
20,Rik,McCaig,2,84
21,Jon,McIntosh,3,84
22,David,Heislers,3,81
23,Leah,Cripps,3,79
24,Garry,Marwood,2,79
25,Todd,Foster,4,77
26,David,Lonsdale,4,76
27,Brian,Watson,2,75
28,Michael,Farr,3,75
29,Andrew,Hosking,3,73
30,Melissa,Wilkie,2,73
31,Trinity,Sanderson,2,72
32,Sue,Anderton,3,70
33,Greg,Carter,3,67
34,Lisa,Wilkinson,2,61
35,Melissa,Douglas,1,60
36,Brad,Russell,3,60
37,William,Robinson,2,60
38,Alan,Buchanan,4,55
39,Renelle,McManus,2,55
40,David,Burrow,1,55
41,Molly,Butler,2,55
42,Maree,Platt,2,47
43,Justine,Rowe,3,47
44,Ross,Douglas,3,46
45,Tammy,Fear,2,45
46,Janis,Bull,2,45
47,Shayne,Rushan,3,42
48,Ben,McDermid,2,42
49,Jayson,Carter,2,42
50,Andrew,Creer,2,40
51,Deanna,Marshall,2,40
52,Erin,Williams,2,39
53,Kathleen,Pleasants,3,39
54,Alan,East,2,38
55,Jennifer,Lee,2,37
56,Janet,Hodnett,1,37
57,Jay,Sanderson,1,37
58,Michael,Bieleny,2,35
59,Gavin,Fiedler,1,34
60,Stephen,van Rees,1,33
61,Joanne,Russell,2,32
62,Rebecca,Wilkinson,1,31
63,James,Trew,2,30
64,Charles,Chambers,1,27
65,Danny,Burgess,2,27
66,Travis,Edwards,1,25
67,Tim,Lauder,1,23
68,Justin,Lee,2,19
69,Jeremy,Draper,2,19
70,John,Robinson,2,17
71,Nigel,Preston,1,14
72,Alistair,Stewart,1,12
73,Aida,Escall,1,0
74,Floyd,Cartner,1,0
75,Andrea,Smith,1,0
76,Anne,McIntosh,1,0
77,Leigh,Draper,1,0
78,Josh,Kent,1,0
79,Adrian,McMahon,1,0
80,Karl,Stoltz,1,0
