PLACE,FIRST,LAST,RACES,POINTS
1,Charlotte,Murphy,4,101
2,Max,Rowe,4,95
3,Connor,Bedson,4,90
4,Tullie,Rowe,5,86
5,Toby,McCaig,4,77
6,Melissa,Douglas,4,77
7,Janine,Butcher,3,70
8,Bec,Lacy,4,68
9,Floyd,Cartner,4,66
10,Bridie,Blake-Burrows,4,64
11,Philip,Shambrook,3,63
12,Tyler,Wilkie,3,63
13,Lachlan,Feuerherdt,4,62
14,Ebony,Butcher,3,58
15,John,Robinson,5,56
16,Luke,Creer,2,53
17,Renelle,McManus,4,52
18,Phoebe,Martin,3,51
19,Beatrice,Lonsdale,5,49
20,Phoebe,Lonsdale,3,48
21,Abbey,Cartner,4,46
22,Bec,Woodward,2,40
23,Scott,Butcher,2,40
24,Trent,Bayliss,3,40
25,Avery,McDermid,2,35
26,Megan,McDonald,2,31
27,Tim,Creer,2,31
28,William,Robinson,2,30
29,Lynley,McDonald,3,30
30,Mathilda,Stewart,2,30
31,Leah,Cripps,2,29
32,Greg,Toomey,2,28
33,Lou,Bray,1,26
34,Wil,McCaig,1,26
35,Chloe,Green,2,26
36,Ben,McDermid,2,25
37,Tanner,Fear,2,25
38,Lesley,Fabian,2,24
39,Louise,Toomey,2,24
40,Rebecca,Ashman,3,24
41,Jazlin,Fear,2,21
42,Emerson,Sim,2,19
43,Oliver,Sanderson,2,18
44,Aida,Escall,1,15
45,David,Cripps,2,14
46,Mark,Saxon,2,13
47,Will,Murphy,1,11
48,Matthew,Saxon,1,11
49,Hamish,Draper,1,0
50,Isabelle,Draper,1,0
51,Danny,Burgess,1,0
52,Will,deVries,1,0
53,Amy,Sim,1,0
54,Lachlan,Edwards,1,0
55,Matthew,Creer,1,0
56,Gavin,Fiedler,1,0
57,Amelia,Mitchell,1,0
58,Trinity,Sanderson,1,0
59,Tanya,Fleming,1,0
60,Genevieve,Draper,1,0
61,Angus,McPherson,1,0
62,Jonty,McDermid,1,0
63,Kathleen,Pleasants,1,0
64,Gus,MacGregor,1,0
65,Justin,Lee,1,0
66,Kyle,Butcher,1,0
67,Jason,Sim,1,0
68,Craig,Feuerherdt,1,0
69,Natasha,Dean,1,0
70,Lewis,Lonsdale,1,0
71,Gabrielle,Dean,1,0
72,Kevin,deVries,1,0
73,Craig,Green,1,0
74,Fiona,Dangerfield,1,0
75,Harry,Cripps,1,0
76,Travis,Edwards,1,0
