Place      ,First Name ,Surname    ,Club       ,Time       ,min/km     
1          ,Melissa    ,Douglas    ,UNI        ,1:15:47    ,5:25       
2          ,Carissa    ,Kearns     ,INV        ,1:18:26    ,5:36       
