Place,First Name,Surname,Time,+ or -,Amount
1,Scott,Scarlet,23:14,-,4:04
2,Lesley,Fabian,24:01,-,0:53
3,David,Lonsdale,17:16,-,0:04
4,Tullie,Rowe,16:18,+,0:42
5,Matthew,Saxon,17:12,+,0:45
6,Will,McCaig,16:15,+,0:47
7,Melissa,Douglas,17:02,+,0:50
8,Michelle,Bieleny,23:52,+,1:26
9,Tracie,Gleisner,18:47,+,1:27
10,Amy,Sim,21:53,+,1:32
11,Fiona,Dangerfield,22:51,+,1:51
12,Beatrice,Lonsdale,18:38,+,1:57
13,Emerson,Sim,21:25,+,2:31
14,Tyler,Wilkie,23:30,+,2:48
15,Max,Rowe,19:34,+,2:53
16,Phoebe,Lonsdale,22:46,+,3:02
17,Sam,Pitson,22:41,+,3:29
18,Harrison,Pitson,25:46,+,3:34
