Place,First Name,Surname,Time
1,Rachel,Thomas,14:02
2,Joel,Gundry,12:41
3,Max,Vlaeminck,12:42
4,Blaze,Houlden,14:34
5,Isabella,Douglass,18:36
6,Kevin,Perez,14:08
7,Lily,Currie,15:21
8,Rielly,Walsh,14:45
9,Tom ,Houlden,11:49
10,Bailey,Evans,11:51
11,Leila ,Bieleny,13:12
12,Will,Hogan,12:15
13,Liz ,Foster,14:26
14,Sam,Rose,14:23
15,Ruby ,Walsh,15:56
16,Xavier,Walsh,13:27
17,Morgan,Dunn,17:50
18,Todd,Foster,13:02
19,Jake ,Russell,12:41
20,Tom ,Russell,12:42
21,Callum ,Moloney,15:14
22,Ella,Wright,16:31
23,Carly ,Moloney,16:14
24,Kyle,Gellatly,17:06
25,Noah,Walsh,19:10
