Place,First Name,Surname,Time,+ or -,Amount
1,Emerson ,Sim,4:06,-,2:54
2,Kevin ,Wheatley,4:35,-,1:55
3,Joshua,Feuerherdt,5:24,-,1:47
4,Neve,Coleman,5:18,-,1:22
5,Jordan,Wheatley,4:24,-,1:16
6,Joshua,Kelly,4:55,-,1:20
7,Luke,Feuerherdt,3:59,-,1:14
8,Lachlan ,Feuerherdt,3:40,-,1:07
9,Avery,McDermid,5:21,-,1:07
10,Moira,Coleman,5:01,-,1:09
11,Will,Gleisner,4:22,-,1:08
12,Max,Rowe,3:43,-,1:05
13,Leila,Padgham,3:44,-,1:06
14,Katelyn ,Kelly,5:00,-,1:05
15,Lucinda ,Terry,4:31,-,1:03
16,Harrison,Kelly,3:44,-,0:54
17,Phoebe,Lonsdale,4:22,-,0:48
18,Tom,Coleman,4:13,-,0:45
19,Floyd ,Cartner,3:27,-,0:43
20,Jesse,Delves,3:47,-,0:48
21,Oscar,Terry,4:18,-,0:43
22,Imogen,Douglass,6:54,+,1:12
