Place,First Name,Surname,Time,+ or -,Amount
1,David,Lonsdale,18:55,-,4:45
2,Peter,Noble,20:53,-,3:07
3,Cameron,Turnbill,17:41,-,2:19
4,Ella,Wright,19:58,-,1:38
5,Shann,Anderson,20:23,-,1:13
6,Scott,Roberts,18:04,-,0:16
7,Laura ,Terry,21:15,+,0:03
8,Steffany,Roberts,18:36,+,0:08
9,Jack,Cripps,18:59,+,0:27
10,Max,Pearse,18:02,+,0:54
