PLACE,FIRST,LAST,TIME,PACE,CLUB
1,Mason,Woodward,0:04:18.9,04:18.9,UNI
2,Lewis,Lonsdale,0:04:20.8,04:20.8,UNI
3,Lachlan,Feuerherdt,0:04:30.5,04:30.5,UNI
4,Luke,Feuerherdt,0:04:38.9,04:38.9,UNI
5,Levi,Bowe,0:04:54.9,04:54.9,SOUTH BENDIGO
6,Harry,Cripps,0:05:46.4,05:46.4,UNI
