Place,Firstname,Surname,Time,+/-,By
1,Tom ,Meharry,4:44,-,3:36
2,Madeline,Theobold,3:38,-,2:01
3,Sam ,Rose ,3:39,-,1:54
4,Imogen ,Douglass,5:10,-,1:34
5,Blaze,Houlden,4:22,-,1:37
6,Tilley,Rose ,4:31,-,1:28
7,Leo ,Hams ,5:25,-,1:19
8,Meg ,McCarthy,5:42,-,1:04
9,Zac ,Walsh,5:16,-,0:58
10,Lachlan ,Walsh,5:00,-,0:50
11,Xavier ,Walsh,3:21,-,0:55
12,Abbey,McCarthy,4:13,-,0:54
13,Bailey ,Evans,3:16,-,0:43
14,Teddrah ,Thorpe ,5:18,-,0:42
15,Dane ,Heiden,3:30,-,0:40
16,Olivia ,Houlden,4:32,-,0:41
17,Bronte ,Walsh,4:32,-,0:42
18,Noah ,Walsh,4:25,-,0:42
19,Rielly ,Walsh,4:02,-,0:27
20,Ava,Perez,4:23,-,0:33
21,Michaela,Meharry ,4:35,-,0:26
22,Matisse ,Perez,4:37,-,0:25
23,Nelly ,Rose ,6:31,-,0:16
