Place,Name,Surname,Club,Time
1,Pat ,Kenny,BUAC,1:19:50
2,Simon,Austin,BUAC,1:22:05
3,Ross,McPhee,"",1:22:51
4,David ,Tarrant,BUAC,1:26:33
5,Brian ,Watson,BUAC,1:29:25
6,Ben ,Sexton,BUAC,1:36:09
7,Ryan ,Brook,BUAC,1:37:01
8,Peter ,Noble,BUAC,1:38:13
9,Ben ,Goode,BYM,1:38:53
10,Matt,Constable,"",1:50:11
