Place,First Name,Surname,Club,Time,min/km
1,Floyd,Cartner,UNI,4:12,4:12
2,Carissa,Brook,UNI,4:28,4:28
3,Kaidyn,Tucker,UNI,4:47,4:47
4,Lachlan,Feuerherdt,UNI,5:02,5:02
5,Luke,Feuerherdt,UNI,5:38,5:38
6,Albert ,Cordell,UNI,5:45,5:45
7,Lucy,Terry,UNI,5:52,5:52
8,Layla,Day,UNI,5:52,5:52
9,Oscar,Terry,UNI,6:06,6:06
10,Josh,Feuerherdt,UNI,7:11,7:11
