Place,Member,First,Last,Start,Pace,Est Time
1,1005,Ann-Marie,Wangdi,00:10,07:59,0:47:54.0
2,1028,Mel,Debham,00:10,07:59,0:47:54.0
3,3748,Amelia,Mitchell,00:10,07:59,0:47:54.0
4,3750,Genevieve,Draper,00:10,07:59,0:47:54.0
5,3781,Hamish,Draper,00:10,07:59,0:47:54.0
6,39,Melissa,Douglas,07:30,06:45,0:40:30.0
7,1069,Julie,Marr,07:30,06:45,0:40:30.0
8,1070,Thomas,Lee,07:40,06:43,0:40:18.0
9,2,Alan,East,08:00,06:40,0:40:00.0
10,3741,Kim,Carter,08:10,06:39,0:39:54.0
11,201,Beatrice,Lonsdale,08:10,06:38,0:39:48.0
12,3776,Kathleen,Pleasants,08:20,06:37,0:39:42.0
13,270,Tyler,Wilkie,09:50,06:21,0:38:06.0
14,190,Michaela,Meharry,10:00,06:20,0:38:00.0
15,100,Justine,Rowe,10:50,06:12,0:37:12.0
16,43,Josephine,Robinson,10:50,06:11,0:37:06.0
17,191,Phoebe,Lonsdale,10:50,06:11,0:37:06.0
18,66,Megan,McDonald,11:00,06:10,0:37:00.0
19,157,Bec,Lacy,11:50,06:01,0:36:06.0
20,197,Sue,Taylor,12:50,05:52,0:35:12.0
21,149,Janelle,Giffin,12:50,05:51,0:35:06.0
22,3732,Emma,Gibbons,13:20,05:47,0:34:42.0
23,54,Kevin,de Vries,13:20,05:46,0:34:36.0
24,87,Frances,Walsh,13:40,05:44,0:34:24.0
25,210,Fiona,Dangerfield,13:40,05:44,0:34:24.0
26,251,Beth,Lavery,14:20,05:37,0:33:42.0
27,16,Jennifer,Lee,14:20,05:36,0:33:36.0
28,111,Troy,Davis,14:30,05:35,0:33:30.0
29,1074,David,Burrow,14:30,05:35,0:33:30.0
30,364,David,Howes,14:40,05:33,0:33:18.0
31,1025,Liz,Foster,14:50,05:32,0:33:12.0
32,91,Melissa,Wilkie,14:50,05:31,0:33:06.0
33,52,Leah,Cripps,15:10,05:28,0:32:48.0
34,3777,Alistair,Stewart,15:10,05:28,0:32:48.0
35,67,Leeza,Meharry,15:20,05:26,0:32:36.0
36,3740,Vicki,Lane,15:30,05:25,0:32:30.0
37,299,Jay,Sanderson,15:40,05:24,0:32:24.0
38,74,Maree,Platt,15:50,05:22,0:32:12.0
39,1058,Tyler,Swann,16:10,05:19,0:31:54.0
40,6,Shayne,Rushan,16:10,05:18,0:31:48.0
41,1041,Lachlan,Cherry,16:20,05:17,0:31:42.0
42,77,Brad,Russell,16:30,05:15,0:31:30.0
43,59,Tina,McBain,16:40,05:13,0:31:18.0
44,183,Janet,Hodnett,16:50,05:11,0:31:06.0
45,307,Philip,Shambrook,16:50,05:11,0:31:06.0
46,3747,Jeremy,Draper,16:50,05:11,0:31:06.0
47,13,Gavin,Fiedler,17:10,05:09,0:30:54.0
48,253,Charlotte,Murphy,17:10,05:08,0:30:48.0
49,9,Trinity,Sanderson,17:40,05:03,0:30:18.0
50,22,Ross,Douglas,17:50,05:01,0:30:06.0
51,1024,Todd,Foster,17:50,05:01,0:30:06.0
52,400,Darren,Rowe,18:00,05:00,0:30:00.0
53,1020,Mumtaz,Hussain,18:00,05:00,0:30:00.0
54,29,Alison,Cartner,18:10,04:59,0:29:54.0
55,3714,Tanner,Fear,18:40,04:53,0:29:18.0
56,34,Mathew,Creer,18:50,04:51,0:29:06.0
57,5,Jenny,Buchanan,19:00,04:50,0:29:00.0
58,60,Greg,McBain,19:10,04:48,0:28:48.0
59,3726,Clare,Montgomery,19:10,04:48,0:28:48.0
60,3735,Travis,Edwards,19:10,04:48,0:28:48.0
61,14,Lisa,Wilkinson,19:30,04:45,0:28:30.0
62,278,James,Russell,19:30,04:45,0:28:30.0
63,384,Andrew,Wilkie,20:00,04:40,0:28:00.0
64,1036,Harry,Wright,20:10,04:38,0:27:48.0
65,3,Alan,Buchanan,20:20,04:37,0:27:42.0
66,31,Charles,Chambers,20:20,04:37,0:27:42.0
67,394,Rhianna,Wik-Gamble,20:20,04:37,0:27:42.0
68,1003,Damien,Roberts,20:20,04:36,0:27:36.0
69,55,Justin,Lee,20:50,04:31,0:27:06.0
70,1057,Wes,Jenkyn,21:20,04:27,0:26:42.0
71,84,Craig,Green,21:40,04:24,0:26:24.0
72,350,David,Cripps,21:50,04:22,0:26:12.0
73,386,Danny,Burgess,22:00,04:20,0:26:00.0
74,1031,Jack,Milligan,22:20,04:16,0:25:36.0
75,1009,Nicholas,Cherry,22:30,04:15,0:25:30.0
76,49,David,Heislers,22:40,04:14,0:25:24.0
77,3730,Greg,Carter,22:40,04:13,0:25:18.0
78,88,Brian,Watson,22:50,04:12,0:25:12.0
79,65,Ben,McDermid,22:50,04:11,0:25:06.0
80,1027,Andrew,Van Agtmaal,22:50,04:11,0:25:06.0
81,308,Chris,Giffin,23:00,04:10,0:25:00.0
82,63,John,Robinson,23:10,04:09,0:24:54.0
83,94,David,Lonsdale,23:10,04:08,0:24:48.0
84,15,Rebecca,Wilkinson,23:20,04:07,0:24:42.0
85,125,Sarah,Jalim,23:30,04:05,0:24:30.0
86,8,Rik,McCaig,23:40,04:03,0:24:18.0
87,118,Tim,Lauder,23:40,04:03,0:24:18.0
88,1034,Garry,Marwood,23:50,04:02,0:24:12.0
89,1043,Michael,Gibbons,23:50,04:02,0:24:12.0
90,62,Lee,McCullagh,24:10,03:58,0:23:48.0
91,33,Andrew,Creer,24:20,03:56,0:23:36.0
92,48,Matthew,Heislers,24:40,03:53,0:23:18.0
93,1023,Matthew,Schepisi,24:50,03:52,0:23:12.0
94,42,Craig,Feuerherdt,25:10,03:49,0:22:54.0
95,219,Wil,McCaig,25:10,03:48,0:22:48.0
96,1061,Tarli,Bird,25:10,03:48,0:22:48.0
97,1022,Ben,Stolz,25:20,03:46,0:22:36.0
98,3739,Stephen,van Rees,25:50,03:41,0:22:06.0
99,1056,Kye,Jenkyn,26:30,03:35,0:21:30.0
100,3701,Nigel,Preston,27:20,03:27,0:20:42.0
101,27,Andrew,Buchanan,29:00,03:10,0:19:00.0
