Place,Member,First,Last,Start,Pace,Est Time
1,3782,Owen,Draper,00:00,07:59,0:23:57.0
2,3748,Amelia,Mitchell,01:20,07:34,0:22:42.0
3,1038,Xavier,Marwood,01:50,07:24,0:22:12.0
4,44,Geoffrey,Robinson,02:10,07:17,0:21:51.0
5,3750,Genevieve,Draper,02:50,07:04,0:21:12.0
6,3781,Hamish,Draper,03:30,06:50,0:20:30.0
7,3720,Bec,Woodward,04:30,06:29,0:19:27.0
8,3776,Kathleen,Pleasants,04:40,06:28,0:19:24.0
9,356,Lynley,McDonald,04:40,06:25,0:19:15.0
10,1039,Melinda,Marwood,05:10,06:18,0:18:54.0
11,281,Will,de Vries,05:30,06:09,0:18:27.0
12,1049,Georgie,Gibbons,05:30,06:09,0:18:27.0
13,100,Justine,Rowe,05:40,06:07,0:18:21.0
14,1019,Christopher,Epworth,05:50,06:02,0:18:06.0
15,3729,Fiona,Preston,06:00,06:01,0:18:03.0
16,3741,Kim,Carter,06:00,06:00,0:18:00.0
17,50,Harry,Cripps,06:10,05:57,0:17:51.0
18,98,Tanya,Fleming,06:20,05:54,0:17:42.0
19,225,Lesley,Fabian,06:20,05:54,0:17:42.0
20,1060,William,Trew,06:20,05:54,0:17:42.0
21,149,Janelle,Giffin,06:30,05:51,0:17:33.0
22,277,Luke,Feuerherdt,06:30,05:49,0:17:27.0
23,157,Bec,Lacy,06:40,05:45,0:17:15.0
24,40,Aida,Escall,06:50,05:44,0:17:12.0
25,66,Megan,McDonald,06:50,05:43,0:17:09.0
26,1002,Tammy,Fear,07:10,05:37,0:16:51.0
27,1063,Will,Trewick,07:10,05:37,0:16:51.0
28,3783,Zacch,Martin,07:20,05:34,0:16:42.0
29,1033,Sal,Ekanayake,07:20,05:32,0:16:36.0
30,43,Josephine,Robinson,07:30,05:31,0:16:33.0
31,52,Leah,Cripps,07:40,05:28,0:16:24.0
32,220,Ella,Meharry,07:40,05:25,0:16:15.0
33,1017,Scott,Broad,07:40,05:25,0:16:15.0
34,1015,Miller,Armstrong,07:50,05:24,0:16:12.0
35,16,Jennifer,Lee,08:00,05:21,0:16:03.0
36,54,Kevin,de Vries,08:00,05:20,0:16:00.0
37,252,Jasmine,Murphy,08:00,05:20,0:16:00.0
38,1016,Noah,Armstrong,08:30,05:11,0:15:33.0
39,195,Luke,Creer,08:30,05:10,0:15:30.0
40,1030,Ella,Smith,08:30,05:10,0:15:30.0
41,1058,Tyler,Swann,08:30,05:09,0:15:27.0
42,360,Phoebe,Martin,08:40,05:07,0:15:21.0
43,3715,Chloe,Green,08:40,05:07,0:15:21.0
44,1012,Danny,Breen,08:40,05:06,0:15:18.0
45,305,Jonty,McDermid,08:50,05:04,0:15:12.0
46,22,Ross,Douglas,09:00,05:01,0:15:03.0
47,400,Darren,Rowe,09:00,05:00,0:15:00.0
48,13,Gavin,Fiedler,09:00,04:59,0:14:57.0
49,270,Tyler,Wilkie,09:10,04:58,0:14:54.0
50,29,Alison,Cartner,09:30,04:49,0:14:27.0
51,3735,Travis,Edwards,09:40,04:48,0:14:24.0
52,39,Melissa,Douglas,09:40,04:47,0:14:21.0
53,292,Jye,Ekanayake,09:40,04:45,0:14:15.0
54,1037,Ethan,Marwood,09:50,04:44,0:14:12.0
55,1020,Mumtaz,Hussain,09:50,04:43,0:14:09.0
56,274,Avery,McDermid,09:50,04:42,0:14:06.0
57,266,Lewis,Lonsdale,10:00,04:41,0:14:03.0
58,272,Abbey,Cartner,10:00,04:41,0:14:03.0
59,241,Andrea,Smith,10:10,04:38,0:13:54.0
60,1013,Jonte,Breen,10:10,04:36,0:13:48.0
61,147,Lachlan,Feuerherdt,10:20,04:33,0:13:39.0
62,55,Justin,Lee,10:30,04:31,0:13:33.0
63,201,Beatrice,Lonsdale,10:30,04:31,0:13:33.0
64,254,William,Robinson,10:30,04:31,0:13:33.0
65,1051,Kane,Safstrom,10:30,04:30,0:13:30.0
66,3713,Jazlin,Fear,10:30,04:29,0:13:27.0
67,244,Jaron,Ekanayake,10:40,04:27,0:13:21.0
68,3717,Lachlan,Edwards,10:40,04:27,0:13:21.0
69,191,Phoebe,Lonsdale,10:50,04:23,0:13:09.0
70,350,David,Cripps,10:50,04:22,0:13:06.0
71,253,Charlotte,Murphy,11:00,04:20,0:13:00.0
72,105,Toby,McCaig,11:10,04:17,0:12:51.0
73,189,Tim,Creer,11:10,04:17,0:12:51.0
74,3738,Mason,Woodward,11:10,04:17,0:12:51.0
75,3714,Tanner,Fear,11:20,04:15,0:12:45.0
76,3730,Greg,Carter,11:20,04:13,0:12:39.0
77,1029,James,Trew,11:30,04:10,0:12:30.0
78,63,John,Robinson,11:30,04:09,0:12:27.0
79,169,Floyd,Cartner,11:40,04:08,0:12:24.0
80,203,Tullie,Rowe,12:00,04:00,0:12:00.0
81,275,Max,Rowe,12:00,04:00,0:12:00.0
82,308,Chris,Giffin,12:00,03:59,0:11:57.0
83,33,Andrew,Creer,12:10,03:56,0:11:48.0
84,1023,Matthew,Schepisi,12:20,03:52,0:11:36.0
85,65,Ben,McDermid,12:30,03:51,0:11:33.0
86,171,Oliver,Sanderson,12:30,03:51,0:11:33.0
87,1031,Jack,Milligan,12:30,03:50,0:11:30.0
88,1061,Tarli,Bird,12:40,03:48,0:11:24.0
89,1036,Harry,Wright,12:40,03:46,0:11:18.0
