order,tag no.,first name,surname,start,est. pace,est. time
1,64,Lisa,McDermid,00:00,7:00,44:48
2,173,Melanie,Cuzzillo,00:40,6:54,44:10
3,233,Sue,Condon,01:40,6:44,43:06
4,2,Alan,East,02:20,6:38,42:27
5,37,John,Doering,03:50,6:24,40:58
6,69,Jarrah,O'Shea,04:00,6:23,40:51
7,21,Michelle,Bieleny,04:10,6:21,40:38
8,66,Megan,McDonald,05:50,6:06,39:02
9,100,Justine,Rowe,05:50,6:05,38:56
10,111,Troy,Davis,06:30,5:59,38:18
11,186,Jason,Anderton,07:30,5:50,37:20
12,56,Stacey,Lonsdale,07:40,5:48,37:07
13,197,Sue,Taylor,08:00,5:45,36:48
14,199,Shann,Anderson,08:00,5:45,36:48
15,11,Jane,McCaig,08:10,5:43,36:35
16,40,Aida,Escall,08:10,5:44,36:42
17,196,Kathryne,Charnas,08:10,5:43,36:35
18,72,Catherine,Pethybridge,08:30,5:40,36:16
19,98,Tanya,Fleming,09:00,5:35,35:44
20,123,Harry,Terry,09:10,5:34,35:38
21,89,Natalie,Watson,09:20,5:32,35:25
22,16,Jennifer,Lee,09:40,5:30,35:12
23,57,Adam,Henderson,09:40,5:30,35:12
24,77,Brad,Russell,09:40,5:0,35:12
25,103,Jaqueline,Kelly,10:10,5:25,34:40
26,74,Maree,Platt,10:20,5:23,34:27
27,52,Leah,Cripps,10:40,5:20,34:08
28,130,David,Pitson,10:40,5:20,34:08
29,183,Janet,Hodnet,10:50,5:18,33:55
30,68,Justin,O'Brien,11:00,5:17,33:49
31,181,Rob,Redmond,11:00,5:17,33:49
32,76,Cara,Smith,11:10,5:15,33:36
33,81,Laura,Terry,11:10,5,:15,33:36
34,132,Tracie,Gleisner,11:20,5:13,33:23
35,87,Frances,Walsh,11:30,5:12,33:17
36,6,Shayne,Rushan,12:20,5:04,32:26
37,104,Jodie,Scoble,12:20,5:05,32:32
38,180,Lauren,Hancock,12:20,5:04,32:26
39,35,Conor,Cunningham,12:30,5:03,32:19
40,91,Melissa,Wilkie,12:30,5:03,32:19
41,217,Freya,Berenyl,12:40,5:02,32:13
42,54,Kevin,deVries,12:50,5:00,32:00
43,67,Leeza,Meharry,12:50,5:00,32:00
44,113,Sam,Walker,12:50,5:00,32:00
45,127,Alison,McCullagh,12:50,4:59,31:54
46,107,Hayden,Brook,13:00,4:58,31:47
47,5,Jenny,Buchanan,13:10,4:57,31:41
48,41,Maddy,Evely,13:20,4:55,31:28
49,9,Trinity,Sanderson,13:30,4:53,31:15
50,47,Genevieve,Green,13:40,4:52,31:09
51,12,Josie,Aitken,13:50,4:50,30:56
52,59,Tina,McBain,13:50,4:50,30:56
53,39,Melissa,Douglas,14:10,4:47,30:37
54,29,Alison,Cartner,14:20,4:46,30:30
55,31,Charles,Chambers,14:20,4:45,30:24
56,124,Darren,Burgess,14:20,4:46,30:30
57,108,Eric,Hocking,14:40,4:43,30:11
58,78,Mark,Saxon,14:50,4:41,29:58
59,22,Ross,Douglas,15:00,4:39,29:46
60,45,Helen,Kavanagh,15:00,4:40,29:52
61,116,Roy,Preece,15:00,4:40,29:52
62,4,Gary,Crouch,15:20,4:37,29:33
63,34,Matthew,Creer,15:20,4:36,29:26
64,38,Cameron,Turnbull,15:20,4:36,29:26
65,90,Rory,Weightman,15:30,4:34,29:14
66,126,Tom,Russell,15:30,4:35,29:20
67,231,Paul,Seaward,15:30,4:35,29:20
68,93,Erica,Wilkinson,15:40,4:33,29:07
69,299,Jay,Sanderson,15:40,4:33,29:07
70,13,Gavin,Fiedler,15:50,4:32,29:01
71,14,Lisa,Wilkinson,15:50,4:31,28:54
72,18,Georgie,Lanyon,16:00,4:30,28:48
73,26,Ryan,Brook,16:00,4:30,28:48
74,94,David,Lonsdale,16:10,4:28,28:35
75,129,Ben,McBain,16:10,4:29,28:42
76,49,David,Heislers,16:30,4:26,28:22
77,55,Justin,Lee,16:30,4:26,28:22
78,109,Tim,Lovell,16:30,4:25,28:16
79,3,Alan,Buchanan,16:40,4:24,28:10
80,287,Michael,Gillies Smith,16:40,4:24,28:10
81,15,Rebecca,Wilkinson,16:50,4:22,27:57
82,117,Ingrid,Douglas,16:50,4:22,27:57
83,10,Lee,Bray,17:00,4,:20,27:44
84,60,Greg,McBain,17:00,4:20,27:44
85,80,Bridie,Blake-Burrows,17:00,4:21,27:50
86,96,Steve,Brereton,17:00,4:21,27:50
87,70,Els,Viester,17:10,4:19,27:38
88,75,David,Sebastian,17:20,4:18,27:31
89,65,Ben,McDermid,18:10,4:09,26:34
90,125,Sarah,Jalim,18:10,4:10,26:40
91,71,Max,Pearse,18:40,4:05,26:08
92,92,Tracey,Wilson,18:40,4:05,26:08
93,122,Stewart,Scoble,19:00,4:02,25:49
94,102,Simon,Austin,19:10,4:00,25:36
95,61,Chris,McCormack,19:20,3:58,25:23
96,73,Jeff,Pethybridge,19:20,3:59,25:30
97,95,Jason,Sim,19:20,3:59,25:30
98,51,Andrew,Hosking,19:40,3:55,25:04
99,118,Tim,Lauder,19:40,3:55,25:04
100,121,Russell,Jenkins,19:50,3:54,24:58
101,42,Craig,Feuerherdt,20:00,3:52,24:45
102,63,John,Robinson,20:00,3:53,24:51
103,88,Brian,Watson,20:30,3:48,24:19
104,33,Andrew,Creer,20:50,3:45,24:00
105,97,Adam,Fleming,20:50,3:44,23:54
106,286,Chris,Xu,21:10,3:41,23:34
107,8,Rick,McCaig,21:20,3:40,23:28
108,120,Tom,Barkmeyer,21:20,3:40,23:28
109,7,Luke,Hutchins,21:30,3:39,23:22
110,23,Michael,Bieleny,21:30,3:38,23:15
111,115,Alexander,Evans,21:30,3:38,23:15
112,285,Luke,Crameri,21:30,3:38,23:15
113,62,Lee,McCullagh,22:20,3,:31,22:30
114,46,Richard,Gleisner,22:40,3:28,22:11
115,86,Fraser,Walsh,22:40,3:27,22:05
116,48,Matthew,Heislers,22:50,3:26,21:58
117,166,David,Meade,22:50,3:26,21:58
118,27,Andrew,Buchanan,24:20,3:12,20:29
