Place,First Name,Surname,Time,+ or -,Amount
1,Otto,Ansted,5:20,-,1:55
2,Luella,Ansted,5:20,-,1:40
3,Lewis,Lonsdale,6:07,-,1:08
4,Felix,Ansted,5:59,-,1:01
5,Jacob,Buckell,3:43,-,0:47
6,Ned,Buckell,3:49,-,0:41
7,Tim,Creer,4:57,-,0:33
8,Kaidyn,Tucker,4:40,-,0:30
9,Max,Rowe,5:21,-,0:19
10,Floyd ,Cartner,4:34,-,0:01
11,Lachlan ,Feuerherdt,5:28,+,0:08
12,Eliza,Christie,6:21,+,0:11
13,Pheobe,Lonsdale,6:09,+,0:17
14,Nina,Lenard,5:24,+,0:27
15,Lucinda ,Terry,6:22,+,0:27
16,Morgan,Whatley,6:23,+,0:28
17,Aoife,Cunningham,6:37,+,0:37
18,Henry,Edwards,7:15,+,1:11
19,Oscar,Terry,7:15,+,1:11
20,Luke,Feuerherdt,8:17,+,1:17
21,Sarah,Cunningham,9:24,+,2:29
