Place,Firstname,Surname,Time,Plus or Minus,Difference
1,Bree ,Heiden,04:33,-,0:02
2,Brayden,Roberts,04:32,-,0:08
3,Stephanie,Roberts,04:14,-,0:16
4,Jake ,Russell,03:34,-,0:16
5,Rielly ,Walsh,04:11,-,0:19
6,Bronte ,Walsh,04:28,-,0:22
7,Brodie,Hartland,04:28,-,0:32
8,Matthew ,Wilkinson,04:15,-,0:35
9,Noah ,Walsh,04:16,-,1:27
