Place,First Name,Surname,Club,Time,min/km
1,Abbey,Cartner,BUAC,04:41.1,04:41.1
2,Sasha,Pearce,SOUTH,05:02.9,05:02.9
3,Maiya,Pearce,SOUTH,05:15.3,05:15.3
4,Lucy,McCaig,BUAC,05:54.2,05:54.2
5,Layla,Bolger,BUAC,06:13.1,06:13.1
6,Olivia,Douglas,BUAC,06:13.6,06:13.6
7,Poppy,Wainwright,BUAC,06:39.6,06:39.6
8,Jemma,Norton,SOUTH,07:02.6,07:02.6
9,Mietta,Watchman,HARRIERS,07:03.1,07:03.1
10,Ruby,Douglas,BUAC,08:03.0,08:03.0
11,April,Wainwright,BUAC,09:08.0,09:08.0
