Place,First Name,Surname,Time,+ or -,Amount
1,Amy,Munro,42:03,-,3:33
2,Michael ,Turner,44:06,-,2:00
3,Paul,Buncle,40:31,-,1:17
4,Kylie,Cheal,41:17,-,1:01
5,Andrew ,Creer,30:05,-,0:49
6,Genevieve,Green,36:37,-,0:45
7,Russell ,Tremayne,31:21,-,0:19
8,Andrew ,Hosking,29:42,-,0:12
9,Alison ,Cartner,35:36,-,0:07
10,Jason ,Fletcher,29:51,-,0:03
11,Michael ,Bieleny ,28:04,+,0:04
12,Leeza,Meharry,36:45,+,0:09
13,Fraser,Walsh,28:57,+,0:19
14,Richard,Gleisner,26:30,+,0:17
15,Charles,Chambers,29:41,+,0:18
16,Justin,Lee,35:26,+,0:28
17,Angela,Slattery,41:29,+,0:27
18,Rick,Jackel,34:32,+,0:28
19,Travis,Kelly,32:54,+,0:36
20,Lee ,McCullagh,29:06,+,0:36
21,Michelle,Bieleny ,48:54,+,0:46
22,Georgie,Lanyon,33:38,+,0:42
23,Melissa,Wilkie,45:27,+,1:07
24,John ,Brewin,41:14,+,1:12
25,Gary ,Crouch ,36:50,+,1:14
26,Aaron,Anderson,34:16,+,1:28
27,Nick ,Walsh ,38:22,+,1:30
28,Laura,Terry,41:08,+,1:37
29,Alan ,East,49:19,+,1:34
30,Rebecca,Tweed,32:21,+,1:42
31,John ,Doering,47:52,+,1:38
32,Conor,Cunningham,39:07,+,2:31
33,Shann,Anderson,43:31,+,2:44
34,Troy,Davis,44:30,+,2:50
35,Maree,Platt,44:39,+,2:59
36,Ryan,Brook,35:55,+,3:14
37,Shayne ,Rushan,40:03,+,3:19
38,Ingrid ,Douglass,38:17,+,3:35
39,Lisa,McDermid,49:15,+,3:39
40,Justin ,O'Brien,42:41,+,4:56
41,Holly,Randall,40:33,+,5:35
42,Brad ,Russell,45:48,+,5:39
43,Gavin ,Fiedler,40:26,+,6:52
44,Janet ,Hodnett,48:06,+,9:28
