PLACE,FIRST,LAST,TIME,PACE,CLUB
1,Yazmin,Hayes,0:11:17.2,03:45.7,SOUTH BENDIGO
2,Zahli,Drummond,0:12:20.2,04:06.7,HARRIERS
3,Bridie,Blake-Burrows,0:12:54.1,04:18.0,UNI
4,Maddison,Hooke,0:13:13.7,04:24.6,HARRIERS
5,Sara,Berg,0:13:16.3,04:25.4,SOUTH BENDIGO
6,Melissa,Douglas,0:13:40.0,04:33.3,UNI
7,Hannah,Cotter,0:13:55.4,04:38.5,SOUTH BENDIGO
8,Beatrice,Lonsdale,0:14:04.7,04:41.6,UNI
9,Charlotte,Murphy,0:14:19.3,04:46.4,UNI
10,Jazlin,Fear,0:14:23.7,04:47.9,UNI
11,Jess,Chisholm,0:14:39.4,04:53.1,EAGLEHAWK
12,Kayla,McManus,0:15:44.2,05:14.7,UNI
13,Charlotte,Dashwood,0:16:05.2,05:21.7,UNI
14,Chloe,Green,0:16:05.5,05:21.8,UNI
15,Emily,Heislers,0:16:06.6,05:22.2,EAGLEHAWK
16,Bec,Lacy,0:17:02.7,05:40.9,UNI
17,Ruth,Eadon,0:17:33.7,05:51.2,HARRIERS
18,Aida,Escall,0:17:44.5,05:54.8,UNI
19,Bec,Woodward,0:17:53.8,05:57.9,UNI
20,Megan,McDonald,0:18:02.7,06:00.9,UNI
21,Charlotte,Williams,0:23:29.3,07:49.8,HARRIERS
22,Trina,Williams,0:23:29.3,07:49.8,HARRIERS
23,Amelia,Mitchell,0:23:37.3,07:52.4,UNI
24,Genevieve,Draper,0:28:54.9,09:38.3,UNI
25,Isabella,Draper,0:32:45.3,10:55.1,UNI
