Place,First Name,Surname,Time,+ or -,Amount
1,Jennifer ,Jones,39:44,-,3:26
2,Shayne ,Rushan,47:05,-,2:02
3,Jackie ,Tremayne,41:44,-,1:35
4,Mick,McCarthy,41:34,-,1:20
5,Ben ,McDermid,32:28,-,1:09
6,Jodie,Scoble,44:51,-,0:49
7,Lee ,McCullagh,35:15,-,0:44
8,Jenny ,Buchanan,37:59,-,0:29
9,Brad ,Russell,40:41,-,0:25
10,Lucy,Ruck,42:25,+,0:05
11,Ingrid ,Douglass,36:55,+,0:07
12,David ,Tarrant,33:26,+,0:13
13,Michael ,Hogan,37:58,+,0:11
14,Andrew ,Buchanan,29:41,+,0:21
15,Stewart,Scoble,37:06,+,0:26
16,Michael ,Bieleny ,31:04,+,0:29
17,Patrick ,Kenny ,30:02,+,0:42
18,John ,Brewin,41:15,+,0:42
19,Justin,Lee,37:40,+,1:08
20,Leon ,Hamond ,36:47,+,1:22
21,Alison ,McCullagh,42:12,+,1:23
22,Navec,Lorkin,43:57,+,1:37
23,John ,Rose,36:52,+,1:35
24,Wolf ,Heiden,37:17,+,1:43
