First Name,Surname,Start Time,Est Time/km,Est Time/km,Est Time
Eric,Aardvark,00:00,7,30,22:30
Imogen,Douglass,00:40,7,17,21:51
Imogen,Thompson,00:40,7,17,21:51
Bridget,Houlden,02:20,6,42,20:06
Bryn,McCormack,02:50,6,32,19:36
Ava,Perez,03:30,6,19,18:57
Joanne,Weatherhead,03:50,6,12,18:36
Morgan,Dunn,04:20,6,04,18:12
Isabella,Douglass,05:00,5,51,17:33
Bridie,Pearce,05:10,5,48,17:24
Sophie,Rohde,05:10,5,47,17:21
Houston,Pearse,05:40,5,37,16:51
Helen,Sexton,05:40,5,38,16:54
Lilly,Cahill,05:50,5,32,16:36
Julian,Perez,05:50,5,35,16:45
Matisse,Perez,06:00,5,30,16:30
Bronte,Walsh,06:20,5,22,16:06
Laura ,Terry,06:40,5,18,15:54
Shann,Anderson,06:50,5,15,15:45
Joseph,Baldwin,06:50,5,12,15:36
Greg,Christie,07:00,5,09,15:27
Jessey,Wilson,07:00,5,09,15:27
David,Lonsdale,07:20,5,04,15:12
Jeremy,Pearson,07:20,5,05,15:15
Steffany,Roberts,07:20,5,04,15:12
Blaze,Houlden,07:40,4,58,14:54
Scott,Roberts,07:40,4,57,14:51
Ellie,Wilson,07:40,4,57,14:51
Genevieve,Green,07:50,4,54,14:42
Liam,Clarke,07:50,4,52,14:36
Alister,Brasher,08:00,4,51,14:33
Noah,Walsh,08:10,4,47,14:21
Tanya,Higgs,08:20,4,44,14:12
Jack,Cripps,09:10,4,28,13:24
Madeleine,Evely,09:20,4,23,13:09
Max,Pearse,09:20,4,23,13:09
Will,Hogan,09:40,4,16,12:48
Gervase,Birt,09:50,4,15,12:45
Bailey,Evans,10:20,4,02,12:06
John ,Rose,10:20,4,03,12:09
Matthew ,Heislers,10:30,4,01,12:03
Ben ,Connor,11:30,3,39,10:57
Nick,Moloney,11:30,3,41,11:03
