tag no.,first name,surname,start,est. mins/km,est. mins/km,est. time
64,McDermid,Lisa,00:00,7,00,51:06
110,Davis,Rebecca,00:00,7,00,51:06
37,Doering,John,00:00,6,35,48:03
69,O'Shea,Jarrah,00:00,6,23,46:36
21,Bieleny,Michelle,00:00,6,21,46:21
2,East,Alan,00:00,6,10,45:01
111,Davis,Troy,00:00,6,05,44:24
100,Rowe,Justine,00:00,6,00,43:48
40,Escall,Aida,00:00,5,55,43:12
119,Marshall,Craig,00:00,5,55,43:12
66,McDonald,Megan,00:00,5,50,42:35
89,Watson,Natalie,00:00,5,49,42:28
56,Lonsdale,Stacey,00:00,5,48,42:20
54,deVries,Kevin,00:00,5,45,41:59
199,Anderson,Shann,00:00,5,45,41:59
11,McCaig,Jane,00:00,5,44,41:51
196,Charnas,Kathryne,00:00,5,43,41:44
72,Pethybridge,Catherine,00:00,5,40,41:22
123,Terry,Harry,00:00,5,34,40:38
74,Platt,Maree,00:00,5,30,40:09
284,Dundas,Greg,00:00,5,28,39:54
16,Lee,Jennifer,00:00,5,25,39:32
98,Fleming,Tanya,00:00,5,25,39:32
103,Kelly,Jaqueline,00:00,5,25,39:32
68,O'Brien,Justin,00:00,5,17,38:34
117,Marshall,Gabrielle,00:00,5,17,38:34
132,Gleisner,Tracie,00:00,5,13,38:05
76,Smith,Cara,00:00,5,12,37:58
130,Pitson,David,00:00,5,12,37:58
81,Terry,Laura,00:00,5,09,37:36
87,Walsh,Frances,00:00,5,08,37:28
104,Scoble,Jodie,00:00,5,05,37:06
47,Green,Genevieve,00:00,5,02,36:45
217,Berenyl,Freya,00:00,5,02,36:45
6,Rushan,Shayne,00:00,5,01,36:37
67,Meharry,Leeza,00:00,5,00,36:30
113,Walker,Sam,00:00,5,00,36:30
91,Wilkie,Melissa,00:00,4,59,36:23
127,McCullagh,Alison,00:00,4,59,36:23
5,Buchanan,Jenny,00:00,4,58,36:15
41,Evely,Maddy,00:00,4,55,35:53
107,Brook,Hayden,00:00,4,55,35:53
85,Tweed,Rebecca,00:00,4,51,35:24
22,Douglas,Ross,00:00,4,49,35:10
12,Thomas,George,00:00,4,47,34:55
9,Sanderson,Trinity,00:00,4,46,34:48
59,McBain,Tina,00:00,4,46,34:48
94,Lonsdale,David,00:00,4,46,34:48
124,Burgess,Darren,00:00,4,46,34:48
108,Hocking,Eric,00:00,4,43,34:26
78,Saxon,Mark,00:00,4,41,34:11
116,Preece,Roy,00:00,4,40,34:04
29,Cartner,Alison,00:00,4,36,33:35
15,Wilkinson,Rebecca,00:00,4,35,33:27
126,Russell,Tom,00:00,4,35,33:27
4,Crouch,Gary,00:00,4,34,33:20
90,Weightman,Rory,00:00,4,34,33:20
34,Creer,Matthew,00:00,4,33,33:13
93,Wilkinson,Erica,00:00,4,33,33:13
55,Lee,Justin,00:00,4,32,33:06
13,Fiedler,Gavin,00:00,4,29,32:44
129,McBain,Ben,00:00,4,29,32:44
14,Wilkinson,Lisa,00:00,4,28,32:36
109,Lovell,Tim,00:00,4,25,32:15
18,Lanyon,Georgie,00:00,4,22,31:53
49,Heislers,David,00:00,4,22,31:53
96,Brereton,Steve,00:00,4,21,31:45
3,Buchanan,Alan,00:00,4,20,31:38
60,McBain,Greg,00:00,4,20,31:38
287,Gillies Smith,Michael,00:00,4,20,31:38
61,McCormack,Chris,00:00,4,17,31:16
115,Anderson,Aaron,00:00,4,16,31:09
26,Brook,Ryan,00:00,4,15,31:02
112,Livingston,Iian,00:00,4,07,30:03
92,Wilson,Tracey,00:00,4,05,29:48
125,Jalim,Sarah,00:00,4,04,29:41
65,McDermid,Ben,00:00,4,02,29:27
118,Lauder,Tim,00:00,4,02,29:27
122,Scoble,Stewart,00:00,4,02,29:27
71,Pearse,Max,00:00,4,01,29:19
102,Austin,Simon,00:00,4,00,29:12
10,Evans,Ross,00:00,3,59,29:05
73,Pethybridge,Jeff,00:00,3,59,29:05
8,McCaig,Rick,00:00,3,58,28:57
95,Sim,Jason,00:00,3,55,28:36
31,Chambers,Charles,00:00,3,54,28:28
121,Jenkins,Russell,00:00,3,54,28:28
63,Robinson,John,00:00,3,53,28:21
42,Feuerherdt,Craig,00:00,3,52,28:14
51,Hosking,Andrew,00:00,3,47,27:37
33,Creer,Andrew,00:00,3,45,27:22
97,Fleming,Adam,00:00,3,44,27:15
88,Watson,Brian,00:00,3,43,27:08
286,Xu,Chris,00:00,3,41,26:53
48,Heislers,Matthew,00:00,3,39,26:39
7,Hutchins,Luke,00:00,3,38,26:31
285,Crameri,Luke,00:00,3,38,26:31
23,Bieleny,Michael,00:00,3,35,26:10
62,McCullagh,Lee,00:00,3,31,25:40
120,Bergmeyer,Tom,00:00,3,30,25:33
86,Walsh,Fraser,00:00,3,27,25:11
46,Gleisner,Richard,00:00,3,26,25:04
27,Buchanan,Andrew,00:00,3,07,22:45
8,Rick,McCaig,00:00,4,02,32:16
118,Tim,Lauder,00:00,4,02,32:16
122,Stewart,Scoble,00:00,4,02,32:16
102,Simon,Austin,00:00,4,00,32:00
10,Ross,Evans,00:00,3,59,31:52
70,Harrison,Pearse,00:00,3,59,31:52
73,Jeff,Pethybridge,00:00,3,59,31:52
65,Ben,McDermid,00:00,3,58,31:44
95,Jason,Sim,00:00,3,55,31:20
30,Keith,Cassilles-Southgate,00:00,3,54,31:12
31,Charles,Chambers,00:00,3,54,31:12
121,Russell,Jenkins,00:00,3,54,31:12
44,Jason,Fletcher,00:00,3,53,31:04
63,John,Robinson,00:00,3,53,31:04
42,Craig,Feuerherdt,00:00,3,52,30:56
51,Andrew,Hosking,00:00,3,49,30:32
33,Andrew,Creer,00:00,3,45,30:00
97,Adam,Fleming,00:00,3,44,29:52
88,Brian,Watson,00:00,3,43,29:44
286,Chris,Xu,00:00,3,41,29:28
48,Matthew,Heislers,00:00,3,39,29:12
7,Luke,Hutchins,00:00,3,38,29:04
23,Michael,Bieleny,00:00,3,38,29:04
285,Luke,Crameri,00:00,3,38,29:04
62,Lee,McCullagh,00:00,3,31,28:08
120,Tom,Bergmeyer,00:00,3,30,28:00
46,Richard,Gleisner,00:00,3,27,27:36
86,Fraser,Walsh,00:00,3,27,27:36
27,Andrew,Buchanan,00:00,3,07,24:56
