order,tag no,first name,surname,start,est pace,est time
1,257,Fin,Bray,0:00,7:59,23:57
2,222,Virginia,Grills-Marsily,1:20,7:35,22:45
3,212,Michelle,Parry,1:40,7:25,22:15
4,142,Zach,Condon,2:40,7:07,21:21
5,206,Elisa,Christie,3:10,6:55,20:45
6,148,Matisse,Grills-Marsily,3:40,6:45,20:15
7,155,Jasmine,Rielley,3:40,6:45,20:15
8,179,Paula,Rielley,3:40,6:45,20:15
9,146,David,Ashman,3:50,6:42,20:06
10,226,Drew,Parry,4:00,6:39,19:57
11,79,Liz,Stewart,4:20,6:35,19:45
12,106,Suellen,Bambrick,4:20,6:35,19:45
13,30,Amanda,Turnbull,4:40,6:28,19:24
14,43,Josephine,Robinson,4:50,6:23,19:09
15,159,Renelle,McManus,4:50,6:23,19:09
16,21,Michelle,Bieleny,5:00,6:20,19:00
17,208,Houston,Pearse,5:20,6:13,18:39
18,239,Paula,a'Beckett,5:20,6:12,18:36
19,24,Karina,Bray,5:30,6:09,18:27
20,136,Livinia,Douglass,5:30,6:11,18:33
21,225,Lesley,Fabian,5:40,6:06,18:18
22,229,Harrison,Pitson,5:50,6:02,18:06
23,101,Paula,Saxon,6:00,6:00,18:00
24,173,Melanie,Cuzzillo,6:00,6:00,18:00
25,282,Anna,deVries,6:00,6:01,18:03
26,292,Jye,Ekanayake,6:00,5:59,17:57
27,295,Jeremy,Carlson,6:10,5:57,17:51
28,133,Gemma,McPhee,6:20,5:53,17:39
29,151,Jo,Williams,6:20,5:54,17:42
30,263,Narelle,McPhee,6:20,5:55,17:45
31,195,Luke,Creer,6:30,5:50,17:30
32,134,Millicent,Woods,6:40,5:46,17:18
33,149,Janelle,Giffin,6:40,5:46,17:18
34,147,Lachlan,Feuerherdt,6:50,5:43,17:09
35,150,Rebecca,Ashman,6:50,5:42,17:06
36,66,Megan,McDonald,7:00,5:40,17:00
37,89,Natalie,Watson,7:00,5:39,16:57
38,187,Nicole,Kelly,7:00,5:40,17:00
39,243,Max,Bray,7:00,5:40,17:00
40,99,Oscar,Terry,7:10,5:35,16:45
41,157,Bec,Murphy,7:10,5:35,16:45
42,174,Sam,Hancock,7:10,5:35,16:45
43,214,Amy,Sim,7:10,5:37,16:51
44,98,Tanya,Fleming,7:20,5:34,16:42
45,210,Fiona,Dangerfield,7:20,5:32,16:36
46,110,Holly,McPhee,7:30,5:30,16:30
47,170,Abbey,Saxon,7:30,5:31,16:33
48,190,Micheala,Meharry,7:30,5:29,16:27
49,200,Jack,Cripps,7:30,5:29,16:27
50,230,McKinley,Grills-Marsily,7:30,5:30,16:30
51,237,Lou,Bray,7:30,5:30,16:30
52,274,Avery,McDermid,7:30,5:30,16:30
53,152,Alannah,Rielley,7:40,5:26,16:18
54,249,Will,Gleisner,7:40,5:28,16:24
55,277,Luke,Feuerherdt,7:40,5:26,16:18
56,1,Ashlee,Bull,7:50,5:22,16:06
57,11,Jane,McCaig,7:50,5:23,16:09
58,52,Leah,Cripps,7:50,5:25,16:15
59,188,Darcy,Tucker,7:50,5:23,16:09
60,189,Tim,Creer,7:50,5:25,16:15
61,215,Emerson,Sim,7:50,5:25,16:15
62,240,Jenelle,Seaward,7:50,5:22,16:06
63,241,Andrea,Smith,7:50,5:22,16:06
64,269,Cooper,Charnas,7:50,5:25,16:15
65,297,Declan,Lavery,7:50,5:25,16:15
66,164,Imogen,Thompson,8:00,5:19,15:57
67,182,Hanna,Crane,8:00,5:21,16:03
68,253,Charlotte,Murphy,8:00,5:20,16:00
69,270,Tyler,Wilkie,8:00,5:20,16:00
70,156,Will,Murphy,8:10,5:16,15:48
71,242,Halle,Blake-Burrows,8:10,5:16,15:48
72,288,Kate,McIntosh,8:10,5:18,15:54
73,132,Tracie,Gleisner,8:20,5:15,15:45
74,176,Kaidyn,Tucker,8:20,5:12,15:36
75,228,Sam,Pitson,8:20,5:14,15:42
76,32,Oliver,Turnbull,8:30,5:10,15:30
77,193,Emily,Heislers,8:30,5:11,15:33
78,158,Annalise,Murphy,8:40,5:08,15:24
79,191,Phoebe,Lonsdale,8:40,5:08,15:24
80,300,Lucinda,Terry,8:50,5:03,15:09
81,259,Jasmine,Santley,9:00,4:59,14:57
82,112,Jett,Grundy,9:10,4:57,14:51
83,171,Oliver,Sanderson,9:20,4:53,14:39
84,275,Max,Rowe,9:20,4:52,14:36
85,77,Brad,Russell,9:30,4:50,14:30
86,169,Floyd,Cartner,9:30,4:49,14:27
87,213,Phoebe,a'Beckett,9:30,4:51,14:33
88,94,David,Lonsdale,9:40,4:46,14:18
89,29,Alison,Cartner,9:50,4:42,14:06
90,82,Sophie,Adamson,9:50,4:45,14:15
91,107,Hayden,Brook,9:50,4:44,14:12
92,201,Beatrice,Lonsdale,9:50,4:43,14:09
93,227,Joseph,Glanville,10:00,4:40,14:00
94,35,Conor,Cunningham,10:10,4:38,13:54
95,131,Carrisa,Brook,10:10,4:38,13:54
96,198,Matthew,Saxon,10:10,4:38,13:54
97,39,Melissa,Douglas,10:20,4:32,13:36
98,184,Will,Crane,10:20,4:34,13:42
99,105,Toby,McCaig,10:40,4:28,13:24
100,12,Josie,Aitken,11:00,4:21,13:03
101,192,Nicholas,Ashman,11:00,4:20,13:00
102,177,Ben,Wilby,11:20,4:15,12:45
103,203,Tullie,Rowe,11:20,4:13,12:39
104,236,Harry,Seaward,11:20,4:14,12:42
105,218,Noah,Walsh,11:30,4:09,12:27
106,202,Callum,Tucker,11:40,4:07,12:21
107,224,Cooper,Hale,11:40,4:06,12:18
108,114,Spencer,Evans,11:50,4:05,12:15
109,19,Troy,Cartner,12:10,3:56,11:48
110,80,Bridie,Blake-Burrows,12:10,3:57,11:51
111,137,Anton,Paholek,12:10,3:57,11:51
112,219,Wil,McCaig,12:10,3:58,11:54
113,42,Craig,Feuerherdt,12:30,3:50,11:30
114,143,Maxine,Paholek,12:30,3:50,11:30
115,167,Jack,Meade,12:40,3:46,11:18
116,33,Andrew,Creer,13:10,3:35,10:45
117,115,Alexander,Evans,13:10,3:38,10:54
118,46,Richard,Gleisner,13:50,3:23,10:09
119,97,Adam,Fleming,14:10,3:18,9:54
120,27,Andrew,Buchanan,14:50,3:04,9:12
