Place,First,Last,NET Time,Pace,Diff
1,Max,Rowe,0:15:50.4,03:58,-00:13.6
2,Aida,Escall,0:26:34.1,06:39,-00:05.9
3,Ebony,Woodward,0:19:19.5,04:50,+00:15.5
4,Ally,Collett,0:21:43.7,05:26,+00:19.7
5,Anthony,Byrne,0:19:10.8,04:48,+00:22.8
6,Jon,McIntosh,0:19:55.7,04:59,+00:23.7
7,William,Trew,0:17:12.4,04:18,+00:28.4
8,Floyd,Cartner,0:15:11.9,03:48,+00:31.9
9,James,Trew,0:17:21.5,04:20,+00:41.5
10,Mason,Woodward,0:16:55.5,04:14,+00:43.5
11,Avery,McDermid,0:18:44.6,04:41,+00:44.6
12,Dean,Trew,0:21:53.4,05:28,+00:45.4
13,Lachlan,Feuerherdt,0:17:41.3,04:25,+00:53.3
14,Tim,Creer,0:16:30.9,04:08,+00:54.9
15,Abbey,Cartner,0:18:16.7,04:34,+00:56.7
16,Joshua,Feuerherdt,0:19:28.0,04:52,+01:08.0
17,Kane,Safstrom,0:17:18.7,04:20,+01:10.7
18,Kathleen,Pleasants,0:27:06.1,06:47,+01:14.1
19,Amelia,Mitchell,0:28:53.8,07:13,+01:21.8
20,Justin,Lee,0:19:33.1,04:53,+01:29.1
21,Luke,Feuerherdt,0:18:32.3,04:38,+01:32.3
22,Beatrice,Lonsdale,0:19:30.0,04:52,+01:34.0
23,Bec,Woodward,0:24:32.5,06:08,+01:40.5
24,Josephine,Robinson,0:23:52.8,05:58,+02:12.8
25,Tullie,Rowe,0:17:58.0,04:30,+02:14.0
26,Phoebe,Lonsdale,0:18:26.9,04:37,+02:18.9
27,Isabella,Draper,0:27:05.3,06:46,+03:41.3
28,Tully,Cripps,0:27:12.8,06:48,+03:52.8
29,Harry,Cripps,0:27:19.9,06:50,+04:59.9
30,Leah,Cripps,0:27:00.4,06:45,+05:00.4
31,Genevieve,Draper,0:29:46.3,07:27,+05:26.3
32,Hamish,Draper,0:29:54.9,07:29,+05:26.9
33,Karl,Stoltz,0:24:47.1,06:12,+05:27.1
NEW,Sebastian,Stewart,0:27:07.0,06:47
