Place,Member,First,Last,Start,Pace,Est Time
1,1006,Spencer,McMahon,00:00,07:59,0:07:59.0
2,1032,Spencer,Epworth,00:00,07:59,0:07:59.0
3,1081,Brooke,Carter,00:00,07:59,0:07:59.0
4,1098,Hannah,Niblett,00:00,07:59,0:07:59.0
5,3771,Louise,Fyffe,00:00,07:59,0:07:59.0
6,1004,Eden,McMahon,00:10,07:53,0:07:53.0
7,3728,Tobias,Preston,00:20,07:41,0:07:41.0
8,1050,Jack,Wright,00:20,07:36,0:07:36.0
9,1090,Chase,Carter,00:30,07:27,0:07:27.0
10,1084,Naghmana,Tehseen,00:50,07:14,0:07:14.0
11,3773,Eden,Haythorpe,01:00,06:57,0:06:57.0
12,3798,Charli,Hosking,01:10,06:47,0:06:47.0
13,1008,Zachary,Dyer,01:20,06:44,0:06:44.0
14,1054,Jimeal,Ekanayake,01:20,06:36,0:06:36.0
15,3768,Ronny,Epps,01:20,06:36,0:06:36.0
16,1092,Sihanna,Carter,01:30,06:34,0:06:34.0
17,3770,Luke,Collins,01:30,06:34,0:06:34.0
18,3772,Lyra,Haythorpe,01:30,06:31,0:06:31.0
19,1082,Mikayla,Kirkby,01:30,06:28,0:06:28.0
20,1064,Indie,Colley,01:40,06:25,0:06:25.0
21,3767,Polly,Byrne,01:40,06:24,0:06:24.0
22,365,Megan,Howes,01:40,06:16,0:06:16.0
23,1096,Miriam,Niblett,01:40,06:16,0:06:16.0
24,1048,Edie,Gibbons,01:50,06:12,0:06:12.0
25,3757,Tanae,Bull,01:50,06:12,0:06:12.0
26,3751,Ellie,Beesley,01:50,06:11,0:06:11.0
27,1075,Louise,Firli,01:50,06:09,0:06:09.0
28,1018,Abigail,Epworth,01:50,06:08,0:06:08.0
29,1059,Hunter,Pearce,01:50,06:08,0:06:08.0
30,3762,Leo,Stoltz,01:50,06:07,0:06:07.0
31,372,Belle,Howes,02:00,06:04,0:06:04.0
32,1046,Bonnie,Scott,02:00,06:02,0:06:02.0
33,1097,Evie,Niblett,02:00,06:01,0:06:01.0
34,390,Ruby,Douglas,02:00,06:00,0:06:00.0
35,1089,Ruby,Carter,02:00,05:59,0:05:59.0
36,3782,Owen,Draper,02:00,05:59,0:05:59.0
37,1062,Oliver,Clarke,02:10,05:54,0:05:54.0
38,1052,Jaxton,Ekanayake,02:10,05:51,0:05:51.0
39,1007,Ruby,Meharry,02:20,05:44,0:05:44.0
40,1014,Tom,Roberts,02:20,05:44,0:05:44.0
41,3800,Hannah,Draper,02:20,05:37,0:05:37.0
42,1053,Giana,Ekanayake,02:30,05:31,0:05:31.0
43,245,Lacey,Wilkie,02:30,05:28,0:05:28.0
44,382,Genevieve,Robinson,02:30,05:26,0:05:26.0
45,3727,Samuel,Preston,02:30,05:26,0:05:26.0
46,293,Spencer,Lavery,02:40,05:24,0:05:24.0
47,1073,Gabe,Nicoletti,02:40,05:23,0:05:23.0
48,250,Tully,Cripps,02:40,05:21,0:05:21.0
49,1042,Savannah,Marwood,02:40,05:21,0:05:21.0
50,3752,Chloe,Beesley,02:40,05:21,0:05:21.0
51,3778,Sebastian,Stewart,02:40,05:20,0:05:20.0
52,354,Alice,McIntosh,02:40,05:18,0:05:18.0
53,3750,Genevieve,Draper,02:40,05:18,0:05:18.0
54,3761,Krystal,Bellbin,02:40,05:18,0:05:18.0
55,368,Eden,Howes,02:40,05:17,0:05:17.0
56,3775,Holly,Grainger,02:40,05:17,0:05:17.0
57,3742,Jemma,Carter,02:50,05:14,0:05:14.0
58,165,Isaac,Farr,02:50,05:13,0:05:13.0
59,298,Elliott,Lavery,02:50,05:10,0:05:10.0
60,209,Olivia,Douglas,02:50,05:08,0:05:08.0
61,3743,Liam,Carter,02:50,05:08,0:05:08.0
62,44,Geoffrey,Robinson,03:00,05:05,0:05:05.0
63,3756,Callum,Fyffe,03:00,05:01,0:05:01.0
64,1011,Harry,Byrne,03:00,05:00,0:05:00.0
65,3736,Skylar,Woodward,03:00,05:00,0:05:00.0
66,3799,Jacob,Draper,03:00,05:00,0:05:00.0
67,246,Poppy,Wainwright,03:00,04:59,0:04:59.0
68,1078,Leigh,Draper,03:00,04:59,0:04:59.0
69,1026,Eiliyah,Daneen,03:00,04:58,0:04:58.0
70,3749,Isabella,Draper,03:00,04:58,0:04:58.0
71,50,Harry,Cripps,03:10,04:54,0:04:54.0
72,400,Darren,Rowe,03:10,04:54,0:04:54.0
73,1035,Braxton,Safstrom,03:10,04:48,0:04:48.0
74,279,Lucy,McCaig,03:10,04:46,0:04:46.0
75,282,Anna,de Vries,03:20,04:42,0:04:42.0
76,1095,Zac,Firli,03:20,04:42,0:04:42.0
77,283,Lily,Sanderson,03:20,04:39,0:04:39.0
78,391,Sebastian,Boromeo,03:20,04:37,0:04:37.0
79,1047,Harry,Scott,03:20,04:35,0:04:35.0
80,381,April,Wainwright,03:30,04:33,0:04:33.0
81,3753,Logan,Beesley,03:30,04:33,0:04:33.0
82,3711,Eryn,McManus,03:30,04:31,0:04:31.0
83,1038,Xavier,Marwood,03:30,04:27,0:04:27.0
84,281,Will,de Vries,03:40,04:25,0:04:25.0
85,360,Phoebe,Martin,03:40,04:25,0:04:25.0
86,258,Ivy,Bray,03:40,04:23,0:04:23.0
87,305,Jonty,McDermid,03:40,04:21,0:04:21.0
88,267,Kayla,McManus,03:40,04:17,0:04:17.0
89,3769,Charley,Collins,03:40,04:17,0:04:17.0
90,3737,Ebony,Woodward,03:40,04:15,0:04:15.0
91,276,Joshua,Feuerherdt,03:50,04:12,0:04:12.0
92,1015,Miller,Armstrong,03:50,04:12,0:04:12.0
93,272,Abbey,Cartner,03:50,04:07,0:04:07.0
94,1086,Jimi,Read,03:50,04:07,0:04:07.0
95,254,William,Robinson,04:00,04:05,0:04:05.0
96,191,Phoebe,Lonsdale,04:00,04:02,0:04:02.0
97,277,Luke,Feuerherdt,04:00,04:02,0:04:02.0
98,1071,Freya,Nicoletti,04:00,04:00,0:04:00.0
99,292,Jye,Ekanayake,04:00,03:59,0:03:59.0
100,1016,Noah,Armstrong,04:00,03:59,0:03:59.0
101,3714,Tanner,Fear,04:00,03:59,0:03:59.0
102,203,Tullie,Rowe,04:00,03:56,0:03:56.0
103,253,Charlotte,Murphy,04:10,03:54,0:03:54.0
104,244,Jaron,Ekanayake,04:10,03:50,0:03:50.0
105,266,Lewis,Lonsdale,04:10,03:50,0:03:50.0
106,274,Avery,McDermid,04:10,03:49,0:03:49.0
107,1060,William,Trew,04:20,03:43,0:03:43.0
108,1029,James,Trew,04:20,03:35,0:03:35.0
109,3738,Mason,Woodward,04:30,03:34,0:03:34.0
110,169,Floyd,Cartner,04:30,03:31,0:03:31.0
111,275,Max,Rowe,04:30,03:31,0:03:31.0
