PLACE,FIRST,LAST,RACES,POINTS
1,Ben,McDermid,10,436
2,Chris,Giffin,14,417
3,Paul,Lomax,12,408
4,Sarah,Jalim,12,407
5,Maree,Platt,14,396
6,Ross,Douglas,15,384
7,Rik,McCaig,12,381
8,Gavin,Fiedler,13,376
9,Justin,Lee,12,372
10,Alison,Cartner,15,358
11,John,Robinson,12,356
12,Leah,Cripps,11,351
13,Andrea,Smith,13,348
14,Rebecca,Wilkinson,11,341
15,Kevin,deVries,10,311
16,Tim,Lauder,8,295
17,Sue,Taylor,9,284
18,David,Heislers,9,282
19,Chris,McCormack,9,282
20,David,Lonsdale,8,280
21,Janelle,Giffin,8,280
22,Charles,Chambers,7,257
23,Matthew,Heislers,9,248
24,Jenny,Buchanan,6,236
25,Alan,East,6,229
26,Shayne,Rushan,8,228
27,Trinity,Sanderson,6,226
28,Craig,Feuerherdt,6,226
29,Andrew,Creer,7,223
30,Jon,McIntosh,6,223
31,Philip,Shambrook,8,220
32,Els,Viester,6,219
33,David,Cripps,6,217
34,Alan,Buchanan,6,214
35,Beth,Lavery,6,207
36,Greg,McBain,6,198
37,Jennifer,Lee,6,196
38,Kate,Hadkins,7,186
39,Sue,Condon,5,179
40,Andrew,Wilkie,5,179
41,Lauren,Hancock,5,178
42,Lee,Bray,5,175
43,Jason,Anderton,6,170
44,Melissa,Wilkie,5,147
45,Philippa,Morris,4,147
46,John,Flood,4,142
47,Darren,Hartland,5,140
48,Georgie,Lanyon,4,138
49,Troy,Davis,3,134
50,Brian,Watson,4,132
51,Brad,Russell,5,127
52,Brock,Prime,4,127
53,Fiona,Dangerfield,4,115
54,Anne,McIntosh,3,115
55,Melissa,Douglas,3,110
56,Rory,Weightman,3,103
57,Aida,Escall,4,98
58,Craig,Green,2,93
59,Brett,Houlden,3,91
60,Andrew,Buchanan,2,85
61,Danny,Burgess,3,84
62,Tina,McBain,2,81
63,Lisa,Wilkinson,3,80
64,Joshua,Condon,2,77
65,Ingrid,Douglass,2,74
66,Scott,Roberts,3,68
67,Matt,Holmes,3,68
68,Paul,Seaward,2,65
69,David,Meade,2,60
70,Rhianna,Wik-Gamble,2,60
71,Laura,Terry,2,56
72,James,Toomey,2,55
73,Amy,Holmes,2,55
74,James,Deacon,2,55
75,Lee,McCullagh,2,54
76,John,Doering,2,51
77,Bridie,Blake-Burrows,1,50
78,Michael,Bieleny,2,45
79,Natalie,Jacobson,1,43
80,Paul,Vickery,2,37
81,Adam,Henderson,2,36
82,Jack,Meade,2,35
83,Jason,Sim,1,34
84,Tom,Barkmeyer,1,32
85,Karl,Lanyon,2,30
86,David,Sebastian,1,30
87,Megan,McDonald,1,29
88,Jay,Sanderson,1,22
89,Cara,Smith,1,17
90,Tullie,Rowe,2,16
91,Russell,Jenkins,1,0
92,Tim,Creer,1,0
93,Amy,Sim,1,0
94,Jim,Russell,1,0
95,Peter,Noble,1,0
96,Paula,Meade,1,0
97,Blaze,Houlden,1,0
98,Alex,Tranter,1,0
99,Greg,Toomey,1,0
100,Todd,Cody,1,0
101,David,Howes,1,0
102,Stephen,Wainwright,1,0
103,Jenni,Jenkins,1,0
104,Mark,Logan,1,0
