PLACE,FIRST,LAST,RACES,POINTS
1,Beatrice,Lonsdale,16,278
2,Josephine,Robinson,13,270
3,Lynley,McDonald,12,241
4,Max,Rowe,16,239
5,Wil,McCaig,10,228
6,Toby,McCaig,10,225
7,Darren,Rowe,11,217
8,Melissa,Douglas,11,214
9,Tim,Creer,7,208
10,Phoebe,Lonsdale,12,205
11,Bridie,Blake-Burrows,10,198
12,Stephen,Wainwright,9,186
13,Tullie,Rowe,11,176
14,David,Howes,7,167
15,Nathan,Jones,10,153
16,Connor,Bedson,7,153
17,Melanie,Makris,8,151
18,Tyler,Wilkie,8,143
19,Carrisa,Brook,5,113
20,James,Toomey,6,105
21,Charlotte,Murphy,5,97
22,Jeremy,Carlson,4,97
23,Bec,Murphy,4,92
24,Megan,McDonald,3,90
25,Matthew,Saxon,4,83
26,Shelley,Tuohey,4,82
27,Greg,Toomey,5,81
28,Mark,Saxon,4,79
29,Luke,Creer,5,78
30,Lachlan,Feuerherdt,3,76
31,Liz,Stewart,4,74
32,Zach,Condon,4,69
33,Will,Murphy,4,65
34,Lucinda,Terry,3,64
35,Tim,Hughan,4,62
36,Jack,Meade,3,58
37,Harry,Seaward,3,58
38,Aida,Escall,3,53
39,Annalise,Murphy,3,51
40,Tully,Cripps,3,47
41,David,Lonsdale,2,40
42,Louise,Toomey,3,38
43,Steff,Roberts,3,36
44,Karina,Bray,2,34
45,Phoebe,Martin,4,31
46,Emerson,Sim,1,30
47,Jasmine,Murphy,4,27
48,Lou,Bray,2,26
49,Oliver,Sanderson,1,25
50,Isabella,Makris,3,25
51,Scott,Roberts,3,25
52,Juliet,Deacon,2,25
53,Jett,Grundy,1,22
54,Joshua,Condon,2,20
55,Matthew,Heislers,1,19
56,Sarah,Hadkins,2,18
57,John,Robinson,1,16
58,Liam,Deacon,2,16
59,Holly,McPhee,1,15
60,Oscar,Terry,1,13
61,Janelle,Giffin,1,12
62,Gemma,McPhee,1,9
63,Matthew,Hadkins,2,7
64,Andrew,Creer,1,5
65,Leah,Cripps,2,5
66,Luke,Feuerherdt,1,5
67,Sam,Hancock,1,1
68,Trinity,Sanderson,1,0
69,Ryan,Brook,1,0
70,Mitchell,Bray,1,0
71,Craig,Feuerherdt,1,0
72,Kevin,deVries,1,0
73,Sam,Stewart,1,0
74,Natalie,Jacobson,1,0
75,Lauren,Hancock,1,0
76,Billy,Meade,1,0
77,Cooper,Hale,1,0
78,Beth,Lavery,1,0
79,Abbey,Cartner,1,0
80,Imogen,Stewart,1,0
81,Sabine,Stewart,1,0
82,Stephanie,Carlson,1,0
83,Jack,Hickman,1,0
84,Kathryn,Toomey,1,0
85,Sarah,Cody,1,0
86,David,Cripps,1,0
87,Amy,Holmes,1,0
88,Xavier,Holmes,1,0
89,Loch,Hale,1,0
90,Kirsten,Hale,1,0
91,Aidan,Deacon,1,0
92,Sharon,Carlson,1,0
93,Abbey,Seaward,1,0
94,Koichi,Masuda,1,0
95,Ryan,Arscott,1,0
