Place,First,Last,NET Time,Pace,Diff
1,Lachlan,Feuerherdt,0:08:59.0,04:29.5,-02:27.0
2,Zach,Condon,0:11:54.5,05:57.2,-02:19.5
3,Emerson,Sim,0:08:49.0,04:24.5,-02:01.0
4,Max,Rowe,0:08:50.0,04:25.0,-01:48.0
5,Oliver,Sanderson,0:08:57.6,04:28.8,-00:58.4
6,Charlotte,Murphy,0:09:46.6,04:53.3,-00:57.4
7,Tyler,Wilkie,0:10:13.2,05:06.6,-00:46.8
8,Jett,Grundy,0:09:11.6,04:35.8,-00:42.4
9,Wil,McCaig,0:07:18.6,03:39.3,-00:35.4
10,Tullie,Rowe,0:07:55.7,03:57.8,-00:24.3
11,Annalise,Murphy,0:09:38.3,04:49.1,-00:17.7
12,Karina,Bray,0:11:23.3,05:41.7,-00:20.7
13,Phoebe,Lonsdale,0:09:25.8,04:42.9,-00:14.2
14,Lucinda,Terry,0:09:57.1,04:58.6,-00:12.9
15,Holly,McPhee,0:09:58.0,04:59.0,-00:10.0
16,Will,Murphy,0:10:00.1,05:00.1,-00:13.9
17,Oscar,Terry,0:11:13.6,05:36.8,+00:03.6
18,Melissa,Douglas,0:09:15.6,04:37.8,+00:11.6
19,Bec,Murphy,0:11:27.8,05:43.9,+00:17.8
20,Melanie,Makris,0:11:31.1,05:45.6,+00:19.1
21,Gemma,McPhee,0:11:21.7,05:40.9,+00:21.7
22,Josephine,Robinson,0:11:41.9,05:51.0,+00:21.9
23,Beatrice,Lonsdale,0:09:26.6,04:43.3,+00:22.6
24,Luke,Creer,0:12:24.2,06:12.1,+00:44.2
25,Luke,Feuerherdt,0:12:31.4,06:15.7,+01:39.4
NEW,Sarah,Cody,0:09:27.0,04:43.5
NEW,Darren,Rowe,0:09:37.0,04:48.5
NEW,Isabella,Makris,0:11:50.7,05:55.4
NEW,Steff,Roberts,0:08:60.0,04:30.0
NEW,Jasmine,Murphy,0:10:26.6,05:13.3
NEW,Jack,Hickman,0:06:52.4,03:26.2
NEW,Mitchell,Bray,0:11:22.7,05:41.4
NEW,James,Toomey,0:08:46.0,04:23.0
NEW,Nathan,Jones,0:10:06.7,05:03.4
NEW,Scott,Roberts,0:10:10.2,05:05.1
NEW,Greg,Toomey,0:11:21.9,05:40.9
NEW,Louise,Toomey,0:11:23.2,05:41.6
NEW,Kathryn,Toomey,0:14:08.4,07:04.2
