Place,First,Last,NET Time,Pace,Diff
1,Craig,Green,0:31:15.0,03:54.4,-14:21.0
2,Amy,Holmes,0:34:51.0,04:21.4,-02:37.0
3,Janelle,Giffin,0:47:15.0,05:54.4,-02:13.0
4,Charles,Chambers,0:33:46.0,04:13.2,-01:10.0
5,Sarah,Jalim,0:32:11.0,04:01.4,-00:45.0
6,Paul,Lomax,0:38:54.0,04:51.8,-00:50.0
7,Ben,McDermid,0:35:58.0,04:29.8,-00:42.0
8,Gavin,Fiedler,0:37:42.0,04:42.8,-00:42.0
9,Ross,Douglas,0:38:34.0,04:49.2,-00:14.0
10,Andrew,Creer,0:29:11.0,03:38.9,-00:09.0
11,Andrew,Buchanan,0:25:18.0,03:09.8,-00:02.0
12,Alison,Cartner,0:38:32.0,04:49.0,+00:08.0
13,Rory,Weightman,0:38:17.0,04:47.1,+00:17.0
14,Chris,Giffin,0:37:18.0,04:39.8,+00:22.0
15,John,Robinson,0:31:46.0,03:58.2,+00:26.0
16,David,Heislers,0:36:57.0,04:37.1,+00:33.0
17,Chris,McCormack,0:33:40.0,04:12.5,+00:36.0
18,Philippa,Morris,0:42:48.0,05:21.0,+00:56.0
19,Matthew,Heislers,0:28:26.0,03:33.2,+01:06.0
20,Philip,Shambrook,0:39:29.0,04:56.1,+01:13.0
21,Matt,Holmes,0:36:24.0,04:33.0,+01:20.0
22,Shayne,Rushan,0:43:44.0,05:28.0,+01:44.0
NEW,Darren,Hartland,0:30:29.0,03:48.6
