Place,First,Last,NET Time,Pace,Diff
1,Jordan,Baker,0:05:43.3,05:43.3,-00:31.7
2,Tully,Cripps,0:05:44.1,05:44.1,-00:19.9
3,Lacey,Wilkie,0:05:18.1,05:18.1,+00:00.1
4,Thomas,Henderson,0:05:27.4,05:27.4,+00:09.4
5,William,Robinson,0:04:28.0,04:28.0,+00:12.0
6,Poppy,Wainwright,0:06:14.9,06:14.9,+00:15.9
7,Abbey,Cartner,0:04:25.0,04:25.0,+00:19.0
8,Joshua,Feuerherdt,0:04:59.5,04:59.5,+00:17.5
9,Lewis,Lonsdale,0:04:29.9,04:29.9,+00:22.9
10,Harry,Cripps,0:05:41.9,05:41.9,+00:18.9
11,Jesse,Brook,0:06:02.3,06:02.3,+00:19.3
12,Lenny,Hancock,0:06:32.3,06:32.3,+00:19.3
13,Luke,Feuerherdt,0:04:43.3,04:43.3,+00:18.3
14,Avery,McDermid,0:04:59.2,04:59.2,+00:28.2
15,Lachlan,Feuerherdt,0:04:33.2,04:33.2,+00:32.2
16,Geoffrey,Robinson,0:06:35.7,06:35.7,+00:36.7
17,Genevieve,Robinson,0:08:53.6,08:53.6,+00:54.6
18,Olivia,Douglas,0:07:01.6,07:01.6,+01:44.6
NEW,Sebastian,Stewart,0:05:35.3,05:35.3
NEW,Phoebe,Martin,0:05:13.3,05:13.3
