Place,First,Last,NET Time,Pace,Diff
1,Belle,Howe,0:06:19.0,06:19.0,-01:44.0
2,Eden,Howes,0:05:45.9,05:45.9,-01:37.1
3,Tim,Creer,0:04:16.5,04:16.5,-00:43.5
4,Jeremy,Carlson,0:04:16.2,04:16.2,-00:36.8
5,Will,deVries,0:05:21.1,05:21.1,-00:23.9
6,Lewis,McIntosh,0:05:04.7,05:04.7,-00:30.3
7,Millie,McIntosh,0:05:47.4,05:47.4,-00:20.6
8,Quinlan,Cody,0:05:32.1,05:32.1,-00:19.9
9,Oscar,Terry,0:04:32.8,04:32.8,-00:19.2
10,Tadhg,Hughan,0:04:33.4,04:33.4,-00:14.6
11,Abbey,Cartner,0:04:06.7,04:06.7,-00:13.3
12,Avery,McDermid,0:04:31.8,04:31.8,-00:06.2
13,Harry,Cripps,0:05:23.6,05:23.6,-00:10.4
14,Luke,Feuerherdt,0:04:25.9,04:25.9,+00:00.9
15,Lewis,Lonsdale,0:04:11.6,04:11.6,+00:06.6
16,Ava,Terry,0:05:45.2,05:45.2,+00:08.2
17,Joshua,Feuerherdt,0:04:52.9,04:52.9,+00:10.9
18,Sachin,Cody,0:06:41.2,06:41.2,+00:51.2
19,Geoffrey,Robinson,0:06:53.3,06:53.3,+00:58.3
20,Poppy,Wainwright,0:06:53.4,06:53.4,+01:03.4
NEW,Carrisa,Brook,0:04:01.6,04:01.6
NEW,Stephanie,Carlson,0:06:24.0,06:24.0
NEW,April,Wainwright,0:06:27.1,06:27.1
NEW,Sharon,Carlson,0:07:34.4,07:34.4
NEW,Genevieve,Robinson,0:08:13.5,08:13.5
