Place,First Name,Surname,Time,+ or -,Amount
1,Macey,O'Shea,04:47,-,2:13
2,Rossi,Stevens,05:07,-,0:43
3,Lucinda ,Terry,05:28,-,0:41
4,Charlotte,Crane,05:51,-,0:29
5,Cooper,Charnas,04:42,-,0:28
6,Harrison,Kelly,04:24,-,0:31
7,Jack ,McCullough,05:04,-,0:26
8,Tyler,Wilkie,04:55,-,0:29
9,Allerah,Thomas,06:38,-,0:27
10,Max,Rowe,04:30,-,0:25
11,Tullie,Rowe,04:00,-,0:24
12,Amity,Thorpe,05:13,-,0:22
13,Floyd ,Cartner,03:53,-,0:15
14,Avery,McDermid,05:54,-,0:16
15,Oscar,Terry,04:47,-,0:13
16,Lewis,Lonsdale,04:58,-,0:17
17,Lewis,Kailaur,06:18,-,0:12
18,Lachlan ,Feuerherdt,04:31,-,0:14
19,Abbey,Cartner,04:52,-,0:13
20,Manny,Rose,05:36,-,0:04
21,Will,Smith,06:51,+,0:01
22,Luke,Feuerherdt,05:09,+,0:07
23,Joshua,Feuerherdt,07:44,+,0:34
24,Rhyse,Thorpe,08:21,+,2:26
