PLACE, FIRST, LAST, TIME, PACE, CLUB
1,Mason,Woodward,0:03:45.4,03:45.4,UNI
2,William,Trew,0:03:46.3,03:46.3,UNI
3,Mitchell,Graham,0:03:55.0,03:55.0,EAGLEHAWK
4,James,Trew,0:03:55.5,03:55.5,UNI
5,Tanner,Fear,0:03:60.0,04:00.0,UNI
6,Lewis,Lonsdale,0:04:01.5,04:01.5,UNI
7,Harrison ,Whitfield,0:04:02.7,04:02.7,HARRIERS
8,Avery,McDermid,0:04:04.1,04:04.1,UNI
9,Jack ,Ketterer,0:04:08.0,04:08.0,SOUTH BENDIGO
10,Joshua,Feuerherdt,0:04:10.7,04:10.7,UNI
11,Kyal,Riordan,0:04:32.8,04:32.8,HARRIERS
12,Mack,Elkington,0:04:34.9,04:34.9,HARRIERS
13,Logan,Beesley,0:04:59.3,04:59.3,UNI
14,Jordan,Macdonald,0:05:50.6,05:50.6,HARRIERS
15,Gary,Mahon,0:06:15.0,06:15.0,SOUTH BENDIGO
