Place,First Name,Surname,Club,Time
1,Peter,Cowell,BYM,28:43
2,Jason,Fletcher,BUAC,29:44
3,Greg ,Hilson,Sth Bgo,29:59
4,Ian,Wellard,BYM,30:05
5,Brian ,Watson,BUAC,30:08
6,David,Van Es,BYM,30:31
7,John ,Buckell,BYM,30:37
8,Andrew,Creer,BUAC,30:59
9,David,Semmens,BYM,33:56
10,David,Heislers,BUAC,34:18
11,Conor,Cunningham,BUAC,36:21
12,Brett,Houlden,BUAC,37:22
13,Warren,Sutton,BYM,41:57
