Place,First Name,Surname,Club,Time
1,Anne,Buckley,BYM,31:47
2,Erica,Wilkinson,BUAC,32:44
3,Ingrid,Douglass,BUAC,33:58
4,Leanne,Healey,BYM,34:26
5,Alison,Cartner,BUAC,34:32
6,Wendy,Stibbe,BYM,36:24
7,Kelly,Buckell,BYM,39:54
