Place,Member,First,Last,Start,Pace,Est Time
1,1096,Miriam,Niblett,04:00,08:04,0:08:04.0
2,1032,Spencer,Epworth,04:00,07:59,0:07:59.0
3,3728,Tobias,Preston,04:20,07:41,0:07:41.0
4,1050,Jack,Wright,04:20,07:36,0:07:36.0
5,1046,Bonnie,Scott,05:10,06:48,0:06:48.0
6,1048,Edie,Gibbons,05:20,06:40,0:06:40.0
7,1054,Jimeal,Ekanayake,05:20,06:36,0:06:36.0
8,1052,Jaxton,Ekanayake,05:30,06:27,0:06:27.0
9,1064,Indie,Colley,05:40,06:25,0:06:25.0
10,3782,Owen,Draper,05:40,06:18,0:06:18.0
11,365,Megan,Howes,05:40,06:16,0:06:16.0
12,1053,Giana,Ekanayake,05:40,06:16,0:06:16.0
13,3751,Ellie,Beesley,05:50,06:14,0:06:14.0
14,1075,Louise,Firli,05:50,06:09,0:06:09.0
15,1018,Abigail,Epworth,05:50,06:08,0:06:08.0
16,1059,Hunter,Pearce,05:50,06:08,0:06:08.0
17,1062,Oliver,Clarke,05:50,06:06,0:06:06.0
18,372,Belle,Howes,06:00,06:04,0:06:04.0
19,382,Genevieve,Robinson,06:00,05:58,0:05:58.0
20,1007,Ruby,Meharry,06:20,05:44,0:05:44.0
21,390,Ruby,Douglas,06:20,05:40,0:05:40.0
22,1014,Tom,Roberts,06:20,05:39,0:05:39.0
23,3742,Jemma,Carter,06:20,05:35,0:05:35.0
24,354,Alice,McIntosh,06:30,05:31,0:05:31.0
25,1042,Savannah,Marwood,06:30,05:30,0:05:30.0
26,245,Lacey,Wilkie,06:30,05:28,0:05:28.0
27,44,Geoffrey,Robinson,06:30,05:27,0:05:27.0
28,3727,Samuel,Preston,06:30,05:26,0:05:26.0
29,246,Poppy,Wainwright,06:40,05:24,0:05:24.0
30,293,Spencer,Lavery,06:40,05:24,0:05:24.0
31,250,Tully,Cripps,06:40,05:21,0:05:21.0
32,3750,Genevieve,Draper,06:40,05:18,0:05:18.0
33,368,Eden,Howes,06:40,05:17,0:05:17.0
34,3752,Chloe,Beesley,06:40,05:17,0:05:17.0
35,3778,Sebastian,Stewart,06:40,05:17,0:05:17.0
36,3743,Liam,Carter,06:40,05:16,0:05:16.0
37,298,Elliott,Lavery,06:50,05:10,0:05:10.0
38,209,Olivia,Douglas,06:50,05:08,0:05:08.0
39,1035,Braxton,Safstrom,07:00,05:02,0:05:02.0
40,400,Darren,Rowe,07:00,05:00,0:05:00.0
41,3749,Isabella,Draper,07:00,04:58,0:04:58.0
42,1026,Eiliyah,Daneen,07:00,04:57,0:04:57.0
43,50,Harry,Cripps,07:10,04:54,0:04:54.0
44,3711,Eryn,McManus,07:10,04:51,0:04:51.0
45,3736,Skylar,Woodward,07:10,04:50,0:04:50.0
46,267,Kayla,McManus,07:10,04:47,0:04:47.0
47,279,Lucy,McCaig,07:10,04:46,0:04:46.0
48,1095,Zac,Firli,07:20,04:44,0:04:44.0
49,282,Anna,de Vries,07:20,04:42,0:04:42.0
50,283,Lily,Sanderson,07:20,04:39,0:04:39.0
51,1047,Harry,Scott,07:20,04:38,0:04:38.0
52,258,Ivy,Bray,07:20,04:37,0:04:37.0
53,1038,Xavier,Marwood,07:20,04:37,0:04:37.0
54,381,April,Wainwright,07:30,04:30,0:04:30.0
55,272,Abbey,Cartner,07:40,04:25,0:04:25.0
56,281,Will,de Vries,07:40,04:25,0:04:25.0
57,360,Phoebe,Martin,07:40,04:25,0:04:25.0
58,3753,Logan,Beesley,07:40,04:25,0:04:25.0
59,305,Jonty,McDermid,07:40,04:19,0:04:19.0
60,3737,Ebony,Woodward,07:40,04:18,0:04:18.0
61,1015,Miller,Armstrong,07:50,04:12,0:04:12.0
62,276,Joshua,Feuerherdt,07:50,04:11,0:04:11.0
63,244,Jaron,Ekanayake,07:50,04:08,0:04:08.0
64,254,William,Robinson,08:00,04:05,0:04:05.0
65,277,Luke,Feuerherdt,08:00,04:04,0:04:04.0
66,274,Avery,McDermid,08:00,04:00,0:04:00.0
67,292,Jye,Ekanayake,08:00,03:59,0:03:59.0
68,1016,Noah,Armstrong,08:00,03:59,0:03:59.0
69,169,Floyd,Cartner,08:00,03:58,0:03:58.0
70,266,Lewis,Lonsdale,08:10,03:54,0:03:54.0
71,3714,Tanner,Fear,08:10,03:48,0:03:48.0
72,1060,William,Trew,08:20,03:40,0:03:40.0
73,3738,Mason,Woodward,08:20,03:39,0:03:39.0
74,1029,James,Trew,08:20,03:35,0:03:35.0
75,275,Max,Rowe,08:30,03:29,0:03:29.0
