PLACE,FIRST,LAST,RACES,POINTS
1,Phoebe,Lonsdale,2,36
2,David,Cripps,2,31
3,Mason,Woodward,2,28
4,Andrea,Smith,2,23
5,William,Trew,2,22
6,Floyd,Cartner,1,20
7,Tullie,Rowe,1,20
8,William,Robinson,2,19
9,Chris,Giffin,1,19
10,Andrew,Creer,1,18
11,Max,Rowe,1,18
12,Ben,McDermid,1,17
13,Tanner,Fear,2,17
14,Avery,McDermid,2,16
15,Rebecca,Kirkby,1,15
16,Abbey,Cartner,1,13
17,Mumtaz,Hussain,2,13
18,Lewis,Lonsdale,1,12
19,Charlotte,Murphy,2,11
20,Cooper,Firli,1,9
21,Beatrice,Lonsdale,1,8
22,Kane,Safstrom,1,7
23,Ebony,Woodward,2,7
24,Freya,Nicoletti,1,6
25,Ethan,Marwood,2,5
26,Jonty,McDermid,2,4
27,Lisa,Wilkinson,1,3
28,Luke,Feuerherdt,1,2
29,Will,de Vries,2,1
30,Ross,Douglas,1,0
31,Josephine,Robinson,1,0
32,Geoffrey,Robinson,2,0
33,Harry,Cripps,2,0
34,Leah,Cripps,2,0
35,Kevin,de Vries,1,0
36,Liz,Stewart,2,0
37,Renelle,McManus,1,0
38,Lesley,Fabian,2,0
39,Jaron,Ekanayake,1,0
40,Poppy,Wainwright,2,0
41,Tully,Cripps,2,0
42,Jasmine,Murphy,2,0
43,Joshua,Feuerherdt,1,0
44,Anna,de Vries,2,0
45,Imogen,Stewart,2,0
46,Thom,Hosking,1,0
47,Jon,McIntosh,1,0
48,Lynley,McDonald,2,0
49,Lewis,McIntosh,2,0
50,Sebastian,Boromeo,1,0
51,Eiliyah,Daneen,1,0
52,Xavier,Marwood,1,0
53,Melinda,Marwood,2,0
54,Harry,Scott,1,0
55,Jodie,McLeod,1,0
56,Scott,McLeod,1,0
57,Louise,Firli,1,0
58,Sarah,Trew,2,0
59,Dean,Trew,2,0
60,Michelle,Scott,1,0
61,Jimi,Read,1,0
62,Kale,Beesley,1,0
63,Zac,Firli,1,0
64,Hannah,Niblett,1,0
65,Jazlin,Fear,2,0
66,Bec,Woodward,2,0
67,Kim,Carter,1,0
68,Amelia,Mitchell,1,0
69,Isabella,Draper,1,0
70,Genevieve,Draper,1,0
71,Logan,Beesley,2,0
72,Hamish,Draper,1,0
