OPEN MALE,OPEN MALE,OPEN MALE,OPEN MALE,7.5km
Place,First Name,Surname,Club,Time
1,Cody,Williamson,BYM,25.24
2,Peter,Rice,BYM,26.04
3,Andrew ,Buchanan,BUAC,26.21
4,Bryan,Keely,BUAC,26.29
5,Jacob ,Nolan,BYM,27.07
6,Kyall,Britten,Sth BGO,27.27
7,Jamie ,Cook,BYM,28.08
8,Pat ,Kenny,BUAC,28.26
9,Ben,Goode,BYM,28.51
10,Russell,Fenwick,Sth BGO,29.15
11,Simon,Austin,BUAC,29.18
12,Alexander,Evans,BYM,29.49
13,Ben,Sexton,BYM,1.29
14,Scott,Gilbert,BYM,31.47
15,Andrew ,Meyers,Sth BGO,32.04
16,Ryan,Brook,BUAC,33.44
"","","","",""
OPEN FEMALE,OPEN FEMALE,OPEN FEMALE,OPEN FEMALE,7.5km
Place,First Name,Surname,Club,Time
1,Meredith,Cook,BYM,30.02
2,Rebecca,Tweed,BUAC,30.45
3,Felicity,Harrop,BYM,33.45
4,Alison,Cartner,BUAC,35.15
5,Genevieve,Green,BUAC,37.04
6,Laura,Terry,BUAC,39.04
7,Janet,Hodnett,BUAC,39.14
8,Leah,Cripps,EGWK,39.28
"","","","",""
40+ MALE,40+ MALE,40+ MALE,40+ MALE,7.5km
Place,First Name,Surname,Club,Time
1,Michael,Bieleny,BUAC,26.50
2,Peter,Cowell,BYM,28.23
3,Greg,Hilsen,Sth BGO,28.37
4,Ian,Wellard,BYM,30.45
5,Craig,Green,BYM,31.23
6,Steve,Brereton,BUAC,31.59
7,Tracy,Wilson,BUAC,32.01
8,Jeff,Pethybridge,BUAC,32.31
9,Tracy,Wilson,BUAC,31.50
10,Russell,Jenkins,BUAC,33.02
11,David,Heislers,BUAC,35.29
12,Scott,Roberts,BUAC,35.30
13,Richard,Marchingo,BYM,36.26
14,Greg,Targett,Sth BGO,41.19
"","","","",""
40+ FEMALE,40+ FEMALE,40+ FEMALE,40+ FEMALE,7.5km
Place,First Name,Surname,Club,Time
1,Erica,Wilkinson,BUAC,32.10
2,Lisa,Wilkinson,BUAC,32.32
3,Leanne,Healey,BYM,32.48
4,Liz,Foster,BUAC,37.55
5,Gabby,Walsh,BUAC,40.50
"","","","",""
50+ MALE,50+ MALE,50+ MALE,50+ MALE,7.5km
Place,First Name,Surname,Club,Time
1,Trevor,Kelly,EGWK,28.18
2,Jim,Russell,BUAC,29.32
3,Charles,Chambers,BYM,29.54
4,Rick,Ermel,BYM,30.00
5,Leon,Gilbert,BYM,32.29
6,Leon,Hamond,BUAC,32.41
7,Phil,Brown,BYM,33.22
8,Greg,McBain,BUAC,33.39
9,Gary,Crouch,BUAC,33.44
10,David,Grimes,BYM,35.03
11,Roy,Preece,BUAC,37.30
12,Shayne,Rushan,BUAC,38.12
13,Brian,Cornell,EGWK,39.30
"","","","",""
50+ FEMALE,50+ FEMALE,50+ FEMALE,50+ FEMALE,7.5km
Place,First Name,Surname,Club,Time
1,Tina,McBain,BUAC,37.18
