UNDER 14 MALE,UNDER 14 MALE,UNDER 14 MALE,UNDER 14 MALE,2 km
Place,First Name,Surname,Club,Time
1,Anthony,Dempster,BYM,7.43
2,Jack,Cripps,BUAC,8.33
3,Noah,Walsh,BUAC,9.00
4,Jarrod,Topp-Lowe,Sth BGO,10.17
5,Jett,Petullo,Sth BGO,10.28
6,Jason,Topp-Lowe,Sth BGO,10.36
