OPEN FEMALE,OPEN FEMALE,OPEN FEMALE,OPEN FEMALE,4 km
Place,First Name,Surname,Club,Time
1,Yvette,Touhey,BYM,18.43
2,Julie,Mathew,BYM,19.58
3,Kelly,Buckell,BYM,20.25
4,Deanne,Hocking,Sth BGO,20.43
5,Angela,Slattery,BUAC,21.33
6,Joanne,Weatherhead,BUAC,24.15
