UNDER 18 MALE,UNDER 18 MALE,UNDER 18 MALE,UNDER 18 MALE,4 km
Place,First Name,Surname,Club,Time
1,Mathew,Cindric,BYM,15.14
2,Ashley,Taylor,BYM,15.16
3,Tom,Savage,EGWK,15.48
4,Matthew,Heislers,BUAC,16.03
5,Fraser,Walsh,BUAC,16.15
6,Corey,Clarke,BYM,17.00
7,Nathan,Green,BYM,17.42
8,Josh,Savage,EGWK,18.41
