40+ FEMALE,40+ FEMALE,40+ FEMALE,40+ FEMALE,40+ FEMALE
Place,First Name,Surname,Club,Time
1,Anne,Buckley,HAR,32:57
2,Leanne,Healy,HAR,33:47
3,Georgie ,Lanyon,UNI,33:54
4,Ingrid,Douglass,UNI,35:45
5,Felicity,Harrop,HAR,36:00
6,Alison,Cartner,UNI,36:25
7,Julie,Mathews,HAR,38:19
8,Laura,Terry,UNI,40:05
9,Kylie,Cheal,UNI,40:53
10,Lisa,Bortolotto,UNI,42:15
11,Carol,Sing,UNI,46:55
12,Caroline,Jones,HAR,51:04
