OPEN FEMALE,OPEN FEMALE,OPEN FEMALE,OPEN FEMALE,4 km
Place,First Name,Surname,Club,Time
1,Yvette,Touhey,BYM,19.38
2,Amanda,Worthington,Sth BGO,19.41
3,Carol,Coad,Sth BGO,22.10
4,Melissa,Douglas,BUAC,23.04
5,Jude,Deery,BYM,45.29
