Place,First,Last,NET Time,Pace,Diff
1,Polly,Byrne,0:05:49.6,05:50,-00:34.4
2,Ruby,Carter,0:05:04.7,05:05,-00:29.3
3,Eden,Haythorpe,0:06:28.3,06:28,-00:28.7
4,Miriam,Niblett,0:05:51.6,05:52,-00:24.4
5,Sihanna,Carter,0:05:17.5,05:17,-00:21.5
6,Lyra,Haythorpe,0:05:44.1,05:44,-00:18.9
7,Savannah,Marwood,0:05:03.8,05:04,-00:17.2
8,Max,Rowe,0:03:14.6,03:15,-00:16.4
9,Geoffrey,Robinson,0:04:41.8,04:42,-00:16.2
10,Logan,Beesley,0:04:17.1,04:17,-00:15.9
11,Jonty,McDermid,0:04:07.5,04:07,-00:13.5
12,Jayson,Carter,0:03:22.6,03:23,-00:13.4
13,Eiliyah,Daneen,0:04:46.5,04:46,-00:11.5
14,Avery,McDermid,0:03:37.6,03:38,-00:11.4
15,Lewis,Lonsdale,0:03:38.8,03:39,-00:11.2
16,Mikayla,Kirkby,0:06:31.8,06:32,-00:08.2
17,Genevieve,Robinson,0:05:19.8,05:20,-00:06.2
18,Chloe,Beesley,0:05:14.8,05:15,-00:06.2
19,Leo,Stoltz,0:05:59.7,06:00,-00:05.3
20,April,Wainwright,0:04:28.5,04:28,-00:04.5
21,Braxton,Safstrom,0:04:46.4,04:46,-00:01.6
22,Ebony,Woodward,0:04:15.6,04:16,+00:00.6
23,Harry,Scott,0:04:38.1,04:38,+00:03.1
24,Bonnie,Scott,0:06:06.3,06:06,+00:04.3
25,Skylar,Woodward,0:05:21.5,05:22,+00:12.5
26,Mason,Woodward,0:03:48.4,03:48,+00:14.4
27,Ruby,Douglas,0:06:24.6,06:25,+00:24.6
28,Evie,Niblett,0:06:27.8,06:28,+00:26.8
29,Ellie,Beesley,0:06:39.3,06:39,+00:28.3
30,Olivia,Douglas,0:05:39.4,05:39,+00:31.4
31,Poppy,Wainwright,0:05:46.3,05:46,+00:47.3
32,Chase,Carter,0:07:13.0,07:13,+00:51.0
33,Jack,Haythorpe,0:09:05.6,09:06,+01:06.6
34,Gabe,Nicoletti,0:06:42.4,06:42,+01:19.4
NEW,Alirah,Norton,0:06:32.8,06:33
NEW,Jemma,Norton,0:05:39.6,05:40
NEW,Kai,Norton,0:04:43.2,04:43
NEW,Ethan,Marwood,0:03:55.3,03:55
