Place,Member,First,Last,Start,Pace,Est Time
1,1005,Ann-Marie,Wangdi,00:10,07:59,1:28:08.2
2,3748,Amelia,Mitchell,00:10,07:59,1:28:08.2
3,3750,Genevieve,Draper,00:10,07:59,1:28:08.2
4,3781,Hamish,Draper,00:10,07:59,1:28:08.2
5,40,Aida,Escall,01:40,07:51,1:26:39.8
6,3776,Kathleen,Pleasants,10:10,07:05,1:18:12.0
7,3796,Nathan,Dunn,11:00,07:00,1:17:16.8
8,2,Alan,East,12:00,06:55,1:16:21.6
9,1069,Julie,Marr,13:50,06:45,1:14:31.2
10,1070,Thomas,Lee,14:10,06:43,1:14:09.1
11,3741,Kim,Carter,14:50,06:39,1:13:25.0
12,201,Beatrice,Lonsdale,15:10,06:38,1:13:13.9
13,1068,Nick,O'Meara,15:40,06:35,1:12:40.8
14,270,Tyler,Wilkie,18:10,06:21,1:10:06.2
15,190,Michaela,Meharry,18:20,06:20,1:09:55.2
16,1028,Mel,Debnam-Smith,18:40,06:19,1:09:44.2
17,100,Justine,Rowe,19:20,06:15,1:09:00.0
18,159,Renelle,McManus,19:20,06:15,1:09:00.0
19,43,Josephine,Robinson,20:00,06:11,1:08:15.8
20,191,Phoebe,Lonsdale,20:00,06:11,1:08:15.8
21,66,Megan,McDonald,20:10,06:10,1:08:04.8
22,186,Jason,Anderton,20:10,06:10,1:08:04.8
23,1002,Tammy,Fear,21:10,06:05,1:07:09.6
24,157,Bec,Lacy,21:50,06:01,1:06:25.4
25,6,Shayne,Rushan,22:20,05:59,1:06:03.4
26,16,Jennifer,Lee,22:40,05:57,1:05:41.3
27,197,Sue,Taylor,22:50,05:56,1:05:30.2
28,233,Sue,Anderton,24:00,05:50,1:04:24.0
29,149,Janelle,Giffin,24:10,05:49,1:04:13.0
30,3732,Emma,Gibbons,24:30,05:47,1:03:50.9
31,54,Kevin,de Vries,24:50,05:45,1:03:28.8
32,87,Frances,Walsh,25:00,05:44,1:03:17.8
33,210,Fiona,Dangerfield,25:00,05:44,1:03:17.8
34,3747,Jeremy,Draper,25:50,05:40,1:02:33.6
35,251,Beth,Lavery,26:20,05:37,1:02:00.5
36,111,Troy,Davis,26:40,05:35,1:01:38.4
37,364,David,Howes,27:00,05:33,1:01:16.3
38,1066,Jodie,McLeod,27:40,05:30,1:00:43.2
39,1079,Josh,Kent,27:40,05:30,1:00:43.2
40,91,Melissa,Wilkie,27:50,05:29,1:00:32.2
41,3758,Janis,Bull,27:50,05:29,1:00:32.2
42,1087,Deanna,Marshall,28:00,05:28,1:00:21.1
43,3777,Alistair,Stewart,28:00,05:28,1:00:21.1
44,67,Leeza,Meharry,28:20,05:26,0:59:59.0
45,22,Ross,Douglas,28:30,05:25,0:59:48.0
46,52,Leah,Cripps,28:30,05:25,0:59:48.0
47,3740,Vicki,Lane,28:30,05:25,0:59:48.0
48,74,Maree,Platt,28:40,05:24,0:59:37.0
49,13,Gavin,Fiedler,29:40,05:19,0:58:41.8
50,1058,Tyler,Swann,29:40,05:19,0:58:41.8
51,1041,Lachlan,Cherry,30:00,05:17,0:58:19.7
52,1025,Liz,Foster,30:30,05:14,0:57:46.6
53,59,Tina,McBain,30:40,05:13,0:57:35.5
54,1024,Todd,Foster,30:50,05:12,0:57:24.5
55,307,Philip,Shambrook,31:10,05:11,0:57:13.4
56,77,Brad,Russell,31:40,05:08,0:56:40.3
57,183,Janet,Hodnett,31:40,05:08,0:56:40.3
58,253,Charlotte,Murphy,31:40,05:08,0:56:40.3
59,3,Alan,Buchanan,32:00,05:06,0:56:18.2
60,299,Jay,Sanderson,32:10,05:05,0:56:07.2
61,29,Alison,Cartner,32:30,05:03,0:55:45.1
62,3786,Stephen,McConnell,33:00,05:01,0:55:23.0
63,1078,Leigh,Draper,33:20,04:59,0:55:01.0
64,1088,Molly,Butler,33:20,04:59,0:55:01.0
65,1067,Scott,McLeod,33:40,04:57,0:54:38.9
66,333,Jon,McIntosh,34:00,04:55,0:54:16.8
67,400,Darren,Rowe,34:10,04:54,0:54:05.8
68,1074,David,Burrow,34:10,04:54,0:54:05.8
69,55,Justin,Lee,34:20,04:53,0:53:54.7
70,34,Mathew,Creer,34:50,04:51,0:53:32.6
71,5,Jenny,Buchanan,35:00,04:50,0:53:21.6
72,9,Trinity,Sanderson,35:00,04:50,0:53:21.6
73,254,William,Robinson,35:00,04:50,0:53:21.6
74,1091,Adrian,McMahon,35:00,04:50,0:53:21.6
75,1099,Kelvin,Niblett,35:10,04:49,0:53:10.6
76,3760,Karl,Stoltz,35:10,04:49,0:53:10.6
77,39,Melissa,Douglas,35:20,04:48,0:52:59.5
78,60,Greg,McBain,35:20,04:48,0:52:59.5
79,3726,Clare,Montgomery,35:20,04:48,0:52:59.5
80,3735,Travis,Edwards,35:20,04:48,0:52:59.5
81,1003,Damien,Roberts,35:30,04:47,0:52:48.5
82,14,Lisa,Wilkinson,35:40,04:46,0:52:37.4
83,241,Andrea,Smith,35:40,04:46,0:52:37.4
84,278,James,Russell,35:50,04:45,0:52:26.4
85,359,Anne,McIntosh,35:50,04:45,0:52:26.4
86,1040,Erin,Williams,35:50,04:45,0:52:26.4
87,1072,Michael,Farr,36:10,04:43,0:52:04.3
88,384,Andrew,Wilkie,36:50,04:40,0:51:31.2
89,3788,Matthew,Schubert,36:50,04:40,0:51:31.2
90,3797,Laura,Reynolds,36:50,04:40,0:51:31.2
91,1029,James,Trew,37:10,04:38,0:51:09.1
92,1036,Harry,Wright,37:10,04:38,0:51:09.1
93,31,Charles,Chambers,37:20,04:37,0:50:58.1
94,394,Rhianna,Wik-Gamble,37:20,04:37,0:50:58.1
95,386,Danny,Burgess,37:30,04:36,0:50:47.0
96,85,Joanne,Russell,37:40,04:35,0:50:36.0
97,1020,Mumtaz,Hussain,37:40,04:35,0:50:36.0
98,3763,Brett,Dobbin,38:20,04:32,0:50:02.9
99,65,Ben,McDermid,38:40,04:30,0:49:40.8
100,3714,Tanner,Fear,39:00,04:28,0:49:18.7
101,1057,Wes,Jenkyn,39:10,04:27,0:49:07.7
102,94,David,Lonsdale,40:20,04:21,0:48:01.4
103,49,David,Heislers,40:30,04:20,0:47:50.4
104,3730,Greg,Carter,40:40,04:19,0:47:39.4
105,350,David,Cripps,41:00,04:17,0:47:17.3
106,1009,Nicholas,Cherry,41:20,04:15,0:46:55.2
107,15,Rebecca,Wilkinson,41:40,04:14,0:46:44.2
108,1027,Andrew,Van Agtmaal,42:10,04:11,0:46:11.0
109,63,John,Robinson,42:30,04:09,0:45:49.0
110,169,Floyd,Cartner,42:30,04:09,0:45:49.0
111,3787,Amy,McCormick,43:00,04:06,0:45:15.8
112,118,Tim,Lauder,43:40,04:03,0:44:42.7
113,1043,Michael,Gibbons,43:50,04:02,0:44:31.7
114,84,Craig,Green,44:00,04:01,0:44:20.6
115,33,Andrew,Creer,44:10,04:00,0:44:09.6
116,1080,Jayson,Carter,44:20,03:59,0:43:58.6
117,51,Andrew,Hosking,44:30,03:58,0:43:47.5
118,62,Lee,McCullagh,44:30,03:58,0:43:47.5
119,125,Sarah,Jalim,44:30,03:58,0:43:47.5
120,308,Chris,Giffin,44:30,03:58,0:43:47.5
121,8,Rik,McCaig,44:40,03:57,0:43:36.5
122,1031,Jack,Milligan,44:40,03:57,0:43:36.5
123,88,Brian,Watson,45:20,03:54,0:43:03.4
124,901,Lachlan,Van Schaik,45:20,03:54,0:43:03.4
125,48,Matthew,Heislers,45:30,03:53,0:42:52.3
126,1023,Matthew,Schepisi,45:40,03:52,0:42:41.3
127,42,Craig,Feuerherdt,46:10,03:49,0:42:08.2
128,23,Michael,Bieleny,46:20,03:48,0:41:57.1
129,219,Wil,McCaig,46:20,03:48,0:41:57.1
130,1061,Tarli,Bird,46:20,03:48,0:41:57.1
131,1022,Ben,Stolz,46:40,03:46,0:41:35.0
132,1034,Garry,Marwood,47:30,03:42,0:40:50.9
133,1056,Kye,Jenkyn,48:50,03:35,0:39:33.6
134,3739,Stephen,van Rees,50:00,03:28,0:38:16.3
135,3701,Nigel,Preston,50:10,03:27,0:38:05.3
136,27,Andrew,Buchanan,53:20,03:10,0:34:57.6
