PLACE,FIRST,LAST,TIME,PACE,CLUB
1,Gabrielle,Rusbridge,0:12:57.3,04:14.9,EAGLEHAWK
2,Claire,McCay,0:15:14.3,04:59.8,HARRIERS
3,Chloe,Green,0:15:23.9,05:02.9,UNI
4,Amanda,Worthington,0:15:47.2,05:10.6,SOUTH BENDIGO
5,Ruth,Eadon,0:16:25.4,05:23.1,HARRIERS
6,John,Justice,0:17:27.4,05:43.4,SOUTH BENDIGO
7,Ashleigh,Hallinan,0:17:34.2,05:45.6,HARRIERS
8,Jocelyn,Hall,0:17:39.1,05:47.2,HARRIERS
9,Taylor,Stibbe,0:17:59.5,05:53.9,HARRIERS
10,Ashlie,Thomas,0:18:01.1,05:54.5,HARRIERS
11,Kathy,Heahney,0:18:01.4,05:54.6,EAGLEHAWK
12,Aida,Escall,0:18:24.4,06:02.1,UNI
13,Leah,Langtree,0:18:49.6,06:10.4,EAGLEHAWK
14,Fiona,Preston,0:19:23.9,06:21.6,UNI
15,Olivia,Graham,0:19:53.5,06:31.3,EAGLEHAWK
16,Wendy,Ennor,0:26:06.3,08:33.5,EAGLEHAWK
