Place,Member,First,Last,Start,Pace,Est Time
1,1070,Thomas,Lee,00:10,07:59,1:05:47.0
2,3781,Hamish,Draper,00:10,07:59,1:05:47.0
3,3750,Genevieve,Draper,00:10,07:59,1:05:47.0
4,1028,Mel,Debham,00:10,07:59,1:05:47.0
5,3748,Amelia,Mitchell,00:10,07:59,1:05:47.0
6,1005,Ann-Marie,Wangdi,00:10,07:59,1:05:47.0
7,2,Alan,East,10:10,06:46,0:55:45.4
8,39,Melissa,Douglas,10:20,06:45,0:55:37.2
9,1069,Julie,Marr,10:20,06:45,0:55:37.2
10,3741,Kim,Carter,11:10,06:39,0:54:47.8
11,201,Beatrice,Lonsdale,11:20,06:38,0:54:39.5
12,3776,Kathleen,Pleasants,11:20,06:37,0:54:31.3
13,3715,Chloe,Green,11:40,06:35,0:54:14.8
14,270,Tyler,Wilkie,13:40,06:21,0:52:19.4
15,190,Michaela,Meharry,13:40,06:20,0:52:11.2
16,159,Renelle,McManus,14:30,06:15,0:51:30.0
17,191,Phoebe,Lonsdale,15:00,06:11,0:50:57.0
18,66,Megan,McDonald,15:10,06:10,0:50:48.8
19,397,Taylor,Lovell,15:20,06:08,0:50:32.3
20,100,Justine,Rowe,16:00,06:04,0:49:59.4
21,35,Conor,Cunningham,17:00,05:56,0:48:53.4
22,210,Fiona,Dangerfield,17:20,05:54,0:48:37.0
23,197,Sue,Taylor,17:30,05:52,0:48:20.5
24,157,Bec,Lacy,17:40,05:51,0:48:12.2
25,149,Janelle,Giffin,17:40,05:51,0:48:12.2
26,43,Josephine,Robinson,17:40,05:51,0:48:12.2
27,334,Alex,Trantor,18:10,05:48,0:47:47.5
28,3732,Emma,Gibbons,18:20,05:47,0:47:39.3
29,68,Justin,O'Brien,18:20,05:46,0:47:31.0
30,392,Mark,Logan,19:00,05:42,0:46:58.1
31,54,Kevin,de Vries,19:10,05:40,0:46:41.6
32,251,Beth,Lavery,19:40,05:37,0:46:16.9
33,16,Jennifer,Lee,19:50,05:36,0:46:08.6
34,87,Frances,Walsh,19:50,05:35,0:46:00.4
35,111,Troy,Davis,19:50,05:35,0:46:00.4
36,398,Angus,McPherson,20:40,05:30,0:45:19.2
37,91,Melissa,Wilkie,20:40,05:30,0:45:19.2
38,364,David,Howes,20:50,05:28,0:45:02.7
39,1025,Liz,Foster,20:50,05:28,0:45:02.7
40,359,Anne,McIntosh,20:50,05:28,0:45:02.7
41,52,Leah,Cripps,20:50,05:28,0:45:02.7
42,67,Leeza,Meharry,21:10,05:26,0:44:46.2
43,3777,Alistair,Stewart,21:20,05:25,0:44:38.0
44,299,Jay,Sanderson,21:30,05:24,0:44:29.8
45,74,Maree,Platt,21:40,05:22,0:44:13.3
46,3740,Vicki,Lane,22:00,05:20,0:43:56.8
47,1058,Tyler,Swann,22:10,05:19,0:43:48.6
48,339,James,Toomey,22:10,05:19,0:43:48.6
49,13,Gavin,Fiedler,22:10,05:19,0:43:48.6
50,6,Shayne,Rushan,22:10,05:18,0:43:40.3
51,1041,Lachlan,Cherry,22:20,05:17,0:43:32.1
52,77,Brad,Russell,22:40,05:15,0:43:15.6
53,59,Tina,McBain,23:00,05:13,0:42:59.1
54,180,Lauren,Hancock,23:00,05:12,0:42:50.9
55,3747,Jeremy,Draper,23:10,05:11,0:42:42.6
56,307,Philip,Shambrook,23:20,05:10,0:42:34.4
57,253,Charlotte,Murphy,23:40,05:08,0:42:17.9
58,183,Janet,Hodnett,23:50,05:06,0:42:01.4
59,1024,Todd,Foster,24:20,05:03,0:41:36.7
60,9,Trinity,Sanderson,24:20,05:03,0:41:36.7
61,22,Ross,Douglas,24:40,05:01,0:41:20.2
62,333,Jon,McIntosh,24:40,05:01,0:41:20.2
63,400,Darren,Rowe,24:40,05:00,0:41:12.0
64,3702,Vicki,Bayliss,24:50,04:59,0:41:03.8
65,315,Paul,Lomax,24:50,04:59,0:41:03.8
66,241,Andrea,Smith,25:00,04:58,0:40:55.5
67,29,Alison,Cartner,25:30,04:54,0:40:22.6
68,369,Stephen,Wainwright,25:30,04:54,0:40:22.6
69,296,Ashlee,Diston,25:40,04:53,0:40:14.3
70,3714,Tanner,Fear,25:40,04:53,0:40:14.3
71,18,Georgie,Lanyon,26:00,04:51,0:39:57.8
72,34,Mathew,Creer,26:00,04:51,0:39:57.8
73,3735,Travis,Edwards,26:20,04:48,0:39:33.1
74,3726,Clare,Montgomery,26:20,04:48,0:39:33.1
75,5,Jenny,Buchanan,26:30,04:47,0:39:24.9
76,1020,Mumtaz,Hussain,26:40,04:46,0:39:16.6
77,278,James,Russell,26:40,04:46,0:39:16.6
78,14,Lisa,Wilkinson,26:50,04:45,0:39:08.4
79,60,Greg,McBain,27:00,04:43,0:38:51.9
80,394,Rhianna,Wik-Gamble,27:10,04:42,0:38:43.7
81,1036,Harry,Wright,27:40,04:38,0:38:10.7
82,3,Alan,Buchanan,27:50,04:37,0:38:02.5
83,31,Charles,Chambers,28:20,04:34,0:37:37.8
84,384,Andrew,Wilkie,28:30,04:33,0:37:29.5
85,109,Tim,Lovell,28:30,04:33,0:37:29.5
86,3744,Finn,MacGregor,28:40,04:31,0:37:13.0
87,55,Justin,Lee,28:40,04:31,0:37:13.0
88,1003,Damien,Roberts,28:40,04:31,0:37:13.0
89,396,Simon,Hunt,28:50,04:30,0:37:04.8
90,1057,Wes,Jenkyn,29:20,04:27,0:36:40.1
91,350,David,Cripps,30:00,04:22,0:35:58.9
92,17,Karl,Lanyon,30:00,04:21,0:35:50.6
93,386,Danny,Burgess,30:10,04:20,0:35:42.4
94,3734,Lukas,Jara,30:30,04:18,0:35:25.9
95,1031,Jack,Milligan,30:50,04:16,0:35:09.4
96,1009,Nicholas,Cherry,30:50,04:15,0:35:01.2
97,49,David,Heislers,31:00,04:14,0:34:53.0
98,3730,Greg,Carter,31:10,04:13,0:34:44.7
99,1027,Andrew,Van Agtmaal,31:30,04:11,0:34:28.2
100,308,Chris,Giffin,31:40,04:10,0:34:20.0
101,65,Ben,McDermid,31:40,04:10,0:34:20.0
102,1043,Michael,Gibbons,31:50,04:08,0:34:03.5
103,94,David,Lonsdale,31:50,04:08,0:34:03.5
104,15,Rebecca,Wilkinson,32:00,04:07,0:33:55.3
105,399,Darren,Hartland,32:00,04:07,0:33:55.3
106,63,John,Robinson,32:20,04:04,0:33:30.6
107,118,Tim,Lauder,32:30,04:03,0:33:22.3
108,3746,Peter,King,33:00,04:00,0:32:57.6
109,301,Jarrod,Eps,33:00,04:00,0:32:57.6
110,84,Craig,Green,33:10,03:59,0:32:49.4
111,125,Sarah,Jalim,33:10,03:59,0:32:49.4
112,1034,Garry,Marwood,33:20,03:57,0:32:32.9
113,8,Rik,McCaig,33:30,03:56,0:32:24.6
114,88,Brian,Watson,33:50,03:54,0:32:08.2
115,33,Andrew,Creer,34:00,03:53,0:31:59.9
116,62,Lee,McCullagh,34:00,03:53,0:31:59.9
117,48,Matthew,Heislers,34:00,03:53,0:31:59.9
118,1023,Matthew,Schepisi,34:00,03:52,0:31:51.7
119,42,Craig,Feuerherdt,34:30,03:49,0:31:27.0
120,219,Wil,McCaig,34:40,03:48,0:31:18.7
121,1022,Ben,Stolz,34:50,03:46,0:31:02.2
122,23,Michael,Bieleny,34:50,03:46,0:31:02.2
123,1061,Tarli,Bird,34:50,03:46,0:31:02.2
124,3739,Stephen,van Rees,36:20,03:36,0:29:39.8
125,1056,Kye,Jenkyn,36:20,03:35,0:29:31.6
126,3701,Nigel,Preston,37:00,03:31,0:28:58.6
127,86,Fraser,Walsh,38:40,03:19,0:27:19.8
128,27,Andrew,Buchanan,39:50,03:10,0:26:05.6
