order,first name,surname,start,est. mins/km,est. mins/km,est. time
1,Eric,Aardvark,00:00,7,00,1:10:00
2,Pam ,Holland,00:00,7,00,1:10:00
3,Ali,Musk,01:50,6,49,1:08:10
4,Julie ,Hogan,07:30,6,15,1:02:30
5,Verity ,Perez,07:30,6,15,1:02:30
6,Natalie,Watson,08:00,6,12,1:02:00
7,Marianne,Richardson,08:20,6,10,1:01:40
8,Alan ,East,09:00,6,06,1:01:00
9,John ,Doering,09:50,6,01,1:00:10
10,Michael ,Turner,10:00,6,00,1:00:00
11,Catherine,Pethybridge,10:30,5,57,59:30
12,Jodie,Scoble,11:40,5,50,58:20
13,Joanne,Weatherhead,11:40,5,50,58:20
14,Julia,Perez,11:40,5,50,58:20
15,Simone,Healy,11:40,5,50,58:20
16,John ,Taylor,11:50,5,49,58:10
17,Maree,Reid,13:00,5,42,57:00
18,Tracie,Gleisner,13:00,5,42,57:00
19,Biljana,Ansted,13:20,5,40,56:40
20,Gabby ,Walsh,15:00,5,30,55:00
21,Sheridan,Hail,15:30,5,27,54:30
22,Maree,Platt,15:30,5,27,54:30
23,Wayne ,Forbes,15:40,5,26,54:20
24,Harry ,Terry,15:40,5,26,54:20
25,Andrew ,Boshcetti,15:50,5,25,54:10
26,Noah,Walsh,16:20,5,22,53:40
27,Frances,Walsh,16:30,5,21,53:30
28,Lisa,McDermid,17:00,5,18,53:00
29,Shann,Anderson,17:20,5,16,52:40
30,Helen,WeeHee,17:20,5,16,52:40
31,Melissa,Douglass,17:30,5,15,52:30
32,Emma,Burke,17:40,5,14,52:20
33,Brian,Brasher,18:00,5,12,52:00
34,Alison ,McCullagh,18:00,5,12,52:00
35,Peter,Noble,18:00,5,12,52:00
36,Angela,Slattery,18:00,5,12,52:00
37,Nicole,Richardson,18:00,5,12,52:00
38,Stacy,Hunter,18:10,5,11,51:50
39,Kylie,Cheal,18:50,5,07,51:10
40,John ,Brewin,19:10,5,05,50:50
41,Kevin ,Perez,19:10,5,05,50:50
42,Jarrah,O'Shea,19:40,5,02,50:20
43,Brad ,Russell,19:50,5,01,50:10
44,Jackie,Tremayne,19:50,5,01,50:10
45,Scott ,Roberts,20:00,5,00,50:00
46,Laura,Terry,20:00,5,00,50:00
47,Penny,Spencer,20:00,5,00,50:00
48,Kylie,Buchanan,20:00,5,00,50:00
49,Andrew ,Evely,20:10,4,59,49:50
50,Sam,Brewin,20:20,4,58,49:40
51,David ,Perris,20:30,4,57,49:30
52,Genevieve,Green,20:50,4,55,49:10
53,Jennifer ,Lee,21:10,4,53,48:50
54,Kim,Townrow,21:10,4,53,48:50
55,Matt,Constable,21:20,4,52,48:40
56,Liz ,Foster,21:20,4,52,48:40
57,Scott ,Padgham,21:30,4,51,48:30
58,Justin ,O'Brien,21:40,4,50,48:20
59,Tina,McBain,21:50,4,49,48:10
60,Hayden,Brook,22:00,4,48,48:00
61,Janet ,Hodnett,22:00,4,48,48:00
62,Conor,Cunningham,22:00,4,48,48:00
63,Shayne ,Rushan,22:10,4,47,47:50
64,Laura,Reynolds,22:10,4,47,47:50
65,Alison ,Cartner,22:30,4,45,47:30
66,Nick ,Walsh ,22:30,4,45,47:30
67,Dan,Holland,22:30,4,45,47:30
68,Justin,Lee,23:20,4,40,46:40
69,Brett ,Houlden,23:30,4,39,46:30
70,Jenny ,Buchanan,23:40,4,38,46:20
71,Gary ,Crouch ,23:40,4,38,46:20
72,Maria,Slater,23:40,4,38,46:20
73,Steve ,Corrie,24:00,4,36,46:00
74,David ,Heislers,24:00,4,36,46:00
75,Roy,Preece,24:00,4,36,46:00
76,Lisa,Wilkinson,24:00,4,36,46:00
77,Mark,Saxon,24:10,4,35,45:50
78,Maddy,Evely,24:10,4,35,45:50
79,Holly,Randall,24:20,4,34,45:40
80,Owen,Davies,24:40,4,32,45:20
81,Ingrid ,Douglass,25:00,4,30,45:00
82,Emma,Moylan,25:00,4,30,45:00
83,Jaclyn,Munge,25:00,4,30,45:00
84,Greg ,McBain,25:20,4,28,44:40
85,Todd ,Foster,25:50,4,25,44:10
86,Ryan,Brook,26:10,4,23,43:50
87,Michael ,Hogan,26:10,4,23,43:50
88,John ,McCullagh ,26:40,4,20,43:20
89,Erica,Wilkinson,26:40,4,20,43:20
90,Alan ,Buchanan,26:50,4,19,43:10
91,Georgie,Lanyon,26:50,4,19,43:10
92,Gavin ,Fiedler,27:00,4,18,43:00
93,Aaron,Anderson,27:10,4,17,42:50
94,Leon ,Hamond ,27:10,4,17,42:50
95,Steve ,Brereton ,27:30,4,15,42:30
96,Max,Pearse,27:30,4,15,42:30
97,Josh,Hunter,27:40,4,14,42:20
98,Michael ,Gibbon,27:40,4,14,42:20
99,Chris,McCormack,27:50,4,13,42:10
100,Daniel,Vains,28:00,4,12,42:00
101,Scott ,Alterater,28:10,4,11,41:50
102,Matthew,Heislers,28:30,4,09,41:30
103,Jeff,Pethybridge,28:50,4,07,41:10
104,Tracy ,Wilson,28:50,4,07,41:10
105,Andrew ,Creer,29:10,4,05,40:50
106,Russell ,Tremayne,29:40,4,02,40:20
107,Rebecca,Tweed,30:00,4,00,40:00
108,Brock,Prime,30:00,4,00,40:00
109,Charles,Chambers,30:00,4,00,40:00
110,Craig,Feuerherdt,30:20,3,58,39:40
111,Brian,Watson,30:20,3,58,39:40
112,Jim,Russell,30:30,3,57,39:30
113,Luke,Gregory,30:40,3,56,39:20
114,Russell ,Jenkins,30:40,3,56,39:20
115,David ,Tarrant,30:40,3,56,39:20
116,Ben ,McDermid,31:10,3,53,38:50
117,Jason ,Fletcher,31:40,3,50,38:20
118,Jason ,Sim,31:40,3,50,38:20
119,Troy,Cartner,31:50,3,49,38:10
120,Lee ,McCullagh,32:00,3,48,38:00
121,Patrick ,Kenny ,32:20,3,46,37:40
122,Simon,Austin,32:30,3,45,37:30
123,Ross,McPhee,32:30,3,45,37:30
124,Michael ,Bieleny ,32:40,3,44,37:20
125,Luke ,Hutchins,33:20,3,40,36:40
126,Fraser,Walsh,34:20,3,34,35:40
127,Richard,Gleisner,35:10,3,29,34:50
128,Bryan,Keely,35:50,3,25,34:10
129,Andrew ,Buchanan,36:00,3,24,34:00
